MODULE FoxInterfaceComparison; (** AUTHOR "fof"; PURPOSE "compare interfaces / check symbol file compliances"; *)

IMPORT Basic := FoxBasic, SyntaxTree := FoxSyntaxTree, Formats := FoxFormats, Fingerprinter := FoxFingerprinter, Global := FoxGlobal, SemanticChecker := FoxSemanticChecker, Diagnostics, Strings, D := Debugging;

CONST
	Redefined*=0;
	Extended*=1;
	Trace=FALSE;

	PROCEDURE CompareThis*(module: SyntaxTree.Module; symbolFileFormat: Formats.SymbolFileFormat; diagnostics: Diagnostics.Diagnostics; importCache: SyntaxTree.ModuleScope;  VAR flags: SET);
	VAR fname: Basic.FileName; importedModule: SyntaxTree.Module; fingerprinter: Fingerprinter.Fingerprinter;

	PROCEDURE SameType(new,old: SyntaxTree.Type): BOOLEAN;
	VAR fpNew,fpOld: SyntaxTree.Fingerprint;
	BEGIN
		old := old.resolved; new := new.resolved;

		IF old IS SyntaxTree.PointerType THEN
			old := old(SyntaxTree.PointerType).pointerBase;
		END;
		IF new IS SyntaxTree.PointerType THEN
			new := new(SyntaxTree.PointerType).pointerBase;
		END;
		fpNew := fingerprinter.TypeFP(new);
		fpOld := fingerprinter.TypeFP(old);
		IF Trace THEN
			D.String("-->"); D.Ln;
			D.String("fpOld "); Fingerprinter.DumpFingerprint(D.Log,fpOld); D.Ln;
			D.String("fpNew "); Fingerprinter.DumpFingerprint(D.Log,fpNew); D.Ln;
		END;
		RETURN (fpNew.private = fpOld.private) & (fpNew.public = fpOld.public) & (fpNew.shallow = fpOld.shallow);
	END SameType;

	PROCEDURE CompareSymbols(new,old: SyntaxTree.Symbol): BOOLEAN;
	VAR fpNew,fpOld: SyntaxTree.Fingerprint; oldType, newType: SyntaxTree.Type;
	BEGIN
		fpNew := fingerprinter.SymbolFP(new);
		fpOld := fingerprinter.SymbolFP(old);

		ASSERT(new.name.и=old.name.и);

		IF (fpNew.shallow # fpOld.shallow) THEN
			IF Trace THEN
				D.String("fp of "); D.Str0(new.name.и); D.Ln;
				D.String("fpOld "); Fingerprinter.DumpFingerprint(D.Log,fpOld); D.Ln;
				D.String("fpNew "); Fingerprinter.DumpFingerprint(D.Log,fpNew); D.Ln;
			END;
			RETURN FALSE
		ELSIF (new IS SyntaxTree.TypeDeclaration) & (old IS SyntaxTree.TypeDeclaration) THEN
			oldType := old(SyntaxTree.TypeDeclaration).declaredType;
			newType := new(SyntaxTree.TypeDeclaration).declaredType;

			IF ~SameType(newType,oldType) THEN
				IF Trace THEN
					D.String("<-- type fp of "); D.Str0(new.name.и); D.Ln;
				END;
				RETURN FALSE
			END;
		END;
		RETURN TRUE
	END CompareSymbols;

	PROCEDURE ErrorSS(pos: SyntaxTree.Position; CONST s1,s2: ARRAY OF CHAR);
	VAR msg: ARRAY 256 OF CHAR;
	BEGIN
		COPY(s1,msg);
		Strings.Append(msg,s2);
		IF (module # NIL) THEN
			Basic.Information(diagnostics, module.sourceName,pos,msg);
		END;
	END ErrorSS;

	PROCEDURE NextSymbol(symbol: SyntaxTree.Symbol): SyntaxTree.Symbol;
	BEGIN
		WHILE (symbol # NIL) & (symbol IS SyntaxTree.Import) DO
			symbol := symbol.nextSymbol;
		END;
		RETURN symbol
	END NextSymbol;

	PROCEDURE CompareScopes(new,old: SyntaxTree.Scope);
	VAR newSymbol, oldSymbol: SyntaxTree.Symbol;
		newName, oldName: Basic.SectionName;
		newPublic, oldPublic: BOOLEAN;
	BEGIN
		oldSymbol := NextSymbol(old.firstSymbol);
		newSymbol := NextSymbol(new.firstSymbol);

		WHILE (oldSymbol # NIL) & (newSymbol # NIL) DO
			Global.GetSymbolName(oldSymbol,oldName);
			Global.GetSymbolName(newSymbol,newName);
			oldPublic := oldSymbol.access * SyntaxTree.Public # {};
			newPublic := newSymbol.access * SyntaxTree.Public # {};
			IF oldName = newName THEN
				IF oldPublic = newPublic THEN
					IF ~CompareSymbols(newSymbol, oldSymbol) THEN
						ErrorSS(newSymbol.position,newName," is redefined");

						INCL(flags,Redefined);
					END;
				ELSIF oldPublic THEN
					ErrorSS(newSymbol.position,newName," is no longer visible");
					INCL(flags,Redefined);
				ELSIF newPublic THEN
					ErrorSS(newSymbol.position,newName," is new");
					INCL(flags,Extended);
				END;
				oldSymbol := NextSymbol(oldSymbol.nextSymbol);
				newSymbol := NextSymbol(newSymbol.nextSymbol);
			ELSIF oldName < newName THEN
				IF oldPublic THEN
					ErrorSS(Basic.invalidPosition,oldName," is no longer visible");
					INCL(flags,Redefined);
				END;
				oldSymbol := NextSymbol(oldSymbol.nextSymbol);
			ELSE
				IF newPublic THEN
					ErrorSS(newSymbol.position,newName," is new");
					INCL(flags,Extended);
				END;
				newSymbol := NextSymbol(newSymbol.nextSymbol);
			END;
		END;

		WHILE (oldSymbol # NIL) DO
			oldSymbol.GetName(oldName);
			oldPublic := oldSymbol.access * SyntaxTree.Public # {};
			IF oldSymbol.access * SyntaxTree.Public # {} THEN
				ErrorSS(Basic.invalidPosition,oldName," is no longer visible");
				INCL(flags,Redefined);
			END;
			oldSymbol := NextSymbol(oldSymbol.nextSymbol);
		END;

		WHILE (newSymbol # NIL) DO
			newSymbol.GetName(newName);
			newPublic := newSymbol.access * SyntaxTree.Public # {};
			IF newPublic THEN
				ErrorSS(newSymbol.position,newName," is new");
				INCL(flags,Extended);
			END;
			newSymbol := NextSymbol(newSymbol.nextSymbol);
		END;
	END CompareScopes;

	BEGIN
		Global.ModuleFileName(module.name,module.context,fname);
		importedModule := symbolFileFormat.Import(fname,importCache);

		NEW(fingerprinter);
		IF importedModule # NIL THEN
			CompareScopes(module.moduleScope,importedModule.moduleScope);
			IF importCache # NIL THEN SemanticChecker.RemoveModuleFromCache(importCache, importedModule) END;
		ELSE
			(* ErrorSS(Streams.Invalid,fname," new module."); *)
		END;
	END CompareThis;

END FoxInterfaceComparison.
