MODULE LisGlobal; (** AUTHOR "fof & fn"; PURPOSE "Oberon Compiler Globally Defined Symbols"; *)
(* (c) fof ETH Zürich, 2008 *)

(* Весьма вероятно, что здесь нужно глубже использовать идентификаторы, а не только их имена *)

IMPORT
	SyntaxTree := LisSyntaxTree, Basic := FoxBasic, Scanner := LisScanner, Strings, Dates, ПереводыЭлементовКода, УтилитыДляПереводаКода := LisУтилитыДляПереводаКода;

CONST

	квоСерийКлючевыхСлов = 3;
	(* system flag names *)
	StringWinAPI* = "WINAPI"; (* также используется как значение опции компилятора *)
	StringC* = "C"; (* также используется как значение опции компилятора *)
	StringPlatformCC = "PlatformCC";
	StringMovable = "MOVABLE";
	(* StringUntraced = "UNTRACED"; *)
	StringUntracked = "UNTRACKED";
	(* StringDelegate = "DELEGATE"; *)
	StringInterrupt = "INTERRUPT";
	StringPcOffset = "PCOFFSET";
	StringEntry = "INITIAL";
	(* StringExit = "FINAL"; *)
	StringNoPAF ="NOPAF";
	(* StringFixed = "FIXED";
	StringFictive = "FICTIVE";
	StringAligned = "ALIGNED"; *)
	StringAlignStack = "ALIGNSTACK";
	(* StringFinal = "FINAL"; *)
	StringAbstract = "ABSTRACT";
	StringRegister = "REGISTER";
	StringNoReturn = "NORETURN";
	(* StringUnsafe = "UNSAFE"; *)
	(* StringPlain = "PLAIN"; *)
	StringDisposable = "DISPOSABLE";
	(* StringUnchecked = "UNCHECKED";
	StringUncooperative = "UNCOOPERATIVE"; *)

	(* block modifier flag names *)
	(* StringExclusive = "EXCLUSIVE";
	StringActive = "ACTIVE";
	StringPriority = "PRIORITY"; *)
	StringSafe = "SAFE";
	(* StringRealtime = "REALTIME"; *)
	StringDynamic = "DYNAMIC";

	StringFingerprint = "Fingerprint";
 
	(* StringInstructionWidth*="InstructionWidth"; нет такого *)
	StringDataMemorySize = "DataMemorySize";
	StringCodeMemorySize = "CodeMemorySize";
	(* StringChannelWidth = "ChannelWidth";
	StringChannelDepth = "ChannelDepth"; *)
	StringChannelModule* = "Channels";

	StringSystemModule* = "SYSTEM";
	StringsystemModule* = "system";

	StringBaseMem*= "BaseMem";
	StringBaseDiv*= "BaseDiv";

	StringVector = "Vector";
	StringFloatingPoint = "FloatingPoint";
	StringNoMul = "NoMul";
	StringNonBlockingIO = "HasNonBlockingIO";
	StringFrequencyDivider = "FrequencyDivider";
	StringEngine = "Engine";
	StringTRM = "TRM";
	StringTRMS = "TRMS";
	StringBackend = "Backend";
	StringRuntime = "Runtime";

	(* traps *)
	WithTrap* = 1;
	CaseTrap* = 2;
	ReturnTrap* = 3;
	TypeEqualTrap* = 5;
	TypeCheckTrap* = 6;
	IndexCheckTrap* = 7;
	AssertTrap* = 8;
	ArraySizeTrap* = 9;
	ArrayFormTrap*=10; (* fof: indicates that array cannot be (re-)allocated since shape, type or size does not match *)
	NoReturnTrap*=16;

	(** builtin procedures **)
	(* FoxProgTools.Enum -e -i
		(* global proper procedures *)
		Assert  Copy  Dec  Excl  Halt  Inc  Incl  New Dispose GetProcedure Connect Delegate
		Read Write Reshape Wait
		(* global functions *)
		Abs   Cap  Chr  Entier  EntierH  Incr Len  Long  Max  Min Odd  Ord  Ord32 Short  Size
		Sum Dim Cas First Last Step Re Im Ash Lsh Rot
		(* system proper procedures *)
		systemGet  systemPut  systemMove  systemNew systemRef
		systemTypeCode systemHalt
		systemPut8 systemPut16 systemPut32 systemPut64 systemTrace
		systemSetStackPointer systemSetFramePointer systemSetActivity
		(* system functions *)
		systemAdr  systemSize systemBit  systemGet64  systemGet32  systemGet16  systemGet8
		systemVal systemMsk
		systemGetStackPointer systemGetFramePointer systemGetActivity

		(* for active cells *)
		Send Receive
		(* for backend specific extensions *)
		systemSpecial
		(* compatibility with Oberon07 -- other mappings: LSL -> LSH, FLOOR -> Entier, Pack und Unpk currently unsupported *)
		Asr Ror Flt

		Conversion
		DotTimesPlus AtMulDec AtMulInc DecMul IncMul
		endFox
		~
	*)

	(* global proper procedures *)
	Assert*= Scanner.EndOfText+1; Copy*= Assert+1; Dec*= Copy+1; Excl*= Dec+1; Halt*= Excl+1; Inc*= Halt+1; Incl*= Inc+1; New*= Incl+1; Dispose*= New+1; GetProcedure*= Dispose+1; Connect*= GetProcedure+1; Delegate*= Connect+1; Read*= Delegate+1; Write*= Read+1; Reshape*= Write+1; Wait*= Reshape+1;
	(* global functions *)
	Abs*= Wait+1; Cap*= Abs+1; Chr*= Cap+1; Entier*= Chr+1; EntierH*= Entier+1; Incr*= EntierH+1; Len*= Incr+1; Long*= Len+1; Max*= Long+1; Min*= Max+1; Odd*= Min+1; Ord*= Odd+1; Ord32*= Ord+1; Short*= Ord32+1; Size*= Short+1; Sum*= Size+1; Dim*= Sum+1; Cas*= Dim+1; First*= Cas+1; Last*= First+1; Step*= Last+1; Re*= Step+1; Im*= Re+1; Ash*= Im+1; Lsh*= Ash+1; Rot*= Lsh+1;
	All* = Rot+1;
	(* system proper procedures *)
	systemGet*= All+1; systemPut*= systemGet+1; systemMove*= systemPut+1; systemNew*= systemMove+1; systemRef*= systemNew+1; systemTypeCode*= systemRef+1; systemHalt*= systemTypeCode+1; systemPut8*= systemHalt+1; systemPut16*= systemPut8+1; systemPut32*= systemPut16+1; systemPut64*= systemPut32+1; systemTrace*= systemPut64+1; systemSetStackPointer*= systemTrace+1; systemSetFramePointer*= systemSetStackPointer+1; systemSetActivity*= systemSetFramePointer+1;
	(* system functions *)
	systemAdr*= systemSetActivity+1; systemSize*= systemAdr+1; systemBit*= systemSize+1; systemGet64*= systemBit+1; systemGet32*= systemGet64+1; systemGet16*= systemGet32+1; systemGet8*= systemGet16+1; systemVal*= systemGet8+1; systemMsk*= systemVal+1; systemGetStackPointer*= systemMsk+1; systemGetFramePointer*= systemGetStackPointer+1; systemGetActivity*= systemGetFramePointer+1;
	(* for active cells *)
	Send*= systemGetActivity+1; Receive*= Send+1;
	(* for backend specific extensions *)
	systemSpecial*= Receive+1;
	(* shifts with fixed direction, arithmetic or logical depending on argument type *)
	Shl*= systemSpecial+1; Shr*= Shl+1;
	Rol*= Shr+1; Ror*= Rol+1;

	Flt*= Ror+1; Conversion*= Flt+1; DotTimesPlus*= Conversion+1; AtMulDec*= DotTimesPlus+1; AtMulInc*= AtMulDec+1; DecMul*= AtMulInc+1; IncMul*= DecMul+1; 
	
	(* Флаги, а точнее, номера их имён, видимые в глобальной области видимости *)
	
	НачалоФлагов* = 1310;
	
	(* все вот эти нужно англифицировать и превратить в соответствующие Name. 
	Соответствующие String вообще выкинуть и посмотреть, где сломается *)
	NameWinAPI* = 1311;
	NameC* = 1312;
	NamePlatformCC* = 1313;
	NameMovable* = 1314;
	NameUntraced* = 1315;
	NameUntracked* = 1316;
	NameDelegate* = 1317; (* DELEGATE *)
	NameInterrupt* = 1318;
	NamePcOffset* = 1319;
	NameInitial* = 1320; (* StringEntry *)
	(* Здесь был Exit, но он совпадает с Final, т.к. слово FINAL, нужно отрефакторить *)
	NameNoPAF* = 1321; (* NOPAF *)
	NameEntry* = 1322;
	NameFixed* = 1323;
	NameFictive* = 1324; (* FICTIVE *)
	NameAligned* = 1325; (* ALIGNED *)
	NameAlignStack* = 1326;
	NameFinal* = 1327; (* FINAL, но у неё в А2 также есть смысл Exit, а записывается одинаково как Final, значит, нам тут не очень повезло и приходится 
		брать термин «Итоговая», чтобы более-менее подходил под оба варианта использования *)
	NameAbstract* = 1328;
	NameRegister* = 1329;
	NameNoReturn* = 1330;
	NameUnsafe* = 1331; (* UNSAFE *)
	NamePlain* =  1332; (* PLAIN *)
	NameDisposable* = 1333;
	NameUnchecked* = 1334; (*UNCHECKED*)
	NameUncooperative* = 1335; (* UNCOOPERATIVE *)
	NameExclusive* = 1336; (* EXCLUSIVE *)
	NameActive* = 1337;
	NamePriority* = 1338; (* PRIORITY *)
	NameSafe* = 1339;
	NameRealtime* = 1340; (* REALTIME *)
	NameDynamic* = 1341;
	
	(* Protected*= 1240; *) (* такого нет в исходниках *)
	NameFingerprint* = 1342; (* Fingerprint *)

	(* С этого места и далее нужно разбираться, есть ли такой модификатор или нет *)
	(* StringInstructionWidth*="InstructionWidth"; такого нет *)
	NameDataMemorySize*= 1343; 
	NameCodeMemorySize*= 1344;
	
	NameПерекрыта* = 1345;
	(* StringChannelWidth*= "ChannelWidth";
	StringChannelDepth*= "ChannelDepth"; таких нет *)
	
	
	(* это не флаг, пусть остаётся строкой! *)
	(* StringChannelModule *)
	
	(* StringBaseMem*= "BaseMem";
	StringBaseDiv*= "BaseDiv"; *)
	
	NameVector*=1354;
	NameFloatingPoint*=1355;
	NameNoMul*=1356;
	NameNonBlockingIO*=1357;
	NameFrequencyDivider*=1358;
	NameEngine*=1359;
	NameTRM*=1360;
	NameTRMS*=1361;
	NameBackend*=1362;
	NameRuntime*=1363;
	
	
	
	endFox*= NameRuntime+1;

	VectorCapability* = 0;
	FloatingPointCapability*= 1;
	EngineCapability*= 2;
	TRMSCapability*= 3;
	NoMulCapability*=4;
	NonBlockingIOCapability*=5;
	maxSet64*=63; (* ищи также maxSetA *)
CONST

	end = endFox + 10;

VAR
	(* names *)
	SelfParameterName-,ReturnParameterName-,SystemName-,systemName-,НИЗКОУРName-,PointerReturnName-, ResultName-,
	A2Name-,ArrayBaseName-, ComplexNumbersName-, RecordBodyName-,ModuleBodyName-(*,
	NameWinAPI-,NameC-,NamePlatformCC-,NameMovable-,NameUntraced-, NameUntracked-, NameDelegate-,NameInterrupt-, NamePcOffset-, NameNoPAF-,NameEntry-, NameExit-, NameFixed-,NameFictive-, NameAligned-,NameAlignStack-,
	NameExclusive-,NameActive-,NamePriority-,NameSafe-,NameRealtime-, NameDynamic-, NameFingerprint-, NameDataMemorySize-, NameCodeMemorySize-
	, NameChannelWidth-, NameChannelDepth-, NameVector-, NameFloatingPoint-, NameNoMul-,NameNonBlockingIO-, NameTRM-, NameTRMS-, NameEngine-, NameFinal-, NameAbstract-,
	NameBackend-, NameRuntime-, NameFrequencyDivider-, NameRegister-,NameNoReturn-,NamePlain-,NameUnsafe-,NameDisposable-,NameUnchecked-,NameUncooperative- *): SyntaxTree.Identifier; 
	
	IdentifierChannelModule-, IdentifierEngine- : SyntaxTree.Identifier;
	NameGlobal-, Nameglobal: SyntaxTree.Identifier;
	
	identifiers: ARRAY квоСерийКлючевыхСлов OF ARRAY end OF SyntaxTree.Identifier;

	(* some handy type variables for backend / checker implementers *)
	Signed8-, Signed16-, Signed32-, Signed64-: SyntaxTree.IntegerType;
	Unsigned8-, Unsigned16-, Unsigned32-, Unsigned64-: SyntaxTree.IntegerType;
	Set8-, Set16-, Set32-, Set64-: SyntaxTree.SetType;
	Float32-, Float64-: SyntaxTree.FloatType;
	Complex32-, Complex64-: SyntaxTree.ComplexType;

TYPE
	Position = SyntaxTree.Position;

	Alignment* = RECORD
		min, max: SIGNED32; (* alignments in bits *)
	END;

	PassInRegisterProc = PROCEDURE {DELEGATE} (type: SyntaxTree.Type): BOOLEAN;

	System*= OBJECT
	VAR
		(* system and global scopes and modules  (lowercase and uppercase each) *)
		systemScope-, globalScope-: ARRAY квоСерийКлючевыхСлов OF SyntaxTree.ModuleScope;
		systemModule-,globalModule-: ARRAY квоСерийКлючевыхСлов OF SyntaxTree.Module;
		activeCellsCapabilities-: SyntaxTree.Symbol; (* list of supported capabilities, filled by ActiveCells specification *)

		(* addressing granularity in code and data memory *)
		codeUnit-: SIGNED32;
		dataUnit-: SIGNED32;
		(* alignment (variables, record entries) *)
		(* alignment (parameters & stack frames) *)
		variableAlignment-, parameterAlignment-: Alignment;
		(* offset of first parameter *)
		offsetFirstParameter-: SIGNED32;
		offsetFirstVariable-: SIGNED32;
		(* to determine if a builtin-procedure can be operator-overloaded *)
		operatorDefined-: ARRAY end OF BOOLEAN;

		(* type sizes defined by backend *)
		addressSize-: SIGNED32;

		(* system type mapping *)
		addressType-, sizeType-, integerType-, longIntegerType-, integerSetType-, characterType-, 
		setType64-, setTypeA-, booleanType-, anyType-, byteType-,
		realType-, complexType-, objectType-, nilType-, rangeType-: SyntaxTree.Type;

		CanPassInRegister-: PassInRegisterProc;
		cellsAreObjects-: BOOLEAN;
		platformCallingConvention-: SyntaxTree.CallingConvention;

		(* MAX values of commonly-used types *)
		maxSize-, maxSetA- (* см. также maxSet64 *): Basic.Integer;

		PROCEDURE &InitSystem*(codeUnit, dataUnit: SIGNED32; addressSize, minVarAlign, maxVarAlign, minParAlign, maxParAlign, offsetFirstPar, offsetFirstVar: SIGNED32; cooperative: BOOLEAN);
		VAR i: SIGNED32;
		BEGIN
			ASSERT(dataUnit > 0);
			ASSERT(minVarAlign > 0);
			ASSERT(maxVarAlign > 0);
			ASSERT(minParAlign > 0);
			ASSERT(maxParAlign > 0);
			SELF.dataUnit := dataUnit;
			SELF.codeUnit := codeUnit;
			SELF.addressSize := addressSize;
			SELF.variableAlignment.min := minVarAlign;
			SELF.variableAlignment.max := maxVarAlign;
			SELF.parameterAlignment.min := minParAlign;
			SELF.parameterAlignment.max := maxParAlign;
			SELF.offsetFirstParameter := offsetFirstPar;
			SELF.offsetFirstVariable := offsetFirstVar;
			IF cooperative THEN INC(SELF.offsetFirstParameter,addressSize) END;
			activeCellsCapabilities := NIL;
			BuildScopes(SELF);
			FOR i := 0 TO LEN(operatorDefined)-1 DO
				operatorDefined[i] := FALSE;
			END;
			CanPassInRegister :=NIL;
			cellsAreObjects := FALSE;
			platformCallingConvention := SyntaxTree.UndefinedCallingConvention;
		END InitSystem;

		PROCEDURE SetPlatformCallingConvention*(callingConvention: SyntaxTree.CallingConvention);
		BEGIN
			platformCallingConvention := callingConvention;
		END SetPlatformCallingConvention;
		PROCEDURE SetCellsAreObjects*(c: BOOLEAN);
		BEGIN
			cellsAreObjects := c;
		END SetCellsAreObjects;

		PROCEDURE SetRegisterPassCallback*(canPassInRegister: PassInRegisterProc);
		BEGIN
			CanPassInRegister := canPassInRegister;
		END SetRegisterPassCallback;

		PROCEDURE AddCapability*(name: SyntaxTree.Identifier);
		VAR symbol: SyntaxTree.Symbol;
		BEGIN
			symbol := SyntaxTree.NewSymbol(name);
			symbol.SetNext(activeCellsCapabilities);
			activeCellsCapabilities := symbol
		END AddCapability;

		PROCEDURE GenerateRecordOffsets*(x: SyntaxTree.RecordType): BOOLEAN; (* normally done in checker but the binary symbol file format makes this necessary *)
		VAR baseType: SyntaxTree.RecordType; offset,baseOffset, size: SIZE; alignment, thisAlignment: SIZE; variable: SyntaxTree.Variable;
		BEGIN
			baseType :=x.GetBaseRecord();
			IF (baseType  # NIL) & (baseType.sizeInBits < 0) THEN
				IF~ GenerateRecordOffsets(baseType) THEN RETURN FALSE END;
			END;
			IF baseType # NIL THEN
				offset := baseType.sizeInBits;
				alignment := baseType.alignmentInBits;
			ELSE
				offset := 0; alignment := x.alignmentInBits;
				IF alignment <= 0 THEN alignment := dataUnit END;
			END;
			baseOffset := offset;

			variable := x.recordScope.firstVariable;
			WHILE (variable # NIL) DO
				IF ~variable.fictive THEN
					size := SizeOf(variable.type.resolved);
					IF size < 0 THEN RETURN FALSE END;

					IF variable.alignment > 0 THEN
						thisAlignment := variable.alignment*dataUnit;
					ELSE
						thisAlignment := AlignmentOf(SELF.variableAlignment, variable.type.resolved);
					END;
					Basic.Align(offset, thisAlignment);
					IF thisAlignment  > alignment THEN alignment := thisAlignment END;

					variable.SetOffset(offset);
					INC(offset,size);
				ELSE
					variable.SetOffset(baseOffset + variable.fictiveOffset * dataUnit);
				END;
				variable := variable.nextVariable;
			END;
			x.SetAlignmentInBits(alignment);
			Basic.Align(offset, alignment); (* strictly speaking not necessary, but with the old object file format otherwise problems with the GC show up *)
			x.SetSize(offset);
			RETURN TRUE
		END GenerateRecordOffsets;

		PROCEDURE GenerateCellOffsets(x: SyntaxTree.CellType): BOOLEAN;
		VAR baseType: SyntaxTree.Type; offset,size: SIZE; alignment, thisAlignment: SIZE; variable: SyntaxTree.Variable;
			parameter: SyntaxTree.Parameter; property: SyntaxTree.Property;
		BEGIN
			baseType := x.baseType;
			IF (baseType # NIL) THEN
				baseType := baseType.resolved;
				IF baseType IS SyntaxTree.PointerType THEN
					baseType := baseType(SyntaxTree.PointerType).pointerBase.resolved
				END;
				IF (baseType IS SyntaxTree.CellType) THEN
					IF~ GenerateCellOffsets(baseType(SyntaxTree.CellType)) THEN RETURN FALSE END;
				ELSE ASSERT (baseType IS SyntaxTree.RecordType);
					IF~GenerateRecordOffsets(baseType(SyntaxTree.RecordType)) THEN RETURN FALSE END;
				END;
			END;

			IF baseType # NIL THEN
				offset := baseType.sizeInBits;
				alignment := baseType.alignmentInBits;
			ELSE
				offset := 0; alignment := x.alignmentInBits;
				IF alignment <= 0 THEN alignment := dataUnit END;
			END;

			IF cellsAreObjects THEN
				(* ports *)
				parameter := x.cellScope.ownerCell.firstParameter;
				WHILE (parameter # NIL) DO
					size := SizeOf(parameter.type.resolved);
					IF size < 0 THEN RETURN FALSE END;

					IF parameter.alignment > 0 THEN
						thisAlignment := parameter.alignment*dataUnit;
					ELSE
						thisAlignment := AlignmentOf(SELF.variableAlignment, parameter.type.resolved);
					END;
					Basic.Align(offset, thisAlignment);
					IF thisAlignment  > alignment THEN alignment := thisAlignment END;
					parameter.SetOffset(offset);
					INC(offset,size);
					parameter := parameter.nextParameter;
				END;
				(* properties *)
				property := x.cellScope.ownerCell.firstProperty;
				WHILE (property # NIL) DO
					size := SizeOf(property.type.resolved);
					IF size < 0 THEN RETURN FALSE END;

					IF property.alignment > 0 THEN
						thisAlignment := property.alignment*dataUnit;
					ELSE
						thisAlignment := AlignmentOf(SELF.variableAlignment, property.type.resolved);
					END;
					Basic.Align(offset, thisAlignment);
					IF thisAlignment  > alignment THEN alignment := thisAlignment END;

					property.SetOffset(offset);
					INC(offset,size);
					property := property.nextProperty;
				END;
			END;
			(* variables *)
			variable := x.cellScope.firstVariable;
			WHILE (variable # NIL) DO
				IF ~variable.fictive THEN
					size := SizeOf(variable.type.resolved);
					IF size < 0 THEN RETURN FALSE END;

					IF variable.alignment > 0 THEN
						thisAlignment := variable.alignment*dataUnit;
					ELSE
						thisAlignment := AlignmentOf(SELF.variableAlignment, variable.type.resolved);
					END;
					Basic.Align(offset, thisAlignment);
					IF thisAlignment  > alignment THEN alignment := thisAlignment END;

					variable.SetOffset(offset);
					INC(offset,size);
				END;
				variable := variable.nextVariable;
			END;
			x.SetAlignmentInBits(alignment);
			Basic.Align(offset, alignment); (* strictly speaking not necessary, but with the old object file format otherwise problems with the GC show up *)
			x.SetSize(offset);
			RETURN TRUE

		END GenerateCellOffsets;

		PROCEDURE GenerateVariableOffsets*(scope: SyntaxTree.Scope): BOOLEAN;
		VAR variable: SyntaxTree.Variable; offset,size: SIZE; alignment: SIZE;
			bscope: SyntaxTree.Scope;
		BEGIN
			IF scope IS SyntaxTree.RecordScope THEN (* increasing indices *)
				RETURN GenerateRecordOffsets(scope(SyntaxTree.RecordScope).ownerRecord)
			ELSIF scope IS SyntaxTree.CellScope THEN
				RETURN GenerateCellOffsets(scope(SyntaxTree.CellScope).ownerCell);
			ELSIF (scope IS SyntaxTree.ProcedureTypeScope) 
				& ~(scope IS SyntaxTree.ProcedureScope) THEN
				RETURN TRUE
			ELSE (* module scope or procedure scope: decreasing indices *)
				ASSERT((scope IS SyntaxTree.ModuleScope) OR (scope IS SyntaxTree.ProcedureScope) OR (scope IS SyntaxTree.BlockScope));

				bscope := scope;
				WHILE (bscope IS SyntaxTree.BlockScope) DO
					bscope := bscope.outerScope;
				END;

				offset := bscope.currentVariableOffset;
				IF scope IS SyntaxTree.ProcedureScope THEN
					IF offset > offsetFirstVariable THEN
						offset := offsetFirstVariable;
					END;
				END;

				variable := scope.firstVariable;
				WHILE (variable # NIL) DO
					IF variable.offsetInBits = MIN(SIZE) THEN
						IF (variable.externalName # NIL) THEN
							variable.SetOffset(offset)
						ELSIF ~variable.fictive & ~variable.preferRegister THEN
							size := SizeOfVariable(variable);
							IF size < 0 THEN RETURN FALSE END;
							DEC(offset,size);
							IF variable.alignment > 0 THEN
								Basic.Align(offset, -variable.alignment*dataUnit);
							ELSE
								alignment := AlignmentOf(SELF.variableAlignment,variable.type.resolved);
								Basic.Align(offset,-alignment);
							END;
							variable.SetOffset(offset);
						END;
					END;
					variable := variable.nextVariable;
				END;
			END;
			bscope.SetCurrentVariableOffset(offset);
			IF offset < bscope.minVariableOffset THEN
				bscope.SetMinVariableOffset(offset);
			END;
			(*
			WHILE (scope IS SyntaxTree.BlockScope) DO
				TRACE(scope, scope.minVariableOffset);
				IF scope.minVariableOffset < scope.outerScope.minVariableOffset THEN
					scope.outerScope.SetMinVariableOffset(scope.minVariableOffset);
				END;
				scope := scope.outerScope;
			END;
			*)
			(*
			WITH scope: SyntaxTree.ProcedureScope DO
				s := scope.firstScope;
				WHILE (s # NIL) DO (* block scopes *)
					IF ~GenerateVariableOffsets(s) THEN RETURN FALSE END;
					s := s.nextScope;
				END;
			| SyntaxTree.BlockScope DO
				IF offset < scope.outerScope.minVariableOffset THEN
					scope.outerScope.SetMinVariableOffset(offset);
				END;
			ELSE
			END;
			*)
			RETURN TRUE
		END GenerateVariableOffsets;

		PROCEDURE GenerateParameterOffsets*(procedure : SyntaxTree.Procedure; nestedProcedure: BOOLEAN): BOOLEAN;
		VAR offset,size: SIZE;parameter: SyntaxTree.Parameter; procedureType: SyntaxTree.ProcedureType;
		BEGIN
			procedureType := procedure.type(SyntaxTree.ProcedureType);
			IF (procedure.isInline) THEN
				offset := 0
			ELSE
				offset := SELF.offsetFirstParameter + procedureType.parametersOffset * addressSize;
			END;
			IF nestedProcedure THEN
				INC(offset,addressSize); (* parameter offset of static link *) (*! check alternative: add hidden parameter *)
			END;

			IF procedureType.callingConvention = SyntaxTree.OberonCallingConvention THEN
				parameter := procedureType.lastParameter;
				WHILE (parameter # NIL) DO
					Basic.Align(offset,addressSize);
					parameter.SetOffset(offset);
					size := SizeOfParameter(parameter);
					IF size < 0 THEN RETURN FALSE END;
					INC(offset,size);
					parameter := parameter.prevParameter;
				END;
				parameter := procedureType.returnParameter;
				IF parameter # NIL THEN
					Basic.Align(offset,addressSize);
					parameter.SetOffset(offset);
					size := SizeOfParameter(parameter);
					IF size < 0 THEN RETURN FALSE END;
					INC(offset,size);
				END;
				parameter := procedureType.selfParameter;
				IF parameter # NIL THEN
					Basic.Align(offset,addressSize);
					parameter.SetOffset(offset);
					size := SizeOfParameter(parameter);
					IF size < 0 THEN RETURN FALSE END;
					INC(offset,size);
				END;
			ELSE
				parameter := procedureType.firstParameter;
				WHILE (parameter # NIL) DO
					Basic.Align(offset,addressSize);
					parameter.SetOffset(offset);
					size := SizeOfParameter(parameter);
					IF size < 0 THEN RETURN FALSE END;
					INC(offset,size);
					parameter := parameter.nextParameter;
				END;
			END;
			IF procedureType.isDelegate & (procedureType.selfParameter = NIL) THEN
				INC(offset,addressSize); (* parameter offset of delegate *)
			END;
			RETURN TRUE
		END GenerateParameterOffsets;

		PROCEDURE SizeOf*(type: SyntaxTree.Type): SIZE;
		VAR size: SIZE; base: SyntaxTree.Type;
		BEGIN
			IF type = NIL THEN RETURN -1 END;
			type := type.resolved;
			IF type IS SyntaxTree.BasicType THEN
				size := type.sizeInBits
			ELSIF type IS SyntaxTree.PointerType THEN
				size := addressSize
			ELSIF type IS SyntaxTree.ProcedureType THEN
				IF type(SyntaxTree.ProcedureType).isDelegate THEN
					size := 2*addressSize
				ELSE
					size := addressSize
				END;
			ELSIF type IS SyntaxTree.RecordType THEN
				(* do not treat a record type like a pointer even if the Pointer field is set, this leads to problems in object files
					rather make sure that each reference type is a POINTER TO at least behind the secenes!
				*)
				IF ~(SyntaxTree.Resolved IN type.state) THEN
					size := -1
				ELSE
					size :=type.sizeInBits;
					IF size < 0 THEN
						IF GenerateRecordOffsets(type(SyntaxTree.RecordType)) THEN
							size :=type.sizeInBits;
						ELSE
							size := -1
						END;
					END;
				END;
			ELSIF type IS SyntaxTree.ArrayType THEN
				IF ~(SyntaxTree.Resolved IN type.state) THEN
					size := -1
				ELSIF type.sizeInBits >= 0 THEN
					size := type.sizeInBits
				ELSIF type(SyntaxTree.ArrayType).form = SyntaxTree.Static THEN
					size := AlignedSizeOf(type(SyntaxTree.ArrayType).arrayBase.resolved)*type(SyntaxTree.ArrayType).staticLength;
					type.SetSize(size);
				ELSE
					size := 0; base := type;
					WHILE(base IS SyntaxTree.ArrayType) DO
						base := base(SyntaxTree.ArrayType).arrayBase.resolved;
						INC(size); (* length field *)
					END;
					size := size*addressSize+addressSize;
					type.SetSize(size)
				END;
			ELSIF type IS SyntaxTree.MathArrayType THEN
				IF ~(SyntaxTree.Resolved IN type.state) THEN
					size := -1
				ELSIF type(SyntaxTree.MathArrayType).form = SyntaxTree.Static THEN
					size := SizeOf(type(SyntaxTree.MathArrayType).arrayBase.resolved)*type(SyntaxTree.MathArrayType).staticLength;
					type.SetSize(size);
				ELSIF type(SyntaxTree.MathArrayType).form = SyntaxTree.Tensor THEN
					size := addressSize (* pointer to geometry descriptor *)
				ELSE
					size := 0;
					WHILE(type # NIL) & (type IS SyntaxTree.MathArrayType) DO
						type := type(SyntaxTree.MathArrayType).arrayBase;
						IF type # NIL THEN type := type.resolved END;
						INC(size);
					END;
					size := size*2*addressSize (* length and increments *) +5*addressSize (* data ptr, adr ptr, flags, dim and elementsize *);
				END;
			ELSIF type IS SyntaxTree.StringType THEN
				ASSERT(SyntaxTree.Resolved IN type.state);
				size := type(SyntaxTree.StringType).length * SizeOf(type(SyntaxTree.StringType).baseType);
			ELSIF type IS SyntaxTree.EnumerationType THEN
				size := addressSize
			ELSIF type = SyntaxTree.invalidType THEN size := 0
			ELSIF type IS SyntaxTree.QualifiedType THEN
				HALT(101); (* hint that unresolved type has been taken for type size computation *)
			ELSIF type IS SyntaxTree.PortType THEN
				size := addressSize
			ELSIF type IS SyntaxTree.CellType THEN
				size := addressSize;
			ELSIF type IS SyntaxTree.RangeType THEN
				size := 3 * SizeOf(sizeType);
			ELSE
				HALT(100)
			END;
			RETURN size
		END SizeOf;

		PROCEDURE SizeOfParameter*(par: SyntaxTree.Parameter):SIZE;
		BEGIN
			IF (par.type.resolved IS SyntaxTree.ArrayType) OR (par.type.resolved IS SyntaxTree.MathArrayType) THEN
				IF (par.type.resolved IS SyntaxTree.ArrayType) & (par.type.resolved(SyntaxTree.ArrayType).form = SyntaxTree.Static) &
					(par.kind IN {SyntaxTree.ConstParameter,SyntaxTree.VarParameter})
					OR
					(par.type.resolved IS SyntaxTree.MathArrayType) & (par.type.resolved(SyntaxTree.MathArrayType).form = SyntaxTree.Static) &
					(par.kind IN {SyntaxTree.ConstParameter,SyntaxTree.VarParameter})
					OR (par.type.resolved IS SyntaxTree.MathArrayType) & (par.kind = SyntaxTree.VarParameter)
				THEN
					RETURN addressSize
				ELSIF IsOberonProcedure(par.ownerType) THEN
					RETURN SizeOf(par.type);
				ELSE RETURN addressSize
				END
			ELSIF par.type.resolved IS SyntaxTree.RangeType THEN
				IF par.kind = SyntaxTree.VarParameter THEN
					RETURN addressSize
				ELSE
					RETURN SizeOf(rangeType) (* array range components are materialized on stack for both value and const parameters *)
				END
			ELSIF par.type.resolved IS SyntaxTree.RecordType THEN
				IF par.selfParameter THEN
					RETURN addressSize
				ELSIF (par.kind IN {SyntaxTree.ConstParameter,SyntaxTree.VarParameter}) THEN
					IF IsOberonProcedure(par.ownerType) THEN
						RETURN 2*addressSize
					ELSE
						RETURN addressSize
					END
				ELSE
					RETURN SizeOf(par.type);
				END;
			ELSIF par.kind = SyntaxTree.VarParameter THEN
				RETURN addressSize
			ELSIF par.kind = SyntaxTree.ConstParameter THEN
				RETURN SizeOf(par.type)
			ELSE
				RETURN SizeOf(par.type);
			END;
		END SizeOfParameter;

		PROCEDURE SizeOfVariable*(var: SyntaxTree.Variable):SIZE;
		BEGIN
			IF (var.type.resolved IS SyntaxTree.MathArrayType) OR (var.type.resolved IS SyntaxTree.ArrayType) THEN
				IF (var.kind IN {SyntaxTree.ConstParameter,SyntaxTree.VarParameter}) THEN
					RETURN addressSize;
				ELSE
					RETURN SizeOf(var.type)
				END;
			ELSIF var.type.resolved IS SyntaxTree.RangeType THEN
				IF var.kind = SyntaxTree.VarParameter THEN
					RETURN addressSize
				ELSE
					RETURN SizeOf(rangeType) (* array range components are materialized on stack for both value and const parameters *)
				END
			ELSIF var.type.resolved IS SyntaxTree.RecordType THEN
				IF (var.kind IN {SyntaxTree.ConstParameter,SyntaxTree.VarParameter}) THEN
					RETURN 2*addressSize
				ELSE
					RETURN SizeOf(var.type);
				END;
			ELSIF var.kind = SyntaxTree.VarParameter THEN
				RETURN addressSize
			ELSIF var.kind = SyntaxTree.ConstParameter THEN
				RETURN SizeOf(var.type)
			ELSE
				RETURN SizeOf(var.type);
			END;
		END SizeOfVariable;


		PROCEDURE AlignmentOf*(CONST alignment: Alignment;type: SyntaxTree.Type): SIZE;
		VAR result: SIZE;
		BEGIN
			type := type.resolved;
			IF type IS SyntaxTree.RecordType THEN
				IF type.alignmentInBits <= 0 THEN
					IF GenerateRecordOffsets(type(SyntaxTree.RecordType)) THEN
						result := type.alignmentInBits
					END
				ELSE
					result := type.alignmentInBits
				END;
			ELSIF type IS SyntaxTree.ArrayType THEN
				IF type.alignmentInBits <= 0 THEN
					IF type(SyntaxTree.ArrayType).form = SyntaxTree.Static THEN
						result := AlignmentOf(alignment,type(SyntaxTree.ArrayType).arrayBase.resolved);
					ELSE
						result := alignment.max
					END;
					type.SetAlignmentInBits(result)
				ELSE
					result := type.alignmentInBits
				END;
			ELSIF type IS SyntaxTree.RangeType THEN
				result := AlignmentOf(alignment,sizeType);
			ELSIF type IS SyntaxTree.StringType THEN
				result := SizeOf(type(SyntaxTree.StringType).baseType);
			ELSE
				result := SizeOf(type);
				IF result > alignment.max THEN result := alignment.max END;
				IF result < alignment.min THEN result := alignment.min END;
			END;
			ASSERT(result # 0);
			RETURN result
		END AlignmentOf;

		PROCEDURE AlignedSizeOf*(type: SyntaxTree.Type): SIZE;
		VAR size: SIZE;
		BEGIN
			size := SizeOf(type);
			Basic.Align(size, AlignmentOf(variableAlignment, type));
			RETURN size
		END AlignedSizeOf;

	END System;

	PROCEDURE ORDв(ч: Scanner.ВариантыПеревода):UNSIGNED32;
	BEGIN (* ORD не работает *)
		RETURN Scanner.ORDв(ч) END ORDв;


	PROCEDURE BuildScopes(system: System);
	VAR i: SIGNED32;
	BEGIN
		FOR i := 0 TO end-1 DO
			system.operatorDefined[i] := FALSE
		END;
		system.globalScope[ORDв(Scanner.ВариантыПеревода.Uppercase)] := SyntaxTree.NewModuleScope();
		system.globalScope[ORDв(Scanner.ВариантыПеревода.Русский)] := SyntaxTree.NewModuleScope();
		system.globalModule[ORDв(Scanner.ВариантыПеревода.Uppercase)] := SyntaxTree.NewModule("",SyntaxTree.invalidPosition,NameGlobal,system.globalScope[ORDв(Scanner.ВариантыПеревода.Uppercase)],Scanner.ВариантыПеревода.Uppercase);
		system.globalModule[ORDв(Scanner.ВариантыПеревода.Русский)] := SyntaxTree.NewModule("",SyntaxTree.invalidPosition,NameGlobal,system.globalScope[ORDв(Scanner.ВариантыПеревода.Русский)],Scanner.ВариантыПеревода.Русский);
		system.systemScope[ORDв(Scanner.ВариантыПеревода.Uppercase)] := SyntaxTree.NewModuleScope();
		system.systemScope[ORDв(Scanner.ВариантыПеревода.Русский)] := SyntaxTree.NewModuleScope();
		system.systemModule[ORDв(Scanner.ВариантыПеревода.Uppercase)] := SyntaxTree.NewModule("",SyntaxTree.invalidPosition,SystemName,system.systemScope[ORDв(Scanner.ВариантыПеревода.Uppercase)],Scanner.ВариантыПеревода.Uppercase);
		system.systemModule[ORDв(Scanner.ВариантыПеревода.Русский)] := SyntaxTree.NewModule("",SyntaxTree.invalidPosition,НИЗКОУРName,system.systemScope[ORDв(Scanner.ВариантыПеревода.Русский)],Scanner.ВариантыПеревода.Русский);
	END BuildScopes;

	PROCEDURE SetDefaultDeclarations*(system: System; minBits: SIZE);
	VAR now: Dates.DateTime; date, time: ARRAY 20 OF CHAR;
	BEGIN
		ASSERT (minBits = 8);

		(* types *)
		system.integerType := SyntaxTree.NewIntegerType(MIN(system.addressSize,32),TRUE);
		system.longIntegerType := SyntaxTree.NewIntegerType(system.addressSize,TRUE);
		system.integerSetType := SyntaxTree.NewSetType(system.integerType.sizeInBits);
		system.realType := SyntaxTree.NewFloatType(64);
		system.complexType := SyntaxTree.NewComplexType(system.realType);

		system.booleanType := SyntaxTree.NewBooleanType(8);
		system.byteType := SyntaxTree.NewByteType(8);
		system.characterType := SyntaxTree.NewCharacterType(8);

		system.anyType := SyntaxTree.NewAnyType(system.addressSize);
		system.objectType := SyntaxTree.NewObjectType(system.addressSize);
		system.nilType := SyntaxTree.NewNilType(system.addressSize);
		system.addressType := SyntaxTree.NewAddressType(system.addressSize);
		system.sizeType := SyntaxTree.NewSizeType(system.addressSize);

		system.rangeType := SyntaxTree.NewRangeType(3 * system.SizeOf(system.sizeType));

		system.setTypeA := SyntaxTree.NewSetType(system.addressSize);
		system.setType64 := Set64;

		system.maxSize := MaxInteger(system, system.sizeType(SyntaxTree.BasicType), TRUE);
		system.maxSetA := system.SizeOf(system.setTypeA) - 1;

		(* type declarations *)
		DeclareType(system.byteType,"BYTE",system.systemScope);
		DeclareTypeR(system.addressType,"ADDRESS","АДРЕС",system.globalScope);
		DeclareType(system.sizeType,"SIZE",system.globalScope);
		(*DeclareType(Same,"SAME",system.systemScope);*)

		(* system builtin procedures *)
		NewBuiltin(systemGet,"GET",system.systemScope,TRUE);
		NewBuiltin(systemPut,"PUT",system.systemScope,TRUE);
		NewBuiltin(systemPut64,"PUT64",system.systemScope,TRUE);
		NewBuiltin(systemPut32,"PUT32",system.systemScope,TRUE);
		NewBuiltin(systemPut16,"PUT16",system.systemScope,TRUE);
		NewBuiltin(systemPut8,"PUT8",system.systemScope,TRUE);
		NewBuiltin(systemGet64,"GET64",system.systemScope,TRUE);
		NewBuiltin(systemGet32,"GET32",system.systemScope,TRUE);
		NewBuiltin(systemGet16,"GET16",system.systemScope,TRUE);
		NewBuiltin(systemGet8,"GET8",system.systemScope,TRUE);
		NewBuiltin(systemVal,"VAL",system.systemScope,TRUE);
		NewBuiltin(systemMove,"MOVE",system.systemScope,TRUE);
		NewBuiltin(systemRef,"REF",system.systemScope,FALSE);
		NewBuiltin(systemNew,"NEW",system.systemScope,FALSE);
		NewBuiltin(systemTypeCode,"TYPECODE",system.systemScope,TRUE);
		NewBuiltin(systemHalt,"HALT",system.systemScope,TRUE);

		NewBuiltin(systemSize,"SIZE",system.systemScope,TRUE);
		NewBuiltin(systemAdr,"ADR",system.systemScope,TRUE);

		NewBuiltin(systemMsk,"MSK",system.systemScope,TRUE);
		NewBuiltin(systemBit,"BIT",system.systemScope,TRUE);

		now := Dates.Now ();
		Strings.FormatDateTime ("hh:nn:ss", now, time);
		Strings.FormatDateTime ("mmm dd yyyy", now, date);
		NewStringConstantCamelCase("Time", Strings.NewString (time), system.characterType, system.systemScope);
		NewStringConstantCamelCase("Date", Strings.NewString (date), system.characterType, system.systemScope);
		NewBuiltinCamelCase(systemGetStackPointer,"GetStackPointer",system.systemScope,TRUE);
		NewBuiltinCamelCase(systemSetStackPointer,"SetStackPointer",system.systemScope,TRUE);
		NewBuiltinCamelCase(systemGetFramePointer,"GetFramePointer",system.systemScope,TRUE);
		NewBuiltinCamelCase(systemSetFramePointer,"SetFramePointer",system.systemScope,TRUE);
		NewBuiltinCamelCase(systemGetActivity,"GetActivity",system.systemScope,TRUE);
		NewBuiltinCamelCase(systemSetActivity,"SetActivity",system.systemScope,TRUE);

		(* Set up system types *)
		DeclareTypeR(system.characterType,"CHAR","литера8",system.globalScope);
		DeclareTypeR(system.rangeType,"RANGE","отрезок_целых",system.globalScope);
		DeclareTypeR(system.integerType,"INTEGER","системно_зависимое_целое",system.globalScope);
		DeclareTypeR(system.longIntegerType,"LONGINTEGER","длинное_системно_зависимое_целое",system.globalScope);
		DeclareTypeR(system.integerSetType,"INTEGERSET","INTEGERSET",system.globalScope);

		DeclareTypeR(Signed8, "SIGNED8", "цел8", system.globalScope);
		DeclareTypeR(Signed16, "SIGNED16", "цел16", system.globalScope);
		DeclareTypeR(Signed32, "SIGNED32", "цел32", system.globalScope);
		DeclareTypeR(Signed64, "SIGNED64", "цел64", system.globalScope);

		DeclareTypeR(Unsigned8, "UNSIGNED8", "бцел8", system.globalScope);
		DeclareTypeR(Unsigned16, "UNSIGNED16", "бцел16", system.globalScope);
		DeclareTypeR(Unsigned32, "UNSIGNED32", "бцел32", system.globalScope);
		DeclareTypeR(Unsigned64, "UNSIGNED64", "бцел64", system.globalScope);

		DeclareTypeR(Float32, "FLOAT32", "вещ32",system.globalScope);
		DeclareTypeR(Float64, "FLOAT64", "вещ64",system.globalScope);

		DeclareTypeR(Complex32, "COMPLEX32", "комплексное32", system.globalScope);
		DeclareTypeR(Complex64, "COMPLEX64", "комплексное64", system.globalScope);

		DeclareTypeR(system.realType,"REAL","машинно_зависимое_вещ", system.globalScope);
		DeclareTypeR(system.complexType,"COMPLEX","машинно_зависимое_комплексное", system.globalScope);
		DeclareTypeR(system.booleanType,"BOOLEAN","булево",system.globalScope);
		DeclareTypeR(system.setTypeA,"SET","байт_размером_с_адрес",system.globalScope);
		DeclareTypeR(system.anyType,"ANY","динамически_типизированный_укль",system.globalScope);
		DeclareTypeR(system.objectType,"OBJECT","ообъект",system.globalScope);

		DeclareTypeR(Set8, "SET8", "байт", system.globalScope);
		DeclareTypeR(Set16, "SET16", "байт16", system.globalScope);
		DeclareTypeR(Set32, "SET32", "байт32", system.globalScope);
		DeclareTypeR(Set64, "SET64", "байт64", system.globalScope);

		(* global functions *)
		NewBuiltin(Abs,"ABS",system.globalScope,TRUE);
		NewBuiltin(Ash,"ASH",system.globalScope,TRUE);
		NewBuiltin(Cap,"CAP",system.globalScope,TRUE);
		NewBuiltin(Chr,"CHR",system.globalScope,TRUE);
		NewBuiltin(Entier,"ENTIER",system.globalScope,TRUE);
		NewBuiltin(Entier,"FLOOR",system.globalScope,TRUE);
		NewBuiltin(EntierH,"ENTIERH",system.globalScope,TRUE);
		NewBuiltin(Len,"LEN",system.globalScope,TRUE);
		NewBuiltin(Long,"LONG",system.globalScope,TRUE);
		NewBuiltin(Max,"MAX",system.globalScope,TRUE);
		NewBuiltin(Min,"MIN",system.globalScope,TRUE);
		NewBuiltin(Odd,"ODD",system.globalScope,TRUE);
		NewBuiltin(Ord,"ORD",system.globalScope,TRUE);
		NewBuiltin(Ord32,"ORD32",system.globalScope,TRUE);
		NewBuiltin(Lsh,"LSH",system.globalScope,TRUE);
		NewBuiltin(Rot,"ROT",system.globalScope,TRUE);

		NewBuiltin(Ror,"ROR",system.globalScope,TRUE);
		NewBuiltin(Rol,"ROL",system.globalScope,TRUE);
		NewBuiltin(Shl,"SHL",system.globalScope,TRUE);
		NewBuiltin(Shr,"SHR",system.globalScope,TRUE);

		NewBuiltin(Incr,"INCR",system.globalScope,TRUE);

		NewBuiltin(Short,"SHORT",system.globalScope,TRUE);
		NewBuiltin(Sum,"SUM",system.globalScope,TRUE);
		NewBuiltin(Dim,"DIM",system.globalScope,TRUE);
		NewBuiltin(Cas,"CAS",system.globalScope,TRUE);

		NewBuiltin(First,"FIRST",system.globalScope,TRUE);
		NewBuiltin(Last,"LAST",system.globalScope,TRUE);
		NewBuiltin(Step,"STEP",system.globalScope,TRUE);

		NewBuiltin(Re,"RE",system.globalScope,TRUE);
		NewBuiltin(Im,"IM",system.globalScope,TRUE);

		NewBuiltin(systemAdr,"ADDRESSOF",system.globalScope,TRUE);
		NewBuiltin(systemSize,"SIZEOF",system.globalScope,TRUE);

		(* global proper procedures *)
		NewBuiltin(Assert,"ASSERT",system.globalScope,TRUE);
		NewBuiltin(Copy,"COPY",system.globalScope,TRUE);
		NewBuiltin(Dec,"DEC",system.globalScope,TRUE);
		NewBuiltin(Excl,"EXCL",system.globalScope,TRUE);
		NewBuiltin(Halt,"HALT",system.globalScope,TRUE);
		NewBuiltin(Inc,"INC",system.globalScope,TRUE);
		NewBuiltin(Incl,"INCL",system.globalScope,TRUE);
		NewBuiltinR(New,"NEW","нов",system.globalScope,FALSE);
		NewBuiltin(Dispose,"DISPOSE",system.globalScope, FALSE);
		NewBuiltin(GetProcedure,"GETPROCEDURE",system.globalScope,TRUE);
		NewBuiltin(systemTrace,"TRACE",system.globalScope,TRUE);
		NewBuiltin(Reshape,"RESHAPE",system.globalScope,TRUE);
		NewBuiltin(All,"ALL",system.globalScope,TRUE);
		NewBuiltin(Wait,"WAIT",system.globalScope,FALSE);
		NewBuiltin(Connect,"CONNECT",system.globalScope,FALSE);
		NewBuiltin(Receive,"RECEIVE",system.globalScope,FALSE);
		NewBuiltin(Send,"SEND",system.globalScope,FALSE);
		NewBuiltin(Delegate,"DELEGATE",system.globalScope,FALSE);

		NewBuiltin(IncMul,"INCMUL",system.globalScope,TRUE);
		NewBuiltin(DecMul,"DECMUL",system.globalScope,TRUE);
		
	END SetDefaultDeclarations;

	PROCEDURE OperatorDefined*(system: System; op: SIGNED32; defined: BOOLEAN);
	BEGIN
		system.operatorDefined[op] := defined;
	END OperatorDefined;

	PROCEDURE SetDefaultOperators*(system: System);
	VAR i: SIGNED32;
	BEGIN
		FOR i := Scanner.Equal TO Scanner.Not DO
			OperatorDefined(system,i,TRUE);
		END;

		OperatorDefined(system, Conversion, TRUE);
		OperatorDefined(system, DotTimesPlus, TRUE);
		OperatorDefined(system, AtMulDec, TRUE);
		OperatorDefined(system, AtMulInc, TRUE);
		OperatorDefined(system, DecMul, TRUE);
		OperatorDefined(system, IncMul, TRUE);

		OperatorDefined(system,Scanner.Transpose,TRUE);
		OperatorDefined(system,Scanner.Becomes,TRUE);
		OperatorDefined(system,Dec,TRUE);
		OperatorDefined(system,Excl,TRUE);
		OperatorDefined(system,Inc,TRUE);
		OperatorDefined(system,Incl,TRUE);
		OperatorDefined(system,Abs,TRUE);
		OperatorDefined(system,Ash,TRUE);
		OperatorDefined(system,Cap,TRUE);
		OperatorDefined(system,Chr,TRUE);
		OperatorDefined(system,Entier,TRUE);
		OperatorDefined(system,EntierH,TRUE);
		OperatorDefined(system,Len,TRUE);
		OperatorDefined(system,Long,TRUE);
		OperatorDefined(system,Max,TRUE);
		OperatorDefined(system,Min,TRUE);
		OperatorDefined(system,Odd,TRUE);
		OperatorDefined(system,Reshape,TRUE);
		OperatorDefined(system,Short,TRUE);
		OperatorDefined(system,Sum,TRUE);
		OperatorDefined(system,Dim,TRUE);
		OperatorDefined(system,Scanner.Address, TRUE);
		OperatorDefined(system,Scanner.Size, TRUE);
		OperatorDefined(system,Scanner.Alias, TRUE);
		OperatorDefined(system,All,TRUE);
		OperatorDefined(system,Re,TRUE);
		OperatorDefined(system,Im,TRUE);

		OperatorDefined(system, Scanner.Questionmarks, TRUE);

		OperatorDefined(system, Scanner.GreaterGreater, TRUE);
		OperatorDefined(system, Scanner.LessLess, TRUE);

	END SetDefaultOperators;

	PROCEDURE DefaultSystem*(): System;
	VAR system: System;
	BEGIN
		NEW(system,8,8,32, 8,32,32,32,64,0,FALSE);
		SetDefaultDeclarations(system,8);
		SetDefaultOperators(system);
		RETURN system
	END DefaultSystem;

	PROCEDURE IsOberonProcedure*(type: SyntaxTree.Type): BOOLEAN;
	BEGIN
		RETURN (type IS SyntaxTree.ProcedureType) & (type(SyntaxTree.ProcedureType).callingConvention = SyntaxTree.OberonCallingConvention)
	END IsOberonProcedure;

	PROCEDURE AlignedSizeOf*(system: System; CONST alignment: Alignment; type: SyntaxTree.Type):SIZE;
	VAR value: SIZE;
	BEGIN
		value := system.SizeOf(type);
		INC(value, (-value) MOD system.AlignmentOf(alignment, type));
		RETURN value;
	END AlignedSizeOf;

	(* returns if a module is the system module *)
	PROCEDURE IsSystemModule*(module: SyntaxTree.Module): BOOLEAN;
	BEGIN RETURN (module.name.и=systemName.и) OR (module.name.и=SystemName.и) OR (module.name.и=НИЗКОУРName.и)
	END IsSystemModule;

	(** Various factories *)
	PROCEDURE DeclareType0(type: SyntaxTree.Type; CONST name: ARRAY OF CHAR; in: SyntaxTree.Scope);
	VAR basic: SyntaxTree.TypeDeclaration; duplicate: BOOLEAN;
	BEGIN
		basic := SyntaxTree.NewTypeDeclaration(SyntaxTree.invalidPosition,SyntaxTree.NewIdentifier(name));
		basic.SetDeclaredType(type);
		basic.SetState(SyntaxTree.Resolved);
		basic.SetAccess(SyntaxTree.ReadOnly);
		in.AddTypeDeclaration(basic);
		in.EnterSymbol(basic,duplicate);
		ASSERT(~duplicate);
	END DeclareType0;

	(** External interface backends can use to add their types etc. to the global scope *)
	PROCEDURE DeclareType*(type: SyntaxTree.Type; CONST name: ARRAY OF CHAR; CONST scope: ARRAY OF SyntaxTree.ModuleScope);
	VAR nameL,nameU: Scanner.IdentifierString;
	BEGIN
		Basic.Lowercase(name,nameL);
		Basic.Uppercase(name,nameU);
		DeclareType0(type,nameU,scope[ORDв(Scanner.ВариантыПеревода.Uppercase)]);
		DeclareType0(type,nameU,scope[ORDв(Scanner.ВариантыПеревода.Русский)]);
	END DeclareType;
	

	(** External interface backends can use to add their types etc. to the global scope *)
	PROCEDURE DeclareTypeR*(type: SyntaxTree.Type; CONST name: ARRAY OF CHAR; CONST nameRu: ARRAY OF CHAR; CONST scope: ARRAY OF SyntaxTree.ModuleScope);
	VAR nameL,nameU: Scanner.IdentifierString;
	BEGIN
		Basic.Lowercase(name,nameL);
		Basic.Uppercase(name,nameU);
		DeclareType0(type,nameU,scope[ORDв(Scanner.ВариантыПеревода.Uppercase)]);
		DeclareType0(type,nameRu,scope[ORDв(Scanner.ВариантыПеревода.Русский)]);
	END DeclareTypeR;

	PROCEDURE NewConstant0(CONST name: ARRAY OF CHAR; int: SIGNED32; type: SyntaxTree.Type; in: SyntaxTree.Scope);
	VAR constant: SyntaxTree.Constant; value: SyntaxTree.IntegerValue;duplicate: BOOLEAN;
	BEGIN
		value := SyntaxTree.NewIntegerValue(SyntaxTree.invalidPosition,int);
		value.SetType(type);
		constant := SyntaxTree.NewConstant(SyntaxTree.invalidPosition,SyntaxTree.NewIdentifier(name));
		constant.SetValue(value);
		constant.SetType(value.type);
		constant.SetAccess(SyntaxTree.ReadOnly);
		constant.SetState(SyntaxTree.Resolved);
		in.AddConstant(constant);
		in.EnterSymbol(constant,duplicate);
		ASSERT(~duplicate);
	END NewConstant0;

	PROCEDURE NewConstant*(CONST name: ARRAY OF CHAR; int: SIGNED32; type: SyntaxTree.Type; CONST scope: ARRAY OF SyntaxTree.ModuleScope);
	VAR nameL,nameU: Scanner.IdentifierString;
	BEGIN
		Basic.Lowercase(name,nameL);
		Basic.Uppercase(name,nameU);
		NewConstant0(nameU,int,type,scope[ORDв(Scanner.ВариантыПеревода.Uppercase)]);
		NewConstant0(nameU,int,type,scope[ORDв(Scanner.ВариантыПеревода.Русский)]);
	END NewConstant;

	PROCEDURE NewStringConstant0(CONST name: ARRAY OF CHAR; string: SyntaxTree.String; baseType: SyntaxTree.Type; in: SyntaxTree.Scope);
	VAR constant: SyntaxTree.Constant; value: SyntaxTree.StringValue;duplicate: BOOLEAN;
	BEGIN
		value := SyntaxTree.NewStringValue(SyntaxTree.invalidPosition,string);
		value.SetType(SyntaxTree.NewStringType(SyntaxTree.invalidPosition,baseType,value.length));
		constant := SyntaxTree.NewConstant(SyntaxTree.invalidPosition,SyntaxTree.NewIdentifier(name));
		constant.SetValue(value);
		constant.SetType(value.type);
		constant.SetAccess(SyntaxTree.ReadOnly);
		constant.SetState(SyntaxTree.Resolved);
		in.AddConstant(constant);
		in.EnterSymbol(constant,duplicate);
		ASSERT(~duplicate);
	END NewStringConstant0;

	PROCEDURE NewStringConstant*(CONST name: ARRAY OF CHAR; string: SyntaxTree.String; type: SyntaxTree.Type; CONST scope: ARRAY OF SyntaxTree.ModuleScope);
	VAR nameL,nameU: Scanner.IdentifierString;
	BEGIN
		Basic.Lowercase(name,nameL);
		Basic.Uppercase(name,nameU);
		NewStringConstant0(nameU,string,type,scope[ORDв(Scanner.ВариантыПеревода.Uppercase)]);
		NewStringConstant0(nameU,string,type,scope[ORDв(Scanner.ВариантыПеревода.Русский)]);
	END NewStringConstant;

	PROCEDURE NewStringConstantCamelCase*(CONST name: ARRAY OF CHAR; string: SyntaxTree.String; type: SyntaxTree.Type; CONST scope: ARRAY OF SyntaxTree.ModuleScope);
	BEGIN
		NewStringConstant0(name,string,type,scope[ORDв(Scanner.ВариантыПеревода.Uppercase)]);
		NewStringConstant0(name,string,type,scope[ORDв(Scanner.ВариантыПеревода.Русский)]);
	END NewStringConstantCamelCase;

	PROCEDURE NewBuiltin0( id: SIGNED32; CONST name: ARRAY OF CHAR; in:  SyntaxTree.ModuleScope; realtime: BOOLEAN);
	VAR basic: SyntaxTree.Builtin; duplicate: BOOLEAN; type: SyntaxTree.ProcedureType;
	BEGIN
		basic := SyntaxTree.NewBuiltin(SyntaxTree.invalidPosition,SyntaxTree.NewIdentifier(name),id);
		basic.SetAccess(SyntaxTree.ReadOnly);
		type := SyntaxTree.NewProcedureType(SyntaxTree.invalidPosition,in,NIL);
		type.SetRealtime(realtime);
		type.SetReturnType(SyntaxTree.invalidType); (* make incompatible to any procedure *)
		basic.SetType(type);
		basic.SetState(SyntaxTree.Resolved);
		in.EnterSymbol(basic,duplicate);
		in.AddBuiltin(basic);
		ASSERT(~duplicate);
	END NewBuiltin0;

	PROCEDURE NewBuiltin*(id: SIGNED32; CONST name: ARRAY OF CHAR; CONST scope: ARRAY OF SyntaxTree.ModuleScope; realtime: BOOLEAN);
	VAR nameL,nameU: Scanner.IdentifierString;
	BEGIN
		Basic.Lowercase(name,nameL);
		Basic.Uppercase(name,nameU);
		NewBuiltin0(id,nameU,scope[ORDв(Scanner.ВариантыПеревода.Uppercase)],realtime);
		NewBuiltin0(id,nameU,scope[ORDв(Scanner.ВариантыПеревода.Русский)],realtime);
	END NewBuiltin;

	PROCEDURE NewBuiltinR*(id: SIGNED32; CONST имяАн, имяРу: ARRAY OF CHAR; CONST scope: ARRAY OF SyntaxTree.ModuleScope; realtime: BOOLEAN);
	VAR nameU: Scanner.IdentifierString;
	BEGIN
		Basic.Uppercase(имяАн,nameU);
		NewBuiltin0(id,nameU,scope[ORDв(Scanner.ВариантыПеревода.Uppercase)],realtime);
		NewBuiltin0(id,имяРу,scope[ORDв(Scanner.ВариантыПеревода.Русский)],realtime);
	END NewBuiltinR;

	PROCEDURE NewBuiltinCamelCase*(id: SIGNED32; CONST name: ARRAY OF CHAR; CONST scope: ARRAY OF SyntaxTree.ModuleScope; realtime: BOOLEAN);
	BEGIN
		NewBuiltin0(id,name,scope[ORDв(Scanner.ВариантыПеревода.Uppercase)],realtime);
		NewBuiltin0(id,name,scope[ORDв(Scanner.ВариантыПеревода.Русский)],realtime);
	END NewBuiltinCamelCase;

	PROCEDURE NewCustomBuiltin0(CONST name: ARRAY OF CHAR; scope: SyntaxTree.ModuleScope; subType: SIGNED8; procedureType: SyntaxTree.ProcedureType);
	VAR
		isDuplicate: BOOLEAN;
		customBuiltin: SyntaxTree.CustomBuiltin;
	BEGIN
		customBuiltin := SyntaxTree.NewCustomBuiltin(SyntaxTree.invalidPosition, SyntaxTree.NewIdentifier(name), systemSpecial, subType);
		customBuiltin.SetAccess(SyntaxTree.ReadOnly); (* TODO: this might be changed *)
		procedureType.SetRealtime(TRUE);
		customBuiltin.SetType(procedureType); (* TODO: make incompatible to any procedure *)
		customBuiltin.SetState(SyntaxTree.Resolved);
		scope.EnterSymbol(customBuiltin, isDuplicate);
		scope.AddBuiltin(customBuiltin);
		ASSERT(~isDuplicate)
	END NewCustomBuiltin0;

	PROCEDURE NewCustomBuiltin*(CONST name: ARRAY OF CHAR; CONST scope: ARRAY OF SyntaxTree.ModuleScope; subType: SIGNED8; procedureType: SyntaxTree.ProcedureType);
	VAR
		nameL, nameU: Scanner.IdentifierString;
	BEGIN
		Basic.Lowercase(name, nameL);
		Basic.Uppercase(name, nameU);
		NewCustomBuiltin0(nameU, scope[ORDв(Scanner.ВариантыПеревода.Uppercase)], subType, procedureType);
		NewCustomBuiltin0(nameL, scope[ORDв(Scanner.ВариантыПеревода.Русский)], subType, procedureType)
	END NewCustomBuiltin;

	PROCEDURE GetModuleSectionName*(name, context: SyntaxTree.Identifier; VAR n: ARRAY OF CHAR);
	VAR s: SyntaxTree.IdentifierString;
	BEGIN
		IF context.и # SyntaxTree.invalidIdentifier.и THEN
			Basic.GetString(context.и,n);
			IF n = "A2" THEN
				Basic.GetString(name.и,n);
				RETURN;
			END;
			Basic.GetString(name.и,s);
			Strings.Append(n,"-");Strings.Append(n,s);
		ELSE
			IF name.и # SyntaxTree.invalidIdentifier.и THEN
				Basic.GetString(name.и,n);
			ELSE
				n := ""
			END
		END;
	END GetModuleSectionName;

	PROCEDURE ModuleFileName*(name, context: SyntaxTree.Identifier; VAR n: ARRAY OF CHAR);
	VAR врем : ПереводыЭлементовКода.СтрокаИдентификатора;
	BEGIN
		GetModuleSectionName(name, context, n);
		УтилитыДляПереводаКода.ПереведиИмяМодуляДляВызова(ПереводыЭлементовКода.модули, n, врем);
		COPY(врем, n);
	END ModuleFileName;

	PROCEDURE ModuleSectionIdentifier*(name, context: SyntaxTree.Identifier): SyntaxTree.Identifier;
	VAR n: SyntaxTree.IdentifierString;
	BEGIN
		IF context.и # SyntaxTree.invalidIdentifier.и THEN
			GetModuleSectionName(name, context, n);
			RETURN SyntaxTree.NewIdentifier(n);
		ELSE
			RETURN name
		END;
	END ModuleSectionIdentifier;

	PROCEDURE ContextFromName*(CONST fileName: ARRAY OF CHAR; VAR module,context: SyntaxTree.Identifier);
	VAR moduleName, contextName: Scanner.IdentifierString; i,j: SIGNED32;
	BEGIN
		i := 0; j := 0;
		WHILE (fileName[i] # 0X) & (fileName[i] # ".") DO
			moduleName[i] := fileName[i];
			INC(i);
		END;
		moduleName[i] := 0X;
		IF fileName[i] # 0X THEN
			COPY(moduleName, contextName);
			INC(i);
			WHILE(fileName[i] # 0X) DO
				moduleName[j] := fileName[i];
				INC(i); INC(j);
			END;
			moduleName[j] := 0X;
		ELSE
			contextName := "A2";
		END;
		module := SyntaxTree.NewIdentifier(moduleName);
		context := SyntaxTree.NewIdentifier(contextName);
	END ContextFromName;

	PROCEDURE GetModuleName*(module: SyntaxTree.Module; VAR name: ARRAY OF CHAR);
	BEGIN
		GetModuleSectionName(module.name, module.context, name);
	END GetModuleName;

	PROCEDURE GetModuleSegmentedName*(module: SyntaxTree.Module; VAR name: Basic.SegmentedName);
	BEGIN
		name[0] := ModuleSectionIdentifier(module.name, module.context).и;
		name[1] := Basic.invalidString;
	END GetModuleSegmentedName;

	PROCEDURE FindSymbol*(CONST name: Basic.SegmentedName; scope: SyntaxTree.Scope): SyntaxTree.Symbol;
	VAR s: SIGNED32;  symbol : SyntaxTree.Symbol;

		PROCEDURE GetSymbolScope;
		VAR type: SyntaxTree.Type;
		BEGIN
			IF symbol IS SyntaxTree.Module THEN
				scope := symbol(SyntaxTree.Module).moduleScope
			ELSIF symbol IS SyntaxTree.Import THEN
				scope := symbol(SyntaxTree.Import).module.moduleScope;
			ELSIF symbol IS SyntaxTree.Procedure THEN
				scope := symbol(SyntaxTree.Procedure).procedureScope
			ELSIF symbol IS SyntaxTree.TypeDeclaration THEN
				type := symbol(SyntaxTree.TypeDeclaration).declaredType.resolved;
				IF type IS SyntaxTree.RecordType THEN
					scope := type(SyntaxTree.RecordType).recordScope
				END;
			ELSE
				scope := NIL
			END
		END GetSymbolScope;

		PROCEDURE FindSymbol(name: SyntaxTree.Identifier): SyntaxTree.Symbol;
		BEGIN
			IF scope = scope.ownerModule.moduleScope THEN
				symbol := scope.ownerModule.moduleScope.ImportByModuleName(name, scope.ownerModule.context);
				IF symbol = NIL THEN
					symbol := scope.FindSymbol(name)
				END;
			ELSE
				symbol := scope.FindSymbol(name)
			END;
			RETURN symbol
		END FindSymbol;

	BEGIN
		s := 0;
		IF name[0] = scope.ownerModule.name.и THEN
			INC(s)
		END;
		scope := scope.ownerModule.moduleScope; (* expect fully qualified (segmented) name *)
		REPEAT
			IF scope = NIL THEN RETURN NIL END;
			symbol := FindSymbol( SyntaxTree.ИндексСтрокиВИдентификатор(name[s]));
			IF symbol = NIL THEN RETURN NIL
			ELSE
				GetSymbolScope
			END;
			INC(s);
		UNTIL (s = LEN(name)) OR (name[s] < 0);
		RETURN symbol;
	END FindSymbol;

	PROCEDURE GetSymbolNameInScope*(symbol: SyntaxTree.Symbol; inScope: SyntaxTree.Scope; VAR name: ARRAY OF CHAR);
	VAR n: SyntaxTree.IdentifierString; td: SyntaxTree.TypeDeclaration;
		PROCEDURE Scope(scope: SyntaxTree.Scope);
		BEGIN
			IF scope = NIL THEN (* do nothing, locally declared temporary symbol *)
			ELSIF scope = inScope THEN (* do not traverse further *)
			ELSIF scope IS SyntaxTree.ModuleScope THEN
				Scope(scope.outerScope);
				IF (scope.ownerModule.name.и # NameGlobal.и) & (scope.ownerModule.name.и # Nameglobal.и) THEN
					GetModuleName(scope.ownerModule, n);
					Strings.Append(name, n); Strings.Append(name,".");
				END;
			ELSIF scope IS SyntaxTree.RecordScope THEN
				Scope(scope.outerScope);
				td := scope(SyntaxTree.RecordScope).ownerRecord.typeDeclaration;
				IF td = NIL THEN
					td := scope(SyntaxTree.RecordScope).ownerRecord.pointerType.typeDeclaration;
				END;
				td.GetName(n);
				Strings.Append(name,n); Strings.Append(name,".")
			ELSIF scope IS SyntaxTree.ProcedureScope THEN
				Scope(scope.outerScope);
				scope(SyntaxTree.ProcedureScope).ownerProcedure.GetName(n);
				Strings.Append(name,n); Strings.Append(name,".")
			ELSIF scope IS SyntaxTree.CellScope THEN
				Scope(scope.outerScope);
				td := scope(SyntaxTree.CellScope).ownerCell.typeDeclaration;
				td.GetName(n);
				Strings.Append(name,n); Strings.Append(name,".")
			END;
		END Scope;

	BEGIN
		name := "";
		Scope(symbol.scope);
		symbol.GetName(n);
		IF symbol IS SyntaxTree.Operator THEN (*! append some more bits to make discrimintation possible *)
		END;
		Strings.Append(name,n);
	END GetSymbolNameInScope;

	PROCEDURE GetSymbolName*(symbol: SyntaxTree.Symbol; VAR name: ARRAY OF CHAR);
	BEGIN GetSymbolNameInScope(symbol,NIL,name)
	END GetSymbolName;

	PROCEDURE GetSymbolSegmentedNameInScope*(symbol: SyntaxTree.Symbol; inScope: SyntaxTree.Scope; VAR pooledName: Basic.SegmentedName);
	VAR td: SyntaxTree.TypeDeclaration; i: SIGNED32;

		PROCEDURE Scope(scope: SyntaxTree.Scope);
		BEGIN
			IF scope = NIL THEN (* do nothing, locally declared temporary symbol *)
			ELSIF scope = inScope THEN (* do not traverse further *)
			ELSIF scope IS SyntaxTree.ModuleScope THEN
				Scope(scope.outerScope);
				IF (scope.ownerModule.name.и # NameGlobal.и) & (scope.ownerModule.name.и # Nameglobal.и) THEN
					Basic.SuffixSegmentedName(pooledName,ModuleSectionIdentifier(scope.ownerModule.name, scope.ownerModule.context).и);
				END;
			ELSIF scope IS SyntaxTree.RecordScope THEN
				Scope(scope.outerScope);
				td := scope(SyntaxTree.RecordScope).ownerRecord.typeDeclaration;
				IF td = NIL THEN
					td := scope(SyntaxTree.RecordScope).ownerRecord.pointerType.typeDeclaration;
				END;
				Basic.SuffixSegmentedName(pooledName,td.name.и);
			ELSIF scope IS SyntaxTree.ProcedureScope THEN
				Scope(scope.outerScope);
				Basic.SuffixSegmentedName(pooledName,scope(SyntaxTree.ProcedureScope).ownerProcedure.name.и);
			ELSIF scope IS SyntaxTree.CellScope THEN
				Scope(scope.outerScope);
				td := scope(SyntaxTree.CellScope).ownerCell.typeDeclaration;
				Basic.SuffixSegmentedName(pooledName, td.name.и);
			END;
		END Scope;

	BEGIN
		FOR i := 0 TO LEN(pooledName)-1 DO pooledName[i] := -1 END;
		Scope(symbol.scope);
		Basic.SuffixSegmentedName(pooledName, symbol.name.и);
	END GetSymbolSegmentedNameInScope;

	PROCEDURE GetSymbolSegmentedName*(symbol: SyntaxTree.Symbol; VAR pooledName: Basic.SegmentedName);
	BEGIN
		GetSymbolSegmentedNameInScope(symbol,NIL,pooledName);
	END GetSymbolSegmentedName;

	PROCEDURE Level*(t: SyntaxTree.Type): SIGNED32;
	VAR level: SIGNED32;
	BEGIN
		IF t IS SyntaxTree.IntegerType THEN
			CASE t.sizeInBits OF
				8: level := 0;
				|16: level := 1;
				|32: level := 2;
				|64: level := 3;
			END;
		ELSIF t IS SyntaxTree.FloatType THEN
			CASE t.sizeInBits OF
				32: level := 4;
				|64: level := 5;
			END
		ELSE HALT(100)
		END;
		RETURN level
	END Level;

	PROCEDURE ConvertSigned*(this: SIGNED64; bits: SIZE): SIGNED64;
	BEGIN
		bits := 64-bits;
		RETURN ASH (ASH (this, bits), -bits);
	END ConvertSigned;

	PROCEDURE ConvertUnsigned*(this: SIGNED64; bits: SIZE): SIGNED64;
	BEGIN
		bits := 64-bits;
		RETURN LSH (LSH (this, bits), -bits);
	END ConvertUnsigned;

	PROCEDURE MaxInteger*(system: System; type: SyntaxTree.BasicType; signed: BOOLEAN): SIGNED64;
	BEGIN
		IF signed THEN
			RETURN ASH (SIGNED64(1), system.SizeOf (type) - 1) - 1;
		ELSE
			RETURN LSH (SIGNED64(-1), system.SizeOf (type) - 64);
		END;
	END MaxInteger;

	PROCEDURE MinInteger*(system: System; type: SyntaxTree.BasicType; signed: BOOLEAN): SIGNED64;
	BEGIN
		IF signed THEN
			RETURN -ASH (SIGNED64(1), system.SizeOf (type) - 1);
		ELSE
			RETURN 0
		END;
	END MinInteger;

	(*! make architecture  independent ! *)
	PROCEDURE MaxFloat*(system: System; type: SyntaxTree.FloatType): FLOAT64;
	BEGIN
		IF system.SizeOf(type) = 32 THEN RETURN MAX(FLOAT32) ELSE RETURN MAX(FLOAT64) END;
	END MaxFloat;

	PROCEDURE MinFloat*(system: System; type: SyntaxTree.FloatType): FLOAT64;
	BEGIN
		IF system.SizeOf(type) = 32 THEN RETURN MIN(FLOAT32) ELSE RETURN MIN(FLOAT64) END;
	END MinFloat;

	PROCEDURE ConvertSet*(this: Basic.Set; bits: SIZE): Basic.Set;
	BEGIN
		WHILE bits <= MAX (Basic.Set) DO EXCL (this, bits); INC (bits) END;
		RETURN this;
	END ConvertSet;

	PROCEDURE IsUnsignedInteger*(this: SIGNED64; sizeInBits: SIZE): BOOLEAN;
	VAR m: SIGNED64;
	BEGIN
		m := ASH(SIGNED64(1),sizeInBits);
		RETURN (this >= 0) & (this < m)
	END IsUnsignedInteger;

	PROCEDURE IsSignedInteger*(this: SIGNED64; sizeInBits: SIZE): BOOLEAN;
	VAR m: SIGNED64;
	BEGIN
			m := ASH(SIGNED64(1),sizeInBits-1);
			RETURN (this < m) & (-this <= m)
	END IsSignedInteger;

	PROCEDURE GetSignedIntegerType*(system: System; this: SIGNED64): SyntaxTree.IntegerType;

		(* code snippets for unsigned
		ELSE
			m := Builtins.AslH(1,system.SizeOf(type));
			RETURN (this >= 0) & (this < m)
		END;

		PROCEDURE Bits(x: SIGNED64): BOOLEAN;
		BEGIN
			WHILE x > 0 DO INC(bits); x := x DIV 2 END;
		END Bits;

		IF a = MIN(SIGNED64) THEN (* -a does not work on lowest possible number, ~a+1 would overflow *)
			RETURN Integer[64]
		ELSIF a < 0 THEN
			RETURN Integer[Bits(-a-1)+1]
		ELSE
			RETURN Unisgned[Bits(a)]
		END;
		*)

	BEGIN
		IF IsSignedInteger(this,8) THEN RETURN Signed8
		ELSIF IsSignedInteger(this, 16) THEN RETURN Signed16
		ELSIF IsSignedInteger(this, 32) THEN RETURN Signed32
		ELSE RETURN Signed64
		END;
	END GetSignedIntegerType;

	PROCEDURE GetIntegerType*(system: System; this: SIGNED64): SyntaxTree.IntegerType;
	BEGIN
		IF IsSignedInteger(this,8) THEN RETURN Signed8
				(* system.SizeOf(...) = 8 : detect special backends with no sizes smaller than 32 *)
		ELSIF (system.SizeOf(Unsigned8) =  8) & IsUnsignedInteger(this,8) THEN RETURN Unsigned8
		ELSIF IsSignedInteger(this, 16) THEN RETURN Signed16
		ELSIF (system.SizeOf(Unsigned16) = 16) & IsUnsignedInteger(this,16) THEN RETURN Unsigned16
		ELSIF IsSignedInteger(this, 32) THEN RETURN Signed32
		ELSIF IsUnsignedInteger(this,32) THEN RETURN Unsigned32
		ELSE RETURN Signed64
		END;
	END GetIntegerType;

	PROCEDURE NewIntegerValue*(system: System; position: Position; hugeint: SIGNED64): SyntaxTree.Value;
	VAR value: SyntaxTree.IntegerValue;
	BEGIN
		value := SyntaxTree.NewIntegerValue(position,hugeint);
		value.SetType(GetIntegerType(system,hugeint));
		RETURN value
	END NewIntegerValue;

	PROCEDURE NewBooleanValue*(system: System; position: Position; b: BOOLEAN): SyntaxTree.Value;
	VAR value: SyntaxTree.BooleanValue;
	BEGIN
		value := SyntaxTree.NewBooleanValue(position,b);
		value.SetType(system.booleanType);
		RETURN value
	END NewBooleanValue;

	PROCEDURE GetSetType*(system: System; this: Basic.Set): SyntaxTree.SetType;
	BEGIN
		IF this * {0 .. 7} = this THEN RETURN Set8
		ELSIF this * { 0 .. 15 } = this THEN RETURN Set16
		ELSIF this * { 0 .. 31 } = this THEN RETURN Set32
		ELSE RETURN Set64
		END
	END GetSetType;

	PROCEDURE NewSetValue*(system: System; position: Position; s: Basic.Set): SyntaxTree.Value;
	VAR value: SyntaxTree.SetValue;
	BEGIN
		value := SyntaxTree.NewSetValue(position,s);
		value.SetType(GetSetType(system,s));
		RETURN value
	END NewSetValue;

	PROCEDURE NewCharacterValue*(system: System; position: Position; c: CHAR): SyntaxTree.Value;
	VAR value: SyntaxTree.CharacterValue;
	BEGIN
		value := SyntaxTree.NewCharacterValue(position,c);
		value.SetType(system.characterType);
		RETURN value
	END NewCharacterValue;

	PROCEDURE NewNilValue*(system: System; position: Position): SyntaxTree.Value;
	VAR value: SyntaxTree.NilValue;
	BEGIN
		value := SyntaxTree.NewNilValue(position);
		value.SetType(system.anyType);
		RETURN value
	END NewNilValue;

	(* distance for assignment to <- from *)
	PROCEDURE BasicTypeDistance*(system: System; from, to: SyntaxTree.BasicType): SIZE;
	VAR fromSize, toSize, distance: SIZE;
	BEGIN
		fromSize := system.SizeOf(from); toSize := system.SizeOf(to);
		distance := -1;
		IF (from IS SyntaxTree.IntegerType) & (to IS SyntaxTree.IntegerType) & (toSize >= fromSize) THEN
			IF from(SyntaxTree.IntegerType).signed # to(SyntaxTree.IntegerType).signed THEN
				IF (toSize=fromSize) & to(SyntaxTree.IntegerType).signed THEN
					distance := MIN(SIZE)
				ELSE
					INC(distance,2);
				END;
			END;
			WHILE toSize >= fromSize DO
				toSize := toSize DIV 2; INC(distance);
			END;
		ELSIF (from IS SyntaxTree.IntegerType) & (to IS SyntaxTree.SizeType) & (toSize >= fromSize)  THEN
			distance := 1;
			WHILE toSize >= fromSize DO
				toSize := toSize DIV 2; INC(distance);
			END;
		ELSIF (from IS SyntaxTree.SizeType) & (to IS SyntaxTree.IntegerType)  & (toSize >= fromSize) THEN
			distance := 1;
			WHILE toSize >= fromSize DO
				toSize := toSize DIV 2; INC(distance);
			END;
		ELSIF (from IS SyntaxTree.CharacterType) & (to IS SyntaxTree.CharacterType) & (toSize >= fromSize) OR
			(from IS SyntaxTree.FloatType) & (to IS SyntaxTree.FloatType) & (toSize >= fromSize) OR
			(from IS SyntaxTree.SetType) & (to IS SyntaxTree.SetType) & (toSize >= fromSize)
		THEN
			WHILE toSize >= fromSize DO
				toSize := toSize DIV 2; INC(distance);
			END;
		ELSIF (from IS SyntaxTree.IntegerType) & (to IS SyntaxTree.FloatType) THEN
			IF toSize = 64 THEN distance := 1 ELSE distance := 0 END;
			toSize := 64;
			WHILE toSize >= fromSize DO
				toSize := toSize DIV 2; INC(distance);
			END;
		ELSIF (from IS SyntaxTree.SizeType) & (to IS SyntaxTree.FloatType) THEN
			distance := 1;
			WHILE toSize >= fromSize DO
				toSize := toSize DIV 2; INC(distance);
			END;
		ELSIF (from IS SyntaxTree.RangeType) & (to IS SyntaxTree.RangeType) THEN
			distance := 0;
		ELSIF (from IS SyntaxTree.BooleanType) & (to IS SyntaxTree.BooleanType) THEN
			distance := 0;
		END;

		IF distance < 0 THEN distance := MAX(SIZE) END;
		RETURN distance
	END BasicTypeDistance;

	PROCEDURE GetIdentifier*(symbol: SyntaxTree.ИндВТаблИдент; case: Scanner.ВариантыПеревода): SyntaxTree.Identifier;
	BEGIN
		IF (symbol >= 0) & (symbol < LEN(identifiers,1)) THEN
			RETURN identifiers[Scanner.ORDв(case),symbol]
		ELSE
			RETURN SyntaxTree.invalidIdentifier
		END;
	END GetIdentifier;

	(* GetSymbol возвращает индекс идентификатора в глобальной таблице идентификаторов *)
	PROCEDURE GetSymbol*(case: Scanner.ВариантыПеревода; id: SyntaxTree.Identifier): SIGNED32;
	VAR i: SIGNED32;
	BEGIN
		(*! quick and dirty implementation, optimize ! *)
		FOR i := 0 TO LEN(identifiers,1)-1 DO
			IF id.и = identifiers[Scanner.ORDв(case),i].и THEN RETURN i END;
		END;
		RETURN -1
	END GetSymbol;

	PROCEDURE NewBuiltinIdentifierR(индексВТаблицеИдентификаторов: SIGNED32; CONST name_en: ARRAY OF CHAR; CONST name_ру: ARRAY OF CHAR);
	BEGIN
		ASSERT(индексВТаблицеИдентификаторов < LEN(identifiers[0]));
		identifiers[ORDв(Scanner.ВариантыПеревода.Uppercase),индексВТаблицеИдентификаторов] := SyntaxTree.NewIdentifier(name_en);
		identifiers[ORDв(Scanner.ВариантыПеревода.Русский),индексВТаблицеИдентификаторов] := SyntaxTree.NewIdentifier(name_ру);
	END NewBuiltinIdentifierR;

	PROCEDURE InitIdentifiers;
	VAR i: SIGNED32;

		PROCEDURE NewKeywordIdentifier(op: SIGNED32);
		VAR id: Scanner.IdentifierType;
		BEGIN
			Scanner.GetKeyword(Scanner.ВариантыПеревода.Uppercase,op,id);
			identifiers[ORDв(Scanner.ВариантыПеревода.Uppercase),op] := SyntaxTree.ИндексСтрокиВИдентификатор(id);
			Scanner.GetKeyword(Scanner.ВариантыПеревода.Русский,op,id);
			identifiers[ORDв(Scanner.ВариантыПеревода.Русский),op] := SyntaxTree.ИндексСтрокиВИдентификатор(id);
		END NewKeywordIdentifier;

		PROCEDURE NewBuiltinIdentifier(индексВТаблицеИдентификаторов: SIGNED32; CONST name: ARRAY OF CHAR);
		BEGIN
			ASSERT(индексВТаблицеИдентификаторов < LEN(identifiers[0]));
			identifiers[ORDв(Scanner.ВариантыПеревода.Uppercase),индексВТаблицеИдентификаторов] := SyntaxTree.NewIdentifier(name);
			identifiers[ORDв(Scanner.ВариантыПеревода.Русский),индексВТаблицеИдентификаторов] := SyntaxTree.NewIdentifier(name);
		END NewBuiltinIdentifier;

	BEGIN
		FOR i := 0 TO LEN(identifiers,1)-1 DO
			identifiers[ORDв(Scanner.ВариантыПеревода.Uppercase),i] := SyntaxTree.invalidIdentifier; 
			identifiers[ORDв(Scanner.ВариантыПеревода.Русский),i] := SyntaxTree.invalidIdentifier;
		END;
		FOR i := 0 TO Scanner.EndOfText-1 DO
			NewKeywordIdentifier(i);
		END;
		NewBuiltinIdentifier(Abs,"ABS");
		NewBuiltinIdentifier(Ash,"ASH");
		NewBuiltinIdentifier(Cap,"CAP");
		NewBuiltinIdentifier(Chr,"CHR");
		NewBuiltinIdentifier(Entier,"ENTIER");
		NewBuiltinIdentifier(EntierH,"ENTIERH");
		NewBuiltinIdentifier(Len,"LEN");
		NewBuiltinIdentifier(Long,"LONG");
		NewBuiltinIdentifier(Lsh,"LSH");
		NewBuiltinIdentifier(Max,"MAX");
		NewBuiltinIdentifier(Min,"MIN");
		NewBuiltinIdentifier(Odd,"ODD");
		NewBuiltinIdentifier(Ord,"ORD");
		NewBuiltinIdentifier(Ord32,"ORD32");
		NewBuiltinIdentifier(Reshape,"RESHAPE");
		NewBuiltinIdentifier(Rol,"ROL");
		NewBuiltinIdentifier(Ror,"ROR");
		NewBuiltinIdentifier(Rot,"ROT");
		NewBuiltinIdentifier(Short,"SHORT");
		NewBuiltinIdentifier(Shl,"SHL");
		NewBuiltinIdentifier(Shr,"SHR");
		NewBuiltinIdentifier(Sum,"SUM");
		NewBuiltinIdentifier(Dim,"DIM");
		NewBuiltinIdentifier(Cas,"CAS");
		NewBuiltinIdentifier(Dec,"DEC");
		NewBuiltinIdentifier(Excl,"EXCL");
		NewBuiltinIdentifier(Inc,"INC");
		NewBuiltinIdentifier(Incl,"INCL");
		NewBuiltinIdentifier(All,"ALL");
		NewBuiltinIdentifier(Re,"RE");
		NewBuiltinIdentifier(Im,"IM");
		NewBuiltinIdentifier(IncMul,"INCMUL");
		NewBuiltinIdentifier(DecMul,"DECMUL");

		(* TODO: check if ok. The operators defined in FoxArrayBase require the following identifiers *)
		(* TODO: ".*+" should preferably be added as a new token in the scanner *)
		identifiers[ORDв(Scanner.ВариантыПеревода.Uppercase), Scanner.Becomes] := SyntaxTree.NewIdentifier(":=");
		identifiers[ORDв(Scanner.ВариантыПеревода.Русский), Scanner.Becomes] := SyntaxTree.NewIdentifier(":=");
		identifiers[ORDв(Scanner.ВариантыПеревода.Uppercase), Scanner.Transpose] := SyntaxTree.NewIdentifier("`");
		identifiers[ORDв(Scanner.ВариантыПеревода.Русский), Scanner.Transpose] := SyntaxTree.NewIdentifier("`");
		identifiers[ORDв(Scanner.ВариантыПеревода.Uppercase), DotTimesPlus] := SyntaxTree.NewIdentifier(".*+");
		identifiers[ORDв(Scanner.ВариантыПеревода.Русский), DotTimesPlus] := SyntaxTree.NewIdentifier(".*+");
		identifiers[ORDв(Scanner.ВариантыПеревода.Uppercase), AtMulDec] := SyntaxTree.NewIdentifier("@MulDec");
		identifiers[ORDв(Scanner.ВариантыПеревода.Русский), AtMulDec] := SyntaxTree.NewIdentifier("@MulDec");
		identifiers[ORDв(Scanner.ВариантыПеревода.Uppercase), AtMulInc] := SyntaxTree.NewIdentifier("@MulInc");
		identifiers[ORDв(Scanner.ВариантыПеревода.Русский), AtMulInc] := SyntaxTree.NewIdentifier("@MulInc");

		identifiers[ORDв(Scanner.ВариантыПеревода.Uppercase),Conversion] := SyntaxTree.NewIdentifier("@Convert");
		identifiers[ORDв(Scanner.ВариантыПеревода.Русский),Conversion] := SyntaxTree.NewIdentifier("@Convert");
		
		(* Виды флагов  *)

		(* NewBuiltinIdentifierR(NameProtected, "PROTECTED", "PROTECTED"); *)
		NewBuiltinIdentifier(NameWinAPI, StringWinAPI);
		NewBuiltinIdentifier(NameC, StringC);
		NewBuiltinIdentifier(NamePlatformCC, StringPlatformCC);
		NewBuiltinIdentifier(NameMovable, StringMovable);
		NewBuiltinIdentifierR(NameUntraced, "UNTRACED", "не_отсл_уборщиком");
		NewBuiltinIdentifier(NameUntracked, StringUntracked);
		NewBuiltinIdentifierR(NameDelegate, "DELEGATE", "делегат");
		NewBuiltinIdentifier(NameInterrupt, StringInterrupt);
		NewBuiltinIdentifier(NamePcOffset, StringPcOffset);
		NewBuiltinIdentifier(NameNoPAF, StringNoPAF);
		NewBuiltinIdentifier(NameEntry, StringEntry);
		(* NewBuiltinIdentifier(NameExit, StringExit); (* совпадает с Final, отключаем *) *)
		NewBuiltinIdentifierR(NameFixed, "FIXED","FIXED");
		NewBuiltinIdentifierR(NameFictive, "FICTIVE","по_смещению");
		NewBuiltinIdentifierR(NameAligned, "ALIGNED","выровнять");
		NewBuiltinIdentifier(NameAlignStack, StringAlignStack);
		(* ModuleParser.Mod должен соответствовать, но сейчас он не соответствует и падает! *)
		NewBuiltinIdentifierR(NameExclusive, "EXCLUSIVE", "единолично");
		NewBuiltinIdentifierR(NameActive,"ACTIVE", "активное");
		NewBuiltinIdentifierR(NamePriority, "PRIORITY", "приоритет");
		NewBuiltinIdentifier(NameSafe, StringSafe);
		NewBuiltinIdentifierR(NameRealtime, "REALTIME", "может_прерывать_уборщика");
		NewBuiltinIdentifier(NameDynamic, StringDynamic);
		NewBuiltinIdentifier(NameDataMemorySize, StringDataMemorySize);
		NewBuiltinIdentifier(NameCodeMemorySize, StringCodeMemorySize);
		(* 
	  (** Этих двух вооще нету *)
		NewBuiltinIdentifier(NameChannelWidth, StringChannelWidth);
		NewBuiltinIdentifier(NameChannelDepth, StringChannelDepth); 
		(** А этого ищи в другом месте *)
		NewBuiltinIdentifier(NameChannelModule, StringChannelModule);
		*)
		NewBuiltinIdentifier(NameVector, StringVector);
		NewBuiltinIdentifier(NameFloatingPoint, StringFloatingPoint);
		NewBuiltinIdentifier(NameNoMul,StringNoMul);
		NewBuiltinIdentifier(NameNonBlockingIO,StringNonBlockingIO);
		NewBuiltinIdentifier(NameTRM, StringTRM);
		NewBuiltinIdentifier(NameTRMS, StringTRMS);
		NewBuiltinIdentifier(NameBackend, StringBackend);
		NewBuiltinIdentifier(NameRuntime, StringRuntime);
		NewBuiltinIdentifier(NameEngine, StringEngine);
		NewBuiltinIdentifierR(NameFinal, "FINAL","не_расширяемая");
		NewBuiltinIdentifier(NameAbstract, StringAbstract);
		NewBuiltinIdentifier(NameFrequencyDivider, StringFrequencyDivider);
		NewBuiltinIdentifier(NameRegister, StringRegister);
		NewBuiltinIdentifier(NameNoReturn, StringNoReturn);
		NewBuiltinIdentifierR(NamePlain, "PLAIN", "без_кадра_активации");
		NewBuiltinIdentifierR(NameUnsafe, "UNSAFE", "опасный_доступ_к_памяти");
		NewBuiltinIdentifier(NameDisposable, StringDisposable);
		NewBuiltinIdentifierR(NameUnchecked, "UNCHECKED", "без_обычных_дин_проверок");
		NewBuiltinIdentifierR(NameUncooperative, "UNCOOPERATIVE", "без_кооперации");
		NewBuiltinIdentifierR(NameПерекрыта, "OVERRIDE", "перекрыта");
		NewBuiltinIdentifier(NameFingerprint, StringFingerprint);

	END InitIdentifiers;

	(** initialize the global namespace *)
	PROCEDURE Init;
	BEGIN
		ASSERT(НачалоФлагов > IncMul);
		InitIdentifiers;
		(* names are not arbitrary, do not change unless you know what you do (compatibilty with paco!) *)
		SystemName := SyntaxTree.NewIdentifier("SYSTEM");
		systemName := SyntaxTree.NewIdentifier("system");
		НИЗКОУРName := SyntaxTree.NewIdentifier("НИЗКОУР");
		SelfParameterName := SyntaxTree.NewIdentifier("@Self");
		ReturnParameterName := SyntaxTree.NewIdentifier("@ReturnParameter");
		PointerReturnName := SyntaxTree.NewIdentifier("@PtrReturnType");
		ResultName := SyntaxTree.NewIdentifier("RESULT");
		A2Name := SyntaxTree.NewIdentifier("A2");
		ArrayBaseName := SyntaxTree.NewIdentifier("FoxArrayBase");
		ComplexNumbersName := SyntaxTree.NewIdentifier("ComplexNumbers");
		RecordBodyName := SyntaxTree.NewIdentifier("@Body");
		ModuleBodyName := SyntaxTree.NewIdentifier("@Body");

		NameGlobal := SyntaxTree.NewIdentifier("@GLOBAL");
		Nameglobal := SyntaxTree.NewIdentifier("@global");

		IdentifierChannelModule := SyntaxTree.NewIdentifier(StringChannelModule);
		IdentifierEngine := SyntaxTree.NewIdentifier(StringEngine);

		(* types *)
		Signed8 := SyntaxTree.NewIntegerType(8, TRUE);
		Signed16 := SyntaxTree.NewIntegerType(16, TRUE);
		Signed32 := SyntaxTree.NewIntegerType(32, TRUE);
		Signed64 := SyntaxTree.NewIntegerType(64, TRUE);
		Unsigned8 := SyntaxTree.NewIntegerType(8, FALSE);
		Unsigned16 := SyntaxTree.NewIntegerType(16, FALSE);
		Unsigned32 := SyntaxTree.NewIntegerType(32, FALSE);
		Unsigned64 := SyntaxTree.NewIntegerType(64, FALSE);
		Float32 := SyntaxTree.NewFloatType(32);
		Float64 := SyntaxTree.NewFloatType(64);
		Complex32 := SyntaxTree.NewComplexType(Float32);
		Complex64 := SyntaxTree.NewComplexType(Float64);
		Set8 := SyntaxTree.NewSetType(8);
		Set16 := SyntaxTree.NewSetType(16);
		Set32 := SyntaxTree.NewSetType(32);
		Set64 := SyntaxTree.NewSetType(64);
	END Init;

BEGIN
	Init;
END LisGlobal.
