(* ПереведиИмяКомандыВМодулеДляВызоваы для переводов кода - служат для перевода исходных текстов. 
  См. также LisScanner.НазначьНовоеИмяДляIdentifier и т.п. *)
MODULE LisУтилитыДляПереводаКода;

IMPORT ПЭК := ПереводыЭлементовКода, Basic := FoxBasic, Scanner := LisScanner, SyntaxTree := LisSyntaxTree, KernelLog, Streams, Strings, UCS32;

VAR
	(* нужна, чтобы в синт. дереве отличать случай ненайденной и пустой областей видимости *)
	нулеваяОбластьВидимости*: ПЭК.ИменованнаяОбластьВидимости;

	режимТилоря*: BOOLEAN; (* тестовый режим, к-рый переводит всё, что не имеет перевода, 
		с помощью тилори, при статическом переводе. Работает только в одну сторону, т.е. может «переводить»
		с английского на русский, но не наоборот. Поэтому пригоден только для тестов. *)
		
		
PROCEDURE НеАнглийскийИдентификаторSyntaxTree*(и: SyntaxTree.Identifier) : BOOLEAN;
VAR имяЗ : ПЭК.СтрокаИдентификатора;
BEGIN
	Basic.GetString(и.и,имяЗ);
	RETURN ПЭК.НеАнглийскийИдентификатор(имяЗ) END НеАнглийскийИдентификаторSyntaxTree;


(* ПереведиИмяМодуляДляВызова: если данное имя имеет русский или английский переод, то ПереведиИмяМодуляДляВызова вычисляет такой из этих двух переводов, 
   который существует (или должен существовать) на самом деле. 
   См. также LisGlobal.ПереведиИмяМодуляДляВызова - там сделано то же самое, но для компилятора. Пока что
   инфраструктура для рантайма и компилятора всегда совпадают, но для кросс-компиляции они должны различаться. *)
PROCEDURE ПереведиИмяМодуляДляВызова*(базаПереводов: ПЭК.ИменованнаяОбластьВидимости; CONST имя: ARRAY OF CHAR; VAR имяКотороеОпределено : ПЭК.СтрокаИдентификатора);
VAR м: ПЭК.ИменованнаяОбластьВидимости; 
BEGIN
	м := ДайЯчейкуМодуля(базаПереводов, имя);
	IF м = нулеваяОбластьВидимости THEN 
		COPY(имя, имяКотороеОпределено)
	ELSE
		IF м.russianExists = 1 THEN
			COPY(м.ru^, имяКотороеОпределено)
		ELSE
			ASSERT(м.russianExists = 0);
			COPY(м.en^, имяКотороеОпределено) END END END ПереведиИмяМодуляДляВызова;
		
(* ДайОбаИмениМодуля возвращает русское и английское имена модуля. 
   м может быть НУЛ, тогда берётся «имя» *)
PROCEDURE ДайОбаИмениМодуля*(м: ПЭК.ИменованнаяОбластьВидимости; CONST имя: ARRAY OF CHAR;
	VAR имя_ru : ПЭК.СтрокаИдентификатора; VAR имя_en : ПЭК.СтрокаИдентификатора);
BEGIN
	IF м # нулеваяОбластьВидимости THEN 
		COPY(м.ru^, имя_ru); COPY(м.en^, имя_en)
	ELSE
		COPY(имя, имя_ru); COPY(имя, имя_en);
		ПримениТилоря(имя, ПЭК.НеАнглийскийИдентификатор(имя), Scanner.ВариантыПеревода.Русский, имя_ru);
 	END END ДайОбаИмениМодуля;
		

PROCEDURE ДайОбаИмениСимвола*(иов: ПЭК.ИменованнаяОбластьВидимости; CONST имя: ARRAY OF CHAR;
	VAR имя_ru : ПЭК.СтрокаИдентификатора; VAR имя_en : ПЭК.СтрокаИдентификатора);
BEGIN
	ASSERT(иов # NIL);
	IF иов # нулеваяОбластьВидимости THEN 
		COPY(иов.ru^, имя_ru); COPY(иов.en^, имя_en)
	ELSE
		COPY(имя, имя_ru); COPY(имя, имя_en);
		ПримениТилоря(имя, ПЭК.НеАнглийскийИдентификатор(имя), Scanner.ВариантыПеревода.Русский, имя_ru);
		END END ДайОбаИмениСимвола;
		
	
PROCEDURE ДайПереводыПсевдонима*(м: ПЭК.ИменованнаяОбластьВидимости; CONST псевдоним: ARRAY OF CHAR; VAR псевд_ru : ПЭК.СтрокаИдентификатора; VAR псевд_en : ПЭК.СтрокаИдентификатора);
VAR ПсевдРусскийЛи: BOOLEAN; пп: ПЭК.ПопулярныйПсевдоним; 
BEGIN
	COPY(псевдоним, псевд_ru); COPY(псевдоним, псевд_en);
	WITH м : ПЭК.Модуль DO
		ПсевдРусскийЛи := ПЭК.НеАнглийскийИдентификатор(псевдоним);
		IF м # нулеваяОбластьВидимости THEN
			пп := м.популярныеПсевдонимы;
			LOOP
				IF пп = NIL THEN 
					ПримениТилоря(псевдоним, ПсевдРусскийЛи, Scanner.ВариантыПеревода.Русский, псевд_ru);
					EXIT END;
				IF ПсевдРусскийЛи & (пп.ru^ = псевдоним) OR ~ПсевдРусскийЛи & (пп.en^ = псевдоним) THEN
					COPY(пп.ru^, псевд_ru); COPY(пп.en^, псевд_en);
					RETURN END;
				пп := пп.следующий END END;
	ELSE
		IF м # нулеваяОбластьВидимости THEN HALT(8800) END; 
		ПримениТилоря(псевдоним, ПЭК.НеАнглийскийИдентификатор(псевдоним), Scanner.ВариантыПеревода.Русский, псевд_ru);
		END END ДайПереводыПсевдонима;
	

PROCEDURE ДайЯчейкуМодуля*(базаПереводов: ПЭК.ИменованнаяОбластьВидимости; CONST имя: ARRAY OF CHAR): ПЭК.ИменованнаяОбластьВидимости;
VAR ИмяРусскоеЛи: BOOLEAN; м: ПЭК.ИменованнаяОбластьВидимости;
BEGIN
	ИмяРусскоеЛи := ПЭК.НеАнглийскийИдентификатор(имя);
	м := базаПереводов;
	LOOP
		IF м = NIL THEN RETURN нулеваяОбластьВидимости END;
		IF ИмяРусскоеЛи & (м.ru^ = имя) OR ~ИмяРусскоеЛи & (м.en^ = имя) THEN
			RETURN м END;
		м := м.следующий END END ДайЯчейкуМодуля;
		

PROCEDURE ДайЯчейкуСимвола*(списокГдеИскать: ПЭК.ИменованнаяОбластьВидимости; CONST имя: ARRAY OF CHAR): ПЭК.ИменованнаяОбластьВидимости;
VAR ИмяРусскоеЛи: BOOLEAN; член : ПЭК.ИменованнаяОбластьВидимости;
BEGIN
	(* KernelLog.String("ДайЯчейкуСимвола: «"); KernelLog.String(имя); KernelLog.String("»"); 
	IF списокГдеИскать = нулеваяОбластьВидимости THEN
		KernelLog.String(", нет списка - ничего не найдём")
	ELSE
		KernelLog.String(", начало списка по-русски называется ");
		KernelLog.String(списокГдеИскать.ru^);
		(* KernelLog.String(", не нулевая охватывающая область видимости") *) END;	
	KernelLog.Ln;  *)
	ИмяРусскоеЛи := ПЭК.НеАнглийскийИдентификатор(имя);
	IF списокГдеИскать = NIL THEN 
		(* KernelLog.String("ДайЯчейкуСимвола: пустой списокГдеИскать для имени «"); KernelLog.String(имя); KernelLog.String("»"); KernelLog.Ln; *)
		RETURN нулеваяОбластьВидимости
	ELSIF списокГдеИскать = нулеваяОбластьВидимости THEN 
		RETURN нулеваяОбластьВидимости END;
	член := списокГдеИскать;	
	LOOP
		IF член = NIL THEN RETURN нулеваяОбластьВидимости END;
		IF ИмяРусскоеЛи & (член.ru^ = имя) OR ~ИмяРусскоеЛи & (член.en^ = имя) THEN
			(* KernelLog.String("  - возвращаю "); KernelLog.String(член.ru^); KernelLog.Ln; *)
			RETURN член END;
		член := член.следующий END END ДайЯчейкуСимвола;

(* ПереведиИмяМодуляИКомандыДляВызова: если данная пара из имени модуля и команды имеет русский или английский переод, то вычисляет для имён модуля и команды такие 
		из этих двух переводов, которые существуют (или должны существовать) на самом деле *)
PROCEDURE ПереведиИмяМодуляИКомандыДляВызова*(базаПереводов: ПЭК.ИменованнаяОбластьВидимости; CONST имяМодуля: ARRAY OF CHAR; CONST имяКоманды: ARRAY OF CHAR; 
		VAR имяМодуляНаВыбрЯз: ПЭК.СтрокаИдентификатора; VAR имяКомандыНаВыбрЯз : ПЭК.СтрокаИдентификатора);
	VAR м: ПЭК.ИменованнаяОбластьВидимости; 
	BEGIN
		м := ДайЯчейкуМодуля(базаПереводов, имяМодуля);
		IF м = NIL THEN
			COPY(имяМодуля, имяМодуляНаВыбрЯз);
		ELSE
			IF м.russianExists = 1 THEN
				COPY(м.ru^, имяМодуляНаВыбрЯз)
			ELSE
				ASSERT(м.russianExists = 0);
				COPY(м.en^, имяМодуляНаВыбрЯз) END END;
		ПереведиИмяКомандыВМодулеДляВызова(м, имяКоманды, имяКомандыНаВыбрЯз);
	END ПереведиИмяМодуляИКомандыДляВызова;

	(* Внутренняя процедура *)
PROCEDURE ПереведиИмяКомандыВМодулеДляВызова(CONST мод: ПЭК.ИменованнаяОбластьВидимости; CONST имя: ARRAY OF CHAR; VAR имяКотороеОпределено : ПЭК.СтрокаИдентификатора);
VAR ч: ПЭК.ИменованнаяОбластьВидимости; ИмяРусскоеЛи: BOOLEAN;
BEGIN
	COPY(имя, имяКотороеОпределено);
	IF мод = NIL THEN 
		RETURN END;	
	ИмяРусскоеЛи := ПЭК.НеАнглийскийИдентификатор(имя);
	ч := мод.члены;
	LOOP
		IF ч = NIL THEN RETURN END;
		IF ИмяРусскоеЛи & (ч.ru^ = имя) OR ~ИмяРусскоеЛи & (ч.en^ = имя) THEN
			IF ч.russianExists = 1 THEN
				COPY(ч.ru^, имяКотороеОпределено)
			ELSE
				ASSERT(ч.russianExists = 0);
				COPY(ч.en^, имяКотороеОпределено) END;
			RETURN END;
		ч := ч.следующий END END ПереведиИмяКомандыВМодулеДляВызова;


PROCEDURE ПереведиИмяЧВОбластиВидимости*(CONST члены: ПЭК.ИменованнаяОбластьВидимости; имя: Basic.String; case : Scanner.ВариантыПеревода;
	VAR переводИмени : ПЭК.СтрокаИдентификатора): ПЭК.ИменованнаяОбластьВидимости;
VAR начальноеИмяЗ : ПЭК.СтрокаИдентификатора;
BEGIN
	Basic.GetString(имя,начальноеИмяЗ);
	RETURN ПереведиИмяВОбластиВидимости(члены, начальноеИмяЗ, case, переводИмени) END ПереведиИмяЧВОбластиВидимости;
	


(* Иов - область видимости, в которой живёт данное имя. Возвращает перевод имени, а также, в качестве результата, внутреннюю область 
	видимости данного имени, если она есть (пока что всегда NIL) *)
PROCEDURE ПереведиИмяВОбластиВидимости*(CONST члены: ПЭК.ИменованнаяОбластьВидимости; CONST имя: ARRAY OF CHAR; printCase : Scanner.ВариантыПеревода;
	VAR переводИмени : ПЭК.СтрокаИдентификатора): ПЭК.ИменованнаяОбластьВидимости;
VAR ч, ч2: ПЭК.ИменованнаяОбластьВидимости; ИмяРусскоеЛи: BOOLEAN; BEGIN
	COPY(имя, переводИмени);
	ИмяРусскоеЛи := ПЭК.НеАнглийскийИдентификатор(имя);
	IF члены = нулеваяОбластьВидимости THEN 
		ПримениТилоря(имя, ИмяРусскоеЛи, printCase, переводИмени);
		RETURN нулеваяОбластьВидимости END;
	ASSERT(члены # NIL);
	ч := члены;
	LOOP
		IF ч = NIL THEN 
			ПримениТилоря(имя, ИмяРусскоеЛи, printCase, переводИмени);
			RETURN нулеваяОбластьВидимости END;
		IF ИмяРусскоеЛи & (ч.ru^ = имя) OR ~ИмяРусскоеЛи & (ч.en^ = имя) THEN
			IF printCase = Scanner.ВариантыПеревода.Русский THEN
				COPY(ч.ru^, переводИмени)
			ELSE
				COPY(ч.en^, переводИмени) END;
			ч2 := ч.члены;
			IF ч2 = NIL THEN ч2 := нулеваяОбластьВидимости END;
			RETURN ч2 END;
		ч := ч.следующий END; 
		HALT(707); (* сюда не должны дойти *) END ПереведиИмяВОбластиВидимости;


PROCEDURE Тилоря*(CONST вх: ARRAY OF CHAR; VAR переведеноЛи: BOOLEAN): Strings.String;
	VAR вх2 : UCS32.PStringJQ; сп: Strings.Buffer; вых: Streams.Writer; й : SIZE; з : UCS32.CharJQ;
	BEGIN
		переведеноЛи := FALSE;
		NEW(сп, 10);
		вх2 := UCS32.U8vNovJQ(вх);
		вых := сп.GetWriter();
		LOOP
			IF й = LEN(вх) - 1 THEN EXIT END;
			з := вх2[й];
			IF з.UCS32CharCode = UCS32.KodEot THEN EXIT END;
			CASE з.UCS32CharCode OF
				| ORD('a'): вых.String("а"); переведеноЛи := TRUE; 
				| ORD('b'): вых.String("б"); переведеноЛи := TRUE;
				| ORD('c'): вых.String("ц"); переведеноЛи := TRUE;
				| ORD('d'): вых.String("д"); переведеноЛи := TRUE;
				| ORD('e'): вых.String("е"); переведеноЛи := TRUE;
				| ORD('f'): вых.String("ф"); переведеноЛи := TRUE;
				| ORD('g'): вых.String("г"); переведеноЛи := TRUE;
				| ORD('h'): вых.String("ш"); переведеноЛи := TRUE;
				| ORD('i'): вых.String("и"); переведеноЛи := TRUE;
				| ORD('j'): вых.String("й"); переведеноЛи := TRUE;
				| ORD('k'): вых.String("к"); переведеноЛи := TRUE;
				| ORD('l'): вых.String("л"); переведеноЛи := TRUE;
				| ORD('m'): вых.String("м"); переведеноЛи := TRUE;
				| ORD('n'): вых.String("н"); переведеноЛи := TRUE;
				| ORD('o'): вых.String("о"); переведеноЛи := TRUE;
				| ORD('p'): вых.String("п"); переведеноЛи := TRUE;
				| ORD('q'): вых.String("ь"); переведеноЛи := TRUE;
				| ORD('r'): вых.String("р"); переведеноЛи := TRUE;
				| ORD('s'): вых.String("с"); переведеноЛи := TRUE;
				| ORD('t'): вых.String("т"); переведеноЛи := TRUE;
				| ORD('u'): вых.String("у"); переведеноЛи := TRUE;
				| ORD('v'): вых.String("в"); переведеноЛи := TRUE;
				| ORD('w'): вых.String("ю"); переведеноЛи := TRUE;
				| ORD('x'): вых.String("х"); переведеноЛи := TRUE;
				| ORD('y'): вых.String("ы"); переведеноЛи := TRUE;
				| ORD('z'): вых.String("з"); переведеноЛи := TRUE;
				| ORD('A'): вых.String("А"); переведеноЛи := TRUE;
				| ORD('B'): вых.String("Б"); переведеноЛи := TRUE;
				| ORD('C'): вых.String("Ц"); переведеноЛи := TRUE;
				| ORD('D'): вых.String("Д"); переведеноЛи := TRUE;
				| ORD('E'): вых.String("Е"); переведеноЛи := TRUE;
				| ORD('F'): вых.String("Ф"); переведеноЛи := TRUE;
				| ORD('G'): вых.String("Г"); переведеноЛи := TRUE;
				| ORD('H'): вых.String("Ш"); переведеноЛи := TRUE;
				| ORD('I'): вых.String("И"); переведеноЛи := TRUE;
				| ORD('J'): вых.String("Й"); переведеноЛи := TRUE;
				| ORD('K'): вых.String("К"); переведеноЛи := TRUE;
				| ORD('L'): вых.String("Л"); переведеноЛи := TRUE;
				| ORD('M'): вых.String("М"); переведеноЛи := TRUE;
				| ORD('N'): вых.String("Н"); переведеноЛи := TRUE;
				| ORD('O'): вых.String("О"); переведеноЛи := TRUE;
				| ORD('P'): вых.String("П"); переведеноЛи := TRUE;
				| ORD('Q'): вых.String("Ь"); переведеноЛи := TRUE;
				| ORD('R'): вых.String("Р"); переведеноЛи := TRUE;
				| ORD('S'): вых.String("С"); переведеноЛи := TRUE;
				| ORD('T'): вых.String("Т"); переведеноЛи := TRUE;
				| ORD('U'): вых.String("У"); переведеноЛи := TRUE;
				| ORD('V'): вых.String("В"); переведеноЛи := TRUE;
				| ORD('W'): вых.String("Ю"); переведеноЛи := TRUE;
				| ORD('X'): вых.String("Х"); переведеноЛи := TRUE;
				| ORD('Y'): вых.String("Ы"); переведеноЛи := TRUE;
				| ORD('Z'): вых.String("З"); переведеноЛи := TRUE;
			ELSE
				вых.CharJQ(з) END;
			INC(й) END;
		вых.Update();
		KernelLog.String("«Тилоря: "); KernelLog.String(сп.GetString()^); KernelLog.String("»");
		RETURN сп.GetString()
	END Тилоря;


	PROCEDURE ПримениТилоря*(CONST имя: ARRAY OF CHAR; ИмяРусскоеЛи: BOOLEAN; printCase: Scanner.ВариантыПеревода; VAR переводИмени: ПЭК.СтрокаИдентификатора);
	VAR тилоря: Strings.String; мусор: BOOLEAN;
	BEGIN
		(* костылик, чтобы перевести неудачное 'и' *)
		IF (printCase = Scanner.ВариантыПеревода.Русский) THEN
			IF (имя = "и") THEN
				переводИмени := "И"; RETURN 
			ELSIF (имя = "модуль") THEN
				переводИмени := "Модуль"; RETURN END END;
		IF режимТилоря & ~ ИмяРусскоеЛи & (printCase = Scanner.ВариантыПеревода.Русский) THEN
			тилоря := Тилоря(имя,мусор);
			ASSERT(Strings.Length(тилоря^)+1 <= LEN(переводИмени));
			COPY(тилоря^, переводИмени) END END ПримениТилоря;

BEGIN
	NEW(нулеваяОбластьВидимости);
	режимТилоря := FALSE;
END LisУтилитыДляПереводаКода.

слово



