MODULE TextUtilities;	(** AUTHOR "TF"; PURPOSE "Utilities for the Unicode text system"; *)

IMPORT
	SYSTEM, (* for Oberon Text colors *)
	Configuration, Commands, Codecs, FP1616,
	KernelLog, Texts, Streams, Files, UTF8Strings, XML, XMLScanner, XMLParser, XMLObjects, Repositories, Strings, WMGraphics,
	UnicodeProperties, UCS32, UCS32u;

CONST
	Ok* = 0;
	FileNotFound* = Files.FileNotFound;
	FileCreationError* = 2;
	CodecNotFound* = 3;

	CR = 0DX; LF = 0AX; TAB = 09X;

	(** FormatDescriptor features *)
	LoadUnicode* = 0;
	StoreUnicode* = 1;
	LoadFormated* = 2;
	StoreFormatted* = 3;

	BufferedAttributes=256; (* number of attributes buffered before updates must take place *)
	(* Maks dlina kodirovki pravilqnojj bukvy = 6 + 1 dlja #0 *)
	oldBytesBufferSize* = 7;

TYPE
	Char32 = Texts.Char32;
	Text = Texts.Text;
	LoaderProc* = PROCEDURE {DELEGATE} (text : Text; filename : ARRAY OF CHAR; VAR res : INTEGER);

TYPE
	FormatDescriptor = OBJECT
	VAR name : Strings.String;
		loadProc, storeProc : Strings.String;
	END FormatDescriptor;

	AttributesBuf*=RECORD
	 	attributes: POINTER TO ARRAY OF Texts.Attributes;
		positions: POINTER TO ARRAY OF SIZE;
		length: SIGNED32;
	END;
	
TextWriter* = OBJECT (Streams.Writer);
	VAR text : Texts.Text;
		ucs32buf : POINTER TO ARRAY OF SIGNED32;
		fontName : ARRAY 32 OF CHAR;
		fontSize: SIZE; x, fontVOff : SIGNED32; fontColor, fontBgColor: WMGraphics.Color;
		fontStyle : SET;
		currentAttributes- : Texts.Attributes;
		oldBytes : ARRAY oldBytesBufferSize OF CHAR;
		nofOldBytes : SIZE;
		attributesBuf: AttributesBuf;

		PROCEDURE &Init*(text : Texts.Text);
		BEGIN
			SELF.text := text;
			nofOldBytes := 0;
			currentAttributes := GetDefaultAttributes();
			fontColor := currentAttributes.color;
			fontBgColor := currentAttributes.bgcolor;
			fontVOff := currentAttributes.voff;
			COPY(currentAttributes.fontInfo.name, fontName);
			fontSize := currentAttributes.fontInfo.size;
			fontStyle := currentAttributes.fontInfo.style;
			NEW(attributesBuf.attributes,BufferedAttributes);
			NEW(attributesBuf.positions,BufferedAttributes);
			attributesBuf.length := 0;
			InitWriter (Add, 128 * 1024);
		END Init;
		

		(* При правках тут ищи слово AddUTF8BufferCut *)
		PROCEDURE Add(CONST buf: ARRAY OF CHAR; ofs, len: SIZE; propagate: BOOLEAN; VAR res: INTEGER);
		VAR
			p, i, idx, pos : SIZE;
			sledujushajaBukvaDljaKopirovanijaVOldBytes : SIZE;
			nextAttribute: SIZE;
			codeLength : CHAR;
			pieceOffset, pieceLength: SIZE;
			nextAttributes: Texts.Attributes;
			
			zaPoslednjujuUTFBukvuOldBytesProchitano : SIZE;
			
		
		PROCEDURE SendThisBuffer;
		BEGIN
			IF len > 0 THEN
				text.AcquireWrite;
				pos := text.GetLength();
				text.InsertUCS32(text.GetLength(), ucs32buf^);
				pieceOffset := 0; nextAttribute := 0;
				WHILE nextAttribute < attributesBuf.length DO
					nextAttributes := attributesBuf.attributes[nextAttribute];
					pieceLength:= attributesBuf.positions[nextAttribute]-pieceOffset;
					text.SetAttributes(pos+pieceOffset,pieceLength,currentAttributes);
					INC(pieceOffset, pieceLength);
					currentAttributes := nextAttributes;
					INC(nextAttribute);
				END;
				text.SetAttributes(pieceOffset+pos, text.GetLength()-pos-pieceOffset, currentAttributes);
				text.ReleaseWrite;
				attributesBuf.length := 0;
			END;
		END SendThisBuffer;	
			
			
		PROCEDURE DobavqVOldBytes;
		VAR j : SIZE;
		BEGIN
		INC(nofOldBytes, -zaPoslednjujuUTFBukvuOldBytesProchitano);
		(* ischerpali nachalqnoe soderzhimoe OldBytes? *)
		IF nofOldBytes <= 0 THEN 
			(* chastq bajjt dlja poslednejj bukvy vzjata iz novogo kuska byla izraskhodovana - uchtjom ehto *)
			p := p - nofOldBytes;
			RETURN 
		END;
		(* sdvinem bukvy k nachalu *)
		FOR j := 0 TO oldBytesBufferSize - 1 - zaPoslednjujuUTFBukvuOldBytesProchitano DO
			oldBytes[j] := oldBytes[j + zaPoslednjujuUTFBukvuOldBytesProchitano] END;
		(* dobavim novye bukvy do polnogo bufera iz novogo kuska, esli oni voobshe estq *)
		FOR j := oldBytesBufferSize - zaPoslednjujuUTFBukvuOldBytesProchitano TO oldBytesBufferSize - 1 DO
			IF sledujushajaBukvaDljaKopirovanijaVOldBytes >= pieceOffset + pieceLength THEN
				oldBytes[j] := 0X; 
			ELSE
				oldBytes[j] := buf[sledujushajaBukvaDljaKopirovanijaVOldBytes] END;
			INC(sledujushajaBukvaDljaKopirovanijaVOldBytes) END END DobavqVOldBytes;
			

		BEGIN
			pieceOffset := ofs; pieceLength := len;

			IF (ucs32buf = NIL) OR (pieceLength >= LEN(ucs32buf)) THEN NEW(ucs32buf, pieceLength + 1) END;
			p := pieceOffset; idx := 0;
			(* complete an unfinished character *)
			
			(* chitaem s pomoshhju starykh bajjt, poka ne vyberemsja *)
			p := sledujushajaBukvaDljaKopirovanijaVOldBytes;
			LOOP
				IF nofOldBytes <= 0 THEN 
					(* mozhno nachinatq chitatq uzhe v osnovnom bufere *)
					EXIT END;
				i := 0;
				IGNORE UTF8Strings.DecodeChar(oldBytes, i, ucs32buf[idx]);
				INC(idx);
				zaPoslednjujuUTFBukvuOldBytesProchitano := i;
				DobavqVOldBytes() END;

			(* chitaem sam bufer *)					
			LOOP
				IF p >= pieceOffset + pieceLength THEN EXIT END;
				codeLength := UCS32.CodeLength[ORD(buf[p])];
				IF (codeLength = UCS32.CodeLengthBad) OR (p + ORD(codeLength) <= pieceOffset+pieceLength) THEN 
					(* Trace.String("About to decode char starting from "); Trace.Int(ORD(buf[p]),0); Trace.Ln; *)
					IGNORE UTF8Strings.DecodeChar(buf, p, ucs32buf[idx]);
					(* Trace.String("Obtained ucs32 char: "); Trace.Int(ucs32buf[idx],0); Trace.Ln; *)
					INC(idx)
				ELSE
					(* ne smozhem dochitatq bukvu - polozhim v nofOldBytes *) 
					EXIT END END;
			ucs32buf[idx] := 0;

			(* v konce bufera ostalosq menee odnojq pravilqnojj bukvy ili chto-to nepravilqnoe *)
			i := 0;
			WHILE p < pieceOffset+pieceLength  DO oldBytes[i] := buf[p]; INC(p); INC(i) END;
			nofOldBytes := i;
			IF i > 0 THEN HALT(880) END; (* vpervye zdesq *)
			ASSERT(nofOldBytes < oldBytesBufferSize - 1);

			SendThisBuffer;
		END Add;

		(** Write end-of-line character *)
		PROCEDURE Ln*; (** overwrite Ln^ *)
		BEGIN
			Char(CHR(Texts.NewLineChar));
		END Ln;

		PROCEDURE SetAttributes*(attributes: Texts.Attributes);
		VAR i: SIGNED32;
		BEGIN
			IF attributesBuf.length = LEN(attributesBuf.attributes) THEN Update(); END;
			i := attributesBuf.length;
			attributesBuf.attributes[i] := attributes;
			attributesBuf.positions[i] := (Pos()-sent)(SIZE);
			INC(i);
			attributesBuf.length := i;
		END SetAttributes;

		PROCEDURE NewAttributes(): Texts.Attributes;
		VAR attributes: Texts.Attributes;
		BEGIN
			NEW(attributes); attributes.Set(fontColor, fontBgColor, fontVOff, fontName, fontSize, fontStyle);
			RETURN attributes
		END NewAttributes;

		PROCEDURE SetFontName* (CONST name : ARRAY OF CHAR);
		BEGIN
			COPY(name, fontName);
			SetAttributes(NewAttributes());
		END SetFontName;

		PROCEDURE SetFontSize* (size : SIGNED32);
		BEGIN
			fontSize := size;
			SetAttributes(NewAttributes());
		END SetFontSize;

		PROCEDURE SetFontStyle* (style :  SET);
		BEGIN
			fontStyle := style;
			SetAttributes(NewAttributes());
		END SetFontStyle;

		PROCEDURE SetFontColor* (color : WMGraphics.Color);
		BEGIN
			fontColor := color;
			SetAttributes(NewAttributes());
		END SetFontColor;

		PROCEDURE SetBgColor* (bgColor : SIGNED32);
		BEGIN
			fontBgColor := bgColor;
			SetAttributes(NewAttributes());
		END SetBgColor;

		PROCEDURE SetVerticalOffset* (voff : SIGNED32);
		BEGIN
			fontVOff := voff;
			SetAttributes(NewAttributes());
		END SetVerticalOffset;

		PROCEDURE AddObject*(obj : ANY);
		VAR op : Texts.ObjectPiece;
		BEGIN
			Update;
			NEW(op); op.object := obj;
			text.AcquireWrite;
			text.InsertPiece(text.GetLength(), op);
			text.ReleaseWrite;
		END AddObject;

	END TextWriter;

	TextReader* = OBJECT (Streams.Reader)
	VAR
		reader: Texts.TextReader;
		remainder: SIGNED32;

		PROCEDURE &Init*(text : Texts.Text);
		BEGIN
			remainder := 0;
			NEW (reader, text);
			InitReader (Receive, Streams.DefaultReaderSize);
		END Init;

		PROCEDURE Receive (VAR buf: ARRAY OF CHAR; ofs, size, min: SIZE;  VAR len: SIZE; VAR res: INTEGER);
		VAR ucs32: SIGNED32; prevofs, offs: SIZE;
		BEGIN
			reader.text.AcquireRead;
			len := 0; res := Streams.Ok;
			WHILE len < size DO
				IF remainder # 0 THEN
					ucs32 := remainder; remainder := 0;
				ELSE
					reader.ReadCh (ucs32);
				END;
				prevofs := ofs;
				IF (ucs32 = 0) OR ~UTF8Strings.EncodeChar (ucs32, buf, offs) THEN
					remainder := ucs32;
					IF len < min THEN res := Streams.EOF END;
					reader.text.ReleaseRead;
					RETURN
				END;
				ofs := offs;
				INC (len, ofs - prevofs);
			END;
			reader.text.ReleaseRead;
		END Receive;

		PROCEDURE CanSetPos*() : BOOLEAN;
		BEGIN
			RETURN TRUE;
		END CanSetPos;

		PROCEDURE SetPos*(pos: Streams.Position);
		BEGIN
			reader.text.AcquireRead;
			reader.SetPosition(pos(SIZE)); (* pos is clipped *)
			received := reader.GetPosition(); (* this effects that Streams.Reader.Pos() returns the correct location in the text *)
			Reset;
			remainder := 0;
			reader.text.ReleaseRead;
		END SetPos;

	END TextReader;

TYPE
	Positions = POINTER TO ARRAY OF SIZE;
	Operation = RECORD op : INTEGER; pos, len : SIZE END;
	Operations  = POINTER TO ARRAY OF Operation;

	TextSelection*=OBJECT
		VAR text* : Texts.Text;
		from*, to* : Texts.TextPosition;
	END TextSelection;

	TextPositionKeeper* = OBJECT(Texts.TextPosition);
	VAR positions : Positions;
		nofPositions : SIZE;
		operations : Operations;
		nofOperations, nofDeleted : SIZE;

		PROCEDURE &New*(t : Texts.Text);
		BEGIN
			New^(t);
			NEW(positions, 256); NEW(operations, 256);
			nofOperations := 0; nofPositions := 0; nofDeleted := 0
		END New;

		PROCEDURE GrowOperations;
		VAR i : SIZE;
			t : Operations;
		BEGIN
			NEW(t, nofOperations * 2);
			FOR i := 0 TO nofOperations - 1 DO t[i] := operations[i] END;
			operations := t
		END GrowOperations;

		PROCEDURE Cleanup;
		VAR i, j, p, pos : SIZE; op: INTEGER;
		BEGIN
			IF nofOperations = 0 THEN RETURN END;
			FOR i := 0 TO nofPositions - 1 DO
				p := positions[i];
				IF p >= 0 THEN
					FOR j := 0 TO nofOperations - 1 DO
						op := operations[j].op; pos := operations[j].pos;
						IF (p >= pos) & (op = Texts.OpInsert) THEN INC(p, operations[j].len)
						ELSIF (p >= pos) & (p <= pos + operations[j].len)  & (op = Texts.OpDelete) THEN p := pos
						ELSIF (p > pos) & (op = Texts.OpDelete) THEN DEC(p, operations[j].len);
						END
					END;
					IF p < 0 THEN p := 0 END;
					positions[i] := p
				END
			END;
			nofOperations := 0
		END Cleanup;

		(** Listens for text changes *)
		PROCEDURE Changed*(op : INTEGER; pos, len : SIZE);
		CONST MaxOperations = 4096;
		BEGIN
			IF nofOperations > MaxOperations THEN Cleanup END;
			IF nofOperations >=  LEN(operations) THEN GrowOperations END;
			operations[nofOperations].op := op;
			operations[nofOperations].pos := pos;
			operations[nofOperations].len := len;
			INC(nofOperations)
		END Changed;

		PROCEDURE GrowPositions;
		VAR i : SIZE;
			t : Positions;
		BEGIN
			NEW(t, nofPositions * 2);
			FOR i := 0 TO nofPositions - 1 DO t[i] := positions[i] END;
			positions := t
		END GrowPositions;

		PROCEDURE DeletePos*(index : SIZE);
		BEGIN
			positions[index] := -1;
			INC(nofDeleted)
		END DeletePos;

		PROCEDURE AddPos*(pos : SIZE) : SIZE;
		VAR i : SIZE;
		BEGIN
			ASSERT(pos >= 0);
			Cleanup;
			IF nofDeleted > 0 THEN
				i := 0; WHILE (i < nofPositions) & (positions[i] >= 0) DO INC(i) END;
				ASSERT(i < nofPositions);
				positions[i] := pos;
				DEC(nofDeleted);
				RETURN i
			ELSE
				IF nofPositions >= LEN(positions) THEN GrowPositions END;
				positions[nofPositions] := pos;
				INC(nofPositions);
				RETURN nofPositions - 1
			END
		END AddPos;

		(** throw away all positions *)
		PROCEDURE Clear*;
		BEGIN
			nofPositions := 0; nofOperations := 0
		END Clear;

		(** Returns position in elements from the text start *)
		PROCEDURE GetPos*(index : SIZE): SIZE;
		BEGIN
			Cleanup;
			RETURN positions[index]
		END GetPos;

		(** Change the position associated with index*)
		PROCEDURE SetPos*(index, pos : SIZE);
		BEGIN
			Cleanup;
			positions[index] := pos
		END SetPos;
	END TextPositionKeeper;

	OberonDecoder = OBJECT(Codecs.TextDecoder)
	VAR errors : BOOLEAN;
		in : Streams.Reader;
		text : Texts.Text;
		buffer : Strings.Buffer;
		string: Strings.String;
		reader, sreader : Streams.StringReader;

		PROCEDURE Error(CONST x : ARRAY OF CHAR);
		BEGIN
			KernelLog.String("Oberon Decoder Error: ");
			KernelLog.String(x); KernelLog.Ln;
			errors := TRUE
		END Error;

		PROCEDURE LoadLibrary(buf: Strings.Buffer; pos: SIZE; VARflen:SIGNED32);
		END LoadLibrary;

		PROCEDURE IndexToColor(index: SIGNED32): SIGNED32;
		BEGIN
			RETURN
					ASH(SIGNED32(SET32(index) * {5..7}), 23-7) +
					ASH(SIGNED32(SET32(index) * {2..4}), 15-4) +
					ASH(SIGNED32(SET32(index) * {0..1}), 7-1)
		END IndexToColor;

		PROCEDURE InsertPiece(ofs, len : SIZE; attr : Texts.Attributes);
		VAR i, j, m : SIZE; ch, last : CHAR; tempUCS32 : ARRAY 1024 OF Char32;
			oldpos : SIZE;
		BEGIN
			m := LEN(tempUCS32) - 1;
			sreader.SetPos(ofs);
			oldpos := text.GetLength();
			FOR j := 0 TO len - 1 DO
				ch := sreader.Get();
				IF i = m  THEN tempUCS32[i] := 0; text.InsertUCS32(text.GetLength(), tempUCS32); i := 0 END;
				IF (last # CR) OR (ch # LF) THEN
					IF ch = CR THEN tempUCS32[i] := ORD(LF)
					ELSE tempUCS32[i] := OberonToUni(ORD(ch))
					END;
					INC(i)
				END;
				last := ch
			END;
			tempUCS32[i] := 0; text.InsertUCS32(text.GetLength(), tempUCS32);
			IF attr # NIL THEN text.SetAttributes(oldpos, len, attr) END
		END InsertPiece;

		PROCEDURE Open*(in : Streams.Reader; VAR res : INTEGER);
		CONST DocBlockId = 0F7X; OldTextBlockId = 1X; TextBlockId = 0F0X; OldTextSpex = 0F0X; TextSpex = 1X; LibBlockId = 0DBX;
		VAR
			ch: CHAR;
			buflen: SIZE;

			attr : Texts.Attributes;
			tattr : Texts.FontInfo;
			fonts : ARRAY 256 OF Texts.FontInfo;
			col: SIGNED8;
			voff: SIGNED8;
			lib :SIGNED8;
			type, tag: CHAR;
			len, hlen, tlen, flen: SIGNED32;
			n, off: SIZE;
			tempInt, pos: Streams.Position;
			x, y, w, h: SIGNED16;
			temp: ARRAY 4096 OF CHAR;
			name, lName: ARRAY 32 OF CHAR;
			oberonColors : ARRAY 16 OF SIGNED32;
		BEGIN
			errors := FALSE;
			res := -1;
			IF in = NIL THEN Error("Input Stream is NIL"); RETURN; END;
			SELF.in := in;

			(* write stream into buffer for further processing *)
			NEW(buffer, 64 * 1024);
			REPEAT
				in.Bytes(temp, 0, 4096, buflen);
				buffer.Add(temp, 0, buflen, FALSE, res);
			UNTIL (in.res # Streams.Ok);

			(* define Oberon Colors *)
			oberonColors[0] := SIGNED32(0FFFFFFFFH); oberonColors[1] := SIGNED32(0FF0000FFH); oberonColors[2] := 000FF00FFH; oberonColors[3] := 00000FFFFH;
			oberonColors[4] := SIGNED32(0FF00FFFFH); oberonColors[5] := SIGNED32(0FFFF00FFH); oberonColors[6] := 000FFFFFFH; oberonColors[7] := SIGNED32(0AA0000FFH);
			oberonColors[8] := 000AA00FFH; oberonColors[9] := 00000AAFFH; oberonColors[10] := SIGNED32(0A6BCF3FFH); oberonColors[11] := 0008282FFH;
			oberonColors[12] := SIGNED32(08A8A8AFFH); oberonColors[13] := SIGNED32(0BEBEBEFFH); oberonColors[14] := 07B7B7BFFH; oberonColors[15] := 0000000FFH;

			NEW(text);
			text.AcquireWrite;

			string := buffer.GetString();
			NEW(reader, buffer.GetLength());
			reader.SetRaw(string^, 0, buffer.GetLength());
			ch := reader.Get();

			IF ch = DocBlockId THEN (* skip doc header *)
				reader.RawString(name); reader.RawInt(x); reader.RawInt(y); reader.RawInt(w); reader.RawInt(h);
				ch := reader.Get();
				IF ch = 0F7X THEN	(* skip meta info *)
					ch := reader.Get(); IF ch = 08X THEN reader.RawLInt(len); reader.Bytes(temp, 0, len, buflen); ch := reader.Get(); END;
				END
			END;
			pos := reader.Pos();
			IF (ch = TextBlockId) OR (ch = OldTextBlockId) THEN
				type := reader.Get();
				reader.RawLInt(hlen);

				NEW(sreader, buffer.GetLength());
				tempInt := pos - 1 + hlen - 4;
				sreader.SetRaw(string^, 0, buffer.GetLength());
				sreader.SetPos(tempInt);
				sreader.RawLInt(tlen);

				IF (type = TextSpex) OR (type = OldTextSpex) THEN (*T.obs := NIL; flen := 0 *)
				ELSE (* NEW(T.obs); Objects.OpenLibrary(T.obs); *)
					tempInt  := pos - 1 + hlen + tlen;
					sreader.SetPos(tempInt);
					tag := sreader.Get();

					IF tag = LibBlockId THEN LoadLibrary(buffer, pos(SIZE) - 1 + hlen + tlen + 1, flen) END;
					INC(flen)
				END;
				n := 1;
				off := pos(SIZE) - 1 + hlen;
				WHILE reader.Pos() < pos - 1 + hlen - 5 DO
					reader.RawSInt(lib);
					IF lib = n THEN
						reader.RawString(lName);

						NEW(fonts[n]);
						COPY(lName, fonts[n].name);
						DecodeOberonFontName(lName, fonts[n].name, fonts[n].size, fonts[n].style);
						tattr := fonts[n];
						INC(n)
					ELSE
						IF (lib >= 0) & (lib < 255) & (fonts[lib] # NIL) THEN
							tattr := fonts[lib];
						END
					END;
					reader.RawSInt(col);
					reader.RawSInt(voff); voff := - voff;
					reader.RawLInt(len);
					IF len < 0 THEN KernelLog.Enter; KernelLog.String(" LoadAscii (T, f);"); KernelLog.Int(len, 0); KernelLog.Exit; RETURN END;
					NEW(attr);
					CASE col OF
						0..15 : attr.color := oberonColors[col]
					ELSE attr.color := IndexToColor(col) * 100H + 0FFH
					END;
					attr.voff := voff;
					NEW(attr.fontInfo);
					IF tattr # NIL THEN
						COPY(tattr.name, attr.fontInfo.name);
						attr.fontInfo.style := tattr.style;
						attr.fontInfo.size := tattr.size
					END;
					IF lib > 0 THEN (* ignore objects for now *)
						InsertPiece(off, len, attr)
					END;
					off := off + len
				END;
				res := 0;
			ELSE Error("Not an Oberon File Format!");
			END;
			text.ReleaseWrite;
		END Open;

		PROCEDURE GetText*() : Texts.Text;
		BEGIN
			RETURN text;
		END GetText;

		(* map oberon to unicode *)
		PROCEDURE OberonToUni(ch : SIGNED32) : SIGNED32;
		VAR ret : SIGNED32;
		BEGIN
			CASE ch OF
				128 :	ret := 0C4H;
			|	129 :	ret:= 0D6H;
			|	130 :	ret:= 0DCH;
			|	131 :	ret:= 0E4H;
			|	132 :	ret:= 0F6H;
			|	133 :	ret:= 0FCH;
			|	134 :	ret:= 0E2H;
			|	135 :	ret:= 0EAH;
			|	136 :	ret:= 0EEH;
			|	137 :	ret:= 0F4H;
			|	138 :	ret:= 0FBH;
			|	139 :	ret:= 0E0H;
			|	140 :	ret:= 0E8H;
			|	141 :	ret:= 0ECH;
			|	142 :	ret:= 0F2H;
			|	143 :	ret:= 0F9H;
			|	144 :	ret:= 0E9H;
			|	145 :	ret:= 0EBH;
			|	146 :	ret:= 0EFH;
			|	147 :	ret:= 0E7H;
			|	148 :	ret:= 0E1H;
			|	149 :	ret:= 0F1H;
			|	150 :	ret:= 0DFH;
			|	151 :	ret:= 0A3H;
			|	152 :	ret:= 0B6H;
			|	153 :	ret:= 0C7H;
			|	154 :	ret:= 2030H;
			|	155 :	ret:= 2013H;
			ELSE
				ret := ch
			END;

			RETURN ret
		END OberonToUni;

	END OberonDecoder;

	OberonEncoder = OBJECT(Codecs.TextEncoder)
	VAR out, w: Streams.Writer;
		w2: Streams.StringWriter;
		string: Strings.String;
		buffer : Strings.Buffer;
		oberonColors : ARRAY 16 OF SIGNED32;
		fonts : ARRAY 256 OF Texts.FontInfo;
		font : Texts.FontInfo;
		nofFonts, hLen : SIGNED32;
		firstPiece : BOOLEAN;
		voff: SIGNED32;
		color : SIGNED32;

		PROCEDURE Open*(out : Streams.Writer);
		BEGIN
			IF out = NIL THEN KernelLog.String("Oberon Encoder Error: output stream is NIL");
			ELSE SELF.out := out;
			END;
		END Open;

		PROCEDURE ColorToIndex(col: SIGNED32): SIGNED32;
		BEGIN
			RETURN SIGNED32(
					SET32(ASH(col, 7-23)) * {5..7} +
					SET32(ASH(col, 4-15)) * {2..4} +
					SET32(ASH(col, 1-7)) * {0..1})
		END ColorToIndex;

		PROCEDURE GetOberonColor(color : SIGNED32):SIGNED32;
		VAR i: SIGNED32;
		BEGIN
			i := 0; WHILE i < LEN(oberonColors) DO IF oberonColors[i] = color THEN RETURN i END; INC(i) END;
			RETURN ColorToIndex(color DIV 100H)
		END GetOberonColor;

		PROCEDURE WritePiece(len: SIZE);
		VAR i: SIZE; oname : ARRAY 32 OF CHAR;
		BEGIN
			IF (font # NIL) THEN
				i := 0; WHILE (i < nofFonts)  &  (~fonts[i].IsEqual(font)) DO INC(i) END;
				IF (i = nofFonts) THEN
					IF ToOberonFont(font.name, font.size, font.style, oname) THEN
						w.RawSInt(SIGNED8(i+1));
						IF i = nofFonts THEN w.RawString(oname); fonts[nofFonts] := font; INC(nofFonts) END
					ELSE
						w.RawSInt(1);
						IF firstPiece THEN
							w.RawString("Oberon10.Scn.Fnt");
							NEW(fonts[nofFonts]);
							fonts[nofFonts].name := "Oberon"; fonts[nofFonts].size := 20(* Прибитый гвоздями шрифт *); fonts[nofFonts].style := {};
							INC(nofFonts)
						END;
					END
				ELSE w.RawSInt(SIGNED8(i+1));
				END
			ELSE
				w.RawSInt(1);
				IF firstPiece THEN
					w.RawString("Oberon10.Scn.Fnt");
					NEW(fonts[nofFonts]);
					fonts[nofFonts].name := "Oberon"; fonts[nofFonts].size := 20(* Прибитый гвоздями шрифт *); fonts[nofFonts].style := {};
					INC(nofFonts)
				END;
			END;
			firstPiece := FALSE;
			w.RawSInt(SHORT(SHORT(GetOberonColor(color))));
			w.RawSInt(SHORT(SHORT(-voff)));
			w.RawLInt(len(SIGNED32));
		END WritePiece;

		PROCEDURE WriteText*(text : Texts.Text; VAR res : INTEGER);
		CONST TextBlockId = 0F0X;
		VAR r: Texts.TextReader;
			ch :Char32;
			startPos, i, len : SIZE;
			tempInt: Streams.Position;
		BEGIN
			(* define Oberon colors *)
			oberonColors[0] := SIGNED32(0FFFFFFFFH); oberonColors[1] := SIGNED32(0FF0000FFH); oberonColors[2] := 000FF00FFH; oberonColors[3] := 00000FFFFH;
			oberonColors[4] := SIGNED32(0FF00FFFFH); oberonColors[5] := SIGNED32(0FFFF00FFH); oberonColors[6] := 000FFFFFFH; oberonColors[7] := SIGNED32(0AA0000FFH);
			oberonColors[8] := 000AA00FFH; oberonColors[9] := 00000AAFFH; oberonColors[10] := SIGNED32(0A6BCF3FFH); oberonColors[11] := 0008282FFH;
			oberonColors[12] := SIGNED32(08A8A8AFFH); oberonColors[13] := SIGNED32(0BEBEBEFFH); oberonColors[14] := 07B7B7BFFH; oberonColors[15] := 0000000FFH;

			res := -1;
			text.AcquireRead;
			firstPiece := TRUE;
			NEW(r, text);
			NEW(buffer, 1024);
			w := buffer.GetWriter();
			nofFonts := 0;

			w.Char(TextBlockId);
			w.Char(01X); (* simple text *)
			w.RawLInt(0); (* header len place holder *)
			startPos := 1; len := 0;
			REPEAT
				r.ReadCh(ch);
				IF ~r.eot & (ch >= 0) & (ch < 256) THEN
					INC(len);
					IF len < 2 THEN font := r.font; voff := r.voff; color := r.color END;
					IF (r.font # font) OR (r.voff # voff) OR (r.color # color) THEN
						WritePiece(len - startPos);
						font := r.font; voff := r.voff; color := r.color;
						startPos := len;
					END
				END
			UNTIL r.eot;
			WritePiece(len + 1 - startPos);
			w.Char(0X); (* ??? *)
			w.RawLInt(len(SIGNED32)); (* tLen ? *)
			w.Update;
			hLen := w.Pos()(SIGNED32);

			(* pure text ... *)
			r.SetPosition(0);
			FOR i := 0 TO text.GetLength() - 1 DO r.ReadCh(ch); IF ch = Texts.NewLineChar THEN ch := 0DH END;
				IF (ch >=0) & (ch < 256) THEN w.Char(CHR(UniToOberon(ch))) END
			END;

			(* fixup header length *)
			w.Update;
			string := buffer.GetString();
			NEW(w2, LEN(string));
			w2.Bytes(string^, 0, LEN(string));
			tempInt := w2.Pos();
			w2.SetPos(2);
			w2.RawLInt(hLen);
			w2.SetPos(tempInt); w2.Update;

			(* write string to output stream *)
			NEW(string, text.GetLength()+hLen);
			w2.GetRaw(string^, len);
			out.Bytes(string^, 0, len); out.Update;

			text.ReleaseRead;
			res := 0
		END WriteText;

		(* map unicode to oberon *)
		PROCEDURE UniToOberon(ch : SIGNED32) : SIGNED32;
		VAR ret : SIGNED32;
		BEGIN
			CASE ch OF
				0C4H :	 ret := 128;
			|	0D6H :	 ret := 129;
			|	0DCH :	 ret := 130;
			|	0E4H :	 ret := 131;
			|	0F6H :	 ret := 132;
			|	0FCH :	 ret := 133;
			|	0E2H :	 ret := 134;
			|	0EAH :	 ret := 135;
			|	0EEH :	 ret := 136;
			|	0F4H :	 ret := 137;
			|	0FBH :	 ret := 138;
			|	0E0H :	 ret := 139;
			|	0E8H :	 ret := 140;
			|	0ECH :	 ret := 141;
			|	0F2H :	 ret := 142;
			|	0F9H :	 ret := 143;
			|	0E9H :	 ret := 144;
			|	0EBH :	 ret := 145;
			|	0EFH :	 ret := 146;
			|	0E7H :	 ret := 147;
			|	0E1H :	 ret := 148;
			|	0F1H :	 ret := 149;
			|	0DFH :	 ret := 150;
			|	0A3H :	 ret := 151;
			|	0B6H :	 ret := 152;
			|	0C7H :	 ret := 153;
			ELSE
				IF ch = 2030H THEN ret := 154
				ELSIF ch = 2013H THEN ret := 155
				ELSE ret := ch
				END
			END;

			RETURN ret
		END UniToOberon;

	END OberonEncoder;

	BluebottleDecoder* = OBJECT(Codecs.TextDecoder)
	VAR errors : BOOLEAN;
		text : Texts.Text;
		doc : XML.Document;
		cont, tc, tc2 : XMLObjects.Enumerator; ptr : ANY; root : XML.Element; str : Strings.String;
		o : Texts.ObjectPiece; attr: Texts.Attributes; fi : Texts.FontInfo;
		stylename, pstylename: ARRAY 64 OF CHAR;
		link : Texts.Link;

		PROCEDURE Error(CONST x : ARRAY OF CHAR);
		BEGIN
			KernelLog.String("Bluebottle Decoder Error: ");
			KernelLog.String(x); KernelLog.Ln;
			errors := TRUE
		END Error;

		PROCEDURE GetUTF8Char(r : Streams.Reader; VAR u : Texts.Char32; VAR pos : SIZE) : BOOLEAN;
		VAR ch : ARRAY 8 OF CHAR; i : SIZE; codeLength : CHAR;
		BEGIN
			ch[0] := r.Get(); INC(pos);
			codeLength := UCS32.CodeLength[ORD(ch[0])];
			IF codeLength = UCS32.CodeLengthBad THEN
				codeLength := 01X END;
			FOR i := 1 TO ORD(codeLength) - 1 DO ch[i] := r.Get(); INC(pos) END;
			i := 0;
			RETURN UTF8Strings.DecodeChar(ch, i, u)
		END GetUTF8Char;

		PROCEDURE InsertPiece(charContent : XML.CDataSect);
		VAR i, m: SIZE; tpos: SIZE; res : INTEGER; ch, last : Texts.Char32; tempUCS32 : ARRAY 1024 OF Texts.Char32;
			oldpos, len : SIZE;
			r, sr : Streams.StringReader; token : ARRAY 256 OF CHAR;
			tempInt: SIGNED32;
			buffer : Strings.String;
			char : CHAR;
			cStyle : Texts.CharacterStyle;
			pStyle : Texts.ParagraphStyle;
		BEGIN
			m := LEN(tempUCS32) - 1;
			buffer := charContent.GetStr();
			NEW(r, LEN(buffer^));
			r.Set(buffer^);

			oldpos := text.GetLength();
			len := charContent.GetLength();
			tpos := 0;
			REPEAT
				IGNORE GetUTF8Char(r, ch, tpos);
				IF i = m  THEN tempUCS32[i] := 0; text.InsertUCS32(text.GetLength(), tempUCS32); i := 0 END;
				IF (last # ORD(CR)) OR (ch # ORD(LF)) THEN
					IF ch = ORD(CR) THEN tempUCS32[i] := ORD(LF)
					ELSE tempUCS32[i] := ch
					END;
					INC(i)
				END;
				last := ch;
			UNTIL (tpos >= len) OR (r.res # Streams.Ok);
			tempUCS32[i] := 0; text.InsertUCS32(text.GetLength(), tempUCS32);

			(* get style from the System *)
			cStyle := Texts.GetCharacterStyleByName(stylename);
			pStyle := Texts.GetParagraphStyleByName(pstylename);

			(* set attributes to emulate style in non-style supporting applications *)
			IF (attr = NIL) THEN NEW(attr); END;
			attr.voff := 0; attr.color := 0000000FFH; attr.bgcolor := 000000000H;
			IF (attr.fontInfo = NIL) THEN NEW(fi); attr.fontInfo := fi; END;
			attr.fontInfo.name := "Oberon"; attr.fontInfo.size := 20(* Прибитый гвоздями шрифт *); attr.fontInfo.style := {};
			IF (stylename = "Bold") THEN attr.fontInfo.style := {0};
			ELSIF (stylename = "Highlight") THEN attr.fontInfo.style := {1};
			ELSIF (stylename = "Assertion") THEN attr.fontInfo.style := {0}; attr.color := 00000FFFFH;
			ELSIF (stylename = "Debug") THEN attr.color := 00000FFFFH;
			ELSIF (stylename = "Lock") THEN attr.color := SIGNED32(0FF00FFFFH);
			ELSIF (stylename = "Stupid") THEN attr.color := SIGNED32(0FF0000FFH);
			ELSIF (stylename = "Comment") THEN attr.color := SIGNED32(0808080FFH);
			ELSIF (stylename = "Preferred") THEN attr.fontInfo.style := {0}; attr.color := SIGNED32(0800080FFH);
			ELSIF Strings.Match("AdHoc*", stylename) THEN
				NEW(sr, LEN(stylename)); sr.Set(stylename);
				sr.SkipWhitespace; sr.Token(token);												(* AdHoc *)
				sr.SkipWhitespace; sr.Token(token); COPY(token, attr.fontInfo.name); 				(* family *)
				sr.SkipWhitespace; sr.Token(token); Strings.StrToSize(token, attr.fontInfo.size);		(* size *)
				sr.SkipWhitespace; sr.Token(token); Strings.StrToInt(token, tempInt); 					(* style *)
				IF (tempInt = 0) THEN attr.fontInfo.style := {};
				ELSIF (tempInt = 1) THEN attr.fontInfo.style := {0};
				ELSIF (tempInt = 2) THEN attr.fontInfo.style := {1};
				ELSIF (tempInt = 3) THEN attr.fontInfo.style := {0,1};
				ELSE attr.fontInfo.style := {};
				END;
				sr.SkipWhitespace; sr.Token(token); Strings.StrToInt(token, attr.voff);				(* voff *)
				sr.SkipWhitespace; sr.Token(token); Strings.HexStrToInt(token, attr.color, res);		(* color *)
				sr.SkipWhitespace; sr.Token(token); Strings.HexStrToInt(token, attr.bgcolor, res);	(* bgcolor *)

				(* add Ad-Hoc style to the System in case it was not present already *)
				IF cStyle = NIL THEN
					NEW(cStyle);
					COPY(stylename, cStyle.name);
					COPY(attr.fontInfo.name, cStyle.family);
					cStyle.size := FP1616.FloatToFixp(attr.fontInfo.size);
					cStyle.style := attr.fontInfo.style;
					cStyle.baselineShift := attr.voff;
					cStyle.color := attr.color;
					cStyle.bgColor := attr.bgcolor;
					Texts.AddCharacterStyle(cStyle);
				END;
			ELSE
				(* Get the attributes from the style for compatibility *)
				IF (cStyle # NIL) THEN attr := StyleToAttribute(cStyle)
				ELSE token := "Style not present in System: "; Strings.Append(token, stylename); Error(token); END;
			END;

			text.SetAttributes(oldpos, text.GetLength()-oldpos, attr.Clone());

			(* set the style for style supporting applications *)
			text.SetCharacterStyle(oldpos, text.GetLength()-oldpos, cStyle);

			(* Get AdHoc paragraph style & add to system *)
			IF Strings.Match("AdHoc*", pstylename) & (pStyle = NIL) THEN
				NEW(pStyle);
				NEW(sr, LEN(pstylename)); sr.Set(pstylename);
				sr.SkipWhitespace; sr.Token(token); COPY(pstylename, pStyle.name);														(* AdHoc *)
				sr.SkipWhitespace; sr.Token(token); Strings.StrToInt(token, tempInt); pStyle.alignment := tempInt;							(* alignment *)
				sr.SkipWhitespace; sr.Token(token); Strings.StrToInt(token, tempInt); pStyle.firstIndent := FP1616.FloatToFixp(tempInt);		(* first Indent *)
				sr.SkipWhitespace; sr.Token(token); Strings.StrToInt(token, tempInt); pStyle.leftIndent := FP1616.FloatToFixp(tempInt);		(* left Indent *)
				sr.SkipWhitespace; sr.Token(token); Strings.StrToInt(token, tempInt); pStyle.rightIndent := FP1616.FloatToFixp(tempInt);	(* right Indent *)
				sr.SkipWhitespace; sr.Token(token); Strings.StrToInt(token, tempInt); pStyle.spaceBefore := FP1616.FloatToFixp(tempInt);	(* space above *)
				sr.SkipWhitespace; sr.Token(token); Strings.StrToInt(token, tempInt); pStyle.spaceAfter := FP1616.FloatToFixp(tempInt);		(* space below *)
				sr.SkipWhitespace; char := sr.Peek(); IF (char = "t") THEN sr.SkipBytes(1); sr.RawString(token); COPY(token, pStyle.tabStops); END; (* tabstops *)
				Texts.AddParagraphStyle(pStyle);
			END;

			(* set the paragraph style *)
			IF (pStyle # NIL) THEN text.SetParagraphStyle(oldpos, text.GetLength()-oldpos, pStyle) END;
			(* set the link *)
			text.SetLink(oldpos, text.GetLength()-oldpos, link);
		END InsertPiece;

		(* PROCEDURE InsertChar(pos : SIZE; ch : Texts.Char32);
		VAR bufUCS32 : ARRAY 2 OF Texts.Char32;
			oldpos : SIZE;
			cStyle : Texts.CharacterStyle;
			pStyle : Texts.ParagraphStyle;
		BEGIN
			bufUCS32[0] := ch; bufUCS32[1] := 0;
			oldpos := text.GetLength();
			text.InsertUCS32(pos, bufUCS32);					 (* cursor moves automagically *)

			(* get style from the System *)
			cStyle := Texts.GetCharacterStyleByName(stylename);
			pStyle := Texts.GetParagraphStyleByName(pstylename);
			(* set the character style *)
			IF (cStyle # NIL) THEN text.SetCharacterStyle(oldpos, text.GetLength()-oldpos, cStyle) END;
			(* set the paragraph style *)
			IF (pStyle # NIL) THEN text.SetParagraphStyle(oldpos, text.GetLength()-oldpos, pStyle) END;
			(* set the link *)
			IF (link # NIL) THEN text.SetLink(oldpos, text.GetLength()-oldpos, link); KernelLog.String("bonk"); END;
		END InsertChar; *)

		PROCEDURE MalformedXML(pos, line, row: Streams.Position; CONST msg: ARRAY OF CHAR);
		BEGIN
			Error(msg);
		END MalformedXML;

		PROCEDURE Open*(in : Streams.Reader; VAR res : INTEGER);
		VAR
			scanner : XMLScanner.Scanner; parser : XMLParser.Parser;
			d : XML.Document;
		BEGIN
			res := -1;
			errors := FALSE;
			IF in = NIL THEN Error("Input Stream is NIL"); RETURN; END;
			NEW(scanner, in); NEW(parser, scanner);
			parser.elemReg := Repositories.registry;
			parser.reportError := MalformedXML;
			d := parser.Parse();

			IF errors THEN RETURN END;
			OpenXML(d);
			res := 0;
		END Open;

		PROCEDURE OpenXML*(d : XML.Document);
		VAR lp : Texts.LabelPiece;
		BEGIN
			errors := FALSE;
			doc := d;
			NEW(text);
			text.AcquireWrite;

			NEW(attr);

			root := doc.GetRoot();
			cont := root.GetContents(); cont.Reset();
			WHILE cont.HasMoreElements() DO
				ptr := cont.GetNext();
				IF ptr IS XML.Element THEN
					str := ptr(XML.Element).GetName();
					IF (str # NIL) & (str^ = "Label") THEN
						str := ptr(XML.Element).GetAttributeValue("name");
						IF str # NIL THEN NEW(lp); lp.label := Strings.NewString(str^); text.InsertPiece(text.GetLength(), lp) END;
					ELSIF (str # NIL) & (str^ = "Paragraph") THEN
						tc := ptr(XML.Element).GetContents(); tc.Reset();
						str := ptr(XML.Element).GetAttributeValue("style");
						IF str # NIL THEN COPY(str^, pstylename); END;
						WHILE tc.HasMoreElements() DO
							ptr := tc.GetNext();
							IF ptr IS XML.Element THEN
								str := ptr(XML.Element).GetName();
								IF (str # NIL) & (str^ = "Label") THEN
									str := ptr(XML.Element).GetAttributeValue("name");
									IF str # NIL THEN NEW(lp); lp.label := Strings.NewString(str^); text.InsertPiece(text.GetLength(), lp) END;
								ELSIF (str # NIL) & (str^ = "Span") THEN
									tc2 := ptr(XML.Element).GetContents(); tc2.Reset();
									str := ptr(XML.Element).GetAttributeValue("style"); IF str # NIL THEN COPY(str^, stylename); END;
									str := ptr(XML.Element).GetAttributeValue("link"); IF str # NIL THEN NEW(link, LEN(str^)); COPY(str^, link^); ELSE link := NIL; END;
									WHILE tc2.HasMoreElements() DO
										ptr := tc2.GetNext();
										IF ptr IS XML.CDataSect THEN InsertPiece(ptr(XML.CDataSect)) END;
									END;
								ELSIF (str # NIL) & (str^ = "Object") THEN
									tc2 := ptr(XML.Element).GetContents(); tc2.Reset();
									IF tc2.HasMoreElements() THEN
										NEW(o); o.object := tc2.GetNext(); text.InsertPiece(text.GetLength(), o);
									END
								END
							END
						END;
						(* Insert a newline to finish paragraph *)
						(* InsertChar(text.GetLength(), Texts.NewLineChar); *)
					ELSIF (str # NIL) & (str^ = "Span") THEN
						COPY("Left", pstylename);
						tc := ptr(XML.Element).GetContents(); tc.Reset();
						str := ptr(XML.Element).GetAttributeValue("style"); IF str # NIL THEN COPY(str^, stylename); END;
						str := ptr(XML.Element).GetAttributeValue("link"); IF str # NIL THEN NEW(link, LEN(str^)); COPY(str^, link^); ELSE link := NIL; END;
						WHILE tc.HasMoreElements() DO
							ptr := tc.GetNext();
							IF ptr IS XML.CDataSect THEN InsertPiece(ptr(XML.CDataSect)) END;
						END
					ELSIF (str # NIL) & (str^ = "Object") THEN
						tc := ptr(XML.Element).GetContents(); tc.Reset();
						IF tc.HasMoreElements() THEN
							NEW(o); o.object := tc.GetNext(); text.InsertPiece(text.GetLength(), o);
						END;
					END;
				END
			END;
			text.ReleaseWrite;
		END OpenXML;

		PROCEDURE GetText*() : Texts.Text;
		BEGIN
			RETURN text;
		END GetText;

	END BluebottleDecoder;

	BluebottleEncoder = OBJECT(Codecs.TextEncoder)
	VAR out: Streams.Writer;
		ch :Texts.Char32;
		r: Texts.TextReader;
		changed, pchanged, pOpen : BOOLEAN;
		stylename, pstylename: ARRAY 256 OF CHAR;
		cStyle: Texts.CharacterStyle;
		pStyle: Texts.ParagraphStyle;
		link : Texts.Link;
	(*	hStyle: Texts.HighlightStyle;             <-- TO DO
	*)
		(* Attributes attributes *)
		family, dfFamily : ARRAY 64 OF CHAR;
		size, dfSize : SIZE;
		style, dfStyle : SIGNED32;							(* 0 = regular; 1 = bold; 2 = italic; 3 = bold-italic *)
		voff, dfVoff : SIGNED32;
		color, dfColor : SIGNED32;
		bgcolor, dfBgcolor : SIGNED32;

		(* Set the default  attribute values *)
		PROCEDURE Init;
		BEGIN
			dfFamily := "Oberon";
			dfSize := 20(* Прибитый гвоздями шрифт *);
			dfStyle := 0;
			dfVoff := 0;
			dfColor := 0000000FFH;
			dfBgcolor := 000000000H;
		END Init;

		(* extract the attributes from the current textreader *)
		PROCEDURE RetrieveAttributes;
		VAR tempstring, string: ARRAY 128 OF CHAR;
		BEGIN
			(* Get Character Style if any *)
			IF (r.cstyle # NIL) THEN
				cStyle := r.cstyle;
				COPY(cStyle.name, stylename);
				COPY(cStyle.family, family);
				size := cStyle.size;
				IF (cStyle.style = {}) THEN style := 0; ELSIF (cStyle.style = {0}) THEN style := 1; ELSIF (cStyle.style = {1}) THEN style := 2; ELSIF (cStyle.style = {0,1}) THEN style := 3; ELSE style := 0; END;
				voff := cStyle.baselineShift;
				color := cStyle.color;
				bgcolor := cStyle.bgColor;
			ELSE
				cStyle := NIL;
				(* Get attributes from char *)
				IF (r.font = NIL) THEN								(* Fix missing values *)
					family := dfFamily;
					size := dfSize;
					style := dfStyle;
				ELSE
					COPY(r.font.name, family);
					size := r.font.size;
					IF (r.font.style = {}) THEN style := 0; ELSIF (r.font.style = {0}) THEN style := 1; ELSIF (r.font.style = {1}) THEN style := 2; ELSIF (r.font.style = {0,1}) THEN style := 3; ELSE style := 0; END;
				END;
				voff := r.voff;
				color := r.color;
				bgcolor := r.bgcolor;

				(* Find appropriate style *)
				IF (color = 0000000FFH) & (style = 0) THEN stylename := "Normal"
				ELSIF (color = 0000000FFH) & (style = 1) THEN stylename := "Bold"
				ELSIF (color = 0000000FFH) & (style = 2) THEN stylename := "Highlight"
				ELSIF ((color = 00000FFFFH) OR (color = 00000AAFFH)) & (style = 1) THEN stylename := "Assertion"
				ELSIF (color = 00000FFFFH) & (style = 0) THEN stylename := "Debug"
				ELSIF (color = 0FF00FFFFH) & (style = 0) THEN stylename := "Lock"
				ELSIF (color = 0FF0000FFH) & (style = 0) THEN stylename := "Stupid"
				ELSIF ((color = 0808080FFH) OR (color = 08A8A8AFFH)) & (style = 0) THEN stylename := "Comment"
				ELSIF (color = 0800080FFH) & (style = 1) THEN stylename := "Preferred"
				ELSE
					tempstring := "AdHoc"; Strings.Append(tempstring, " ");
					Strings.Append(tempstring, family); Strings.Append(tempstring, " ");
					Strings.IntToStr(size, string); Strings.Append(tempstring, string); Strings.Append(tempstring, " ");
					Strings.IntToStr(style, string); Strings.Append(tempstring, string); Strings.Append(tempstring, " ");
					Strings.IntToStr(voff, string); Strings.Append(tempstring, string); Strings.Append(tempstring, " ");
					Strings.IntToHexStr(color,7, string); Strings.Append(tempstring, string); Strings.Append(tempstring, " ");
					Strings.IntToHexStr(bgcolor,7, string); Strings.Append(tempstring, string);
					COPY(tempstring, stylename);
					(* KernelLog.String("Writing Ad-hoc Style: "); KernelLog.String(tempstring);  KernelLog.Ln; *)
				END;
			END;
			(* Get Paragraph Style if any *)
			IF (r.pstyle # NIL) THEN
				pStyle := r.pstyle;
				COPY(pStyle.name, pstylename)
			ELSE
				pStyle := NIL;
				COPY("", pstylename)
			END;
			(* Get Link if any *)
			IF (r.link # NIL) THEN
				link := r.link;
			ELSE
				link := NIL;
			END;
		END RetrieveAttributes;

		PROCEDURE PrintAttributes;
		BEGIN
			KernelLog.String("# family: "); KernelLog.String(family);  KernelLog.Ln;
			KernelLog.String("# size: "); KernelLog.Int(size, 0);  KernelLog.Ln;
			KernelLog.String("# style: "); KernelLog.Int(style, 0);  KernelLog.Ln;
			KernelLog.String("# voff: "); KernelLog.Int(voff, 0);  KernelLog.Ln;
			KernelLog.String("# color: "); KernelLog.Hex(color, 0);  KernelLog.Ln;
			KernelLog.String("# bgcolor: "); KernelLog.Hex(bgcolor, 0);  KernelLog.Ln;
		END PrintAttributes;

		(* Return TRUE if current textreader attributes don't match the chached one *)
		PROCEDURE CompareAttributes():BOOLEAN;
		VAR tempstyle: SIGNED32;
			isEqual : BOOLEAN;
		BEGIN
			IF (link = r.link) THEN
				IF r.cstyle # NIL THEN
					isEqual := (stylename = r.cstyle.name);
					RETURN ~isEqual;
				ELSE
					IF (r.font = NIL) THEN
						isEqual := (family = dfFamily) & (size = dfSize) & (style = dfStyle) & (voff = r.voff) & (color = r.color) & (bgcolor = r.bgcolor);
					ELSE
						IF (r.font.style = {}) THEN tempstyle := 0; ELSIF (r.font.style = {0}) THEN tempstyle := 1; ELSIF (r.font.style = {1}) THEN tempstyle := 2; ELSIF (r.font.style = {0,1}) THEN tempstyle := 3; ELSE tempstyle := 0; END;
						isEqual := (family = r.font.name) & (size = r.font.size) & (style = tempstyle) & (voff = r.voff) & (color = r.color) & (bgcolor = r.bgcolor);
					END;
					RETURN ~isEqual;
				END;
			ELSE
				RETURN TRUE;
			END
		END CompareAttributes;

		(* Return TRUE if current textreader paragraphstyle doesn't match the chached one *)
		PROCEDURE CompareParagraphs(): BOOLEAN;
		VAR isEqual : BOOLEAN;
		BEGIN
			IF r.pstyle # NIL THEN
				isEqual := (pstylename = r.pstyle.name);
				RETURN ~isEqual
			ELSIF (r.pstyle = NIL) & (pStyle = NIL) THEN
				RETURN FALSE;
			ELSE
				RETURN TRUE;
			END;
		END CompareParagraphs;

		PROCEDURE WriteParagraph(CONST name : ARRAY OF CHAR);
		BEGIN
			pOpen := TRUE;
			out.String("<Paragraph ");
			out.String('style="'); out.String(name); out.String('"');
			out.String(">")
		END WriteParagraph;

		PROCEDURE CloseParagraph;
		BEGIN
			IF pOpen THEN
				out.String("</Paragraph>");
				pOpen := FALSE;
			END;
		END CloseParagraph;

		PROCEDURE WriteSpan(CONST name: ARRAY OF CHAR);
		BEGIN
			out.String("<Span ");
			out.String('style="'); out.String(name); out.String('"');
			IF link # NIL THEN
				out.String(' link="'); out.String(link^); out.String('"');
			END;
			out.String("><![CDATA[")
		END WriteSpan;

		PROCEDURE CloseSpan;
		BEGIN
			out.String("]]></Span>");
		END CloseSpan;

		PROCEDURE WriteObject(o : ANY);
		BEGIN
			out.Ln;
			out.String("<Object>");
			IF (o # NIL) & (o IS XML.Element) THEN
				o(XML.Element).Write(out, NIL, 1);
			END;
			out.String("</Object>");out.Ln;
		END WriteObject;

		PROCEDURE WriteLabel(CONST label: ARRAY OF CHAR);
		BEGIN
			out.String("<Label ");
			out.String('name="'); out.String(label); out.String('"/>');
		END WriteLabel;

		PROCEDURE Open*(out : Streams.Writer);
		BEGIN
			IF out = NIL THEN KernelLog.String("Bluebottle Encoder Error: output stream is NIL");
			ELSE SELF.out := out;
			END;
		END Open;

		PROCEDURE WriteText*(text : Texts.Text; VAR res : INTEGER);
		VAR
			buf : Strings.String; rbuf : ARRAY 4 OF CHAR;
			bytesPerChar, length, counter : SIZE;

			PROCEDURE ExpandBuf(VAR oldBuf: Strings.String; newSize: SIZE);
			VAR newBuf: Strings.String; i: SIZE;
			BEGIN
				IF LEN(oldBuf^) >= newSize THEN RETURN END;
				NEW(newBuf, newSize);
				FOR i := 0 TO LEN(oldBuf^)-1 DO
					newBuf[i] := oldBuf[i];
				END;
				oldBuf := newBuf;
			END ExpandBuf;

		BEGIN
			Init;
			res := 1;

			out.String('<?xml version="1.0" encoding="UTF-8"?>'); out.Ln;
			out.String('<?bluebottle format version="0.1" ?>'); out.Ln;
			out.String('<?xml-stylesheet type="text/xsl" href="http://bluebottle.ethz.ch/bluebottle.xsl" ?>'); out.Ln;
			out.String("<Text>"); out.Ln;
			text.AcquireRead;
			NEW(r, text);

			r.ReadCh(ch);
			IF (ch = Texts.LabelChar) THEN WriteLabel(r.object(Texts.LabelPiece).label^) END;

			RetrieveAttributes;
			(* PrintAttributes; *)

			IF (pStyle # NIL) & (pstylename # "Left") THEN WriteParagraph(pstylename) END;
			WriteSpan(stylename);

			bytesPerChar := 2;
			length := text.GetLength();
			NEW(buf, length * bytesPerChar); (* UTF8 encoded characters use up to 5 bytes *)

			counter := 0; COPY("   ", rbuf);

			WHILE ~r.eot DO

				WHILE ~UTF8Strings.EncodeChar(ch, buf^, counter) DO
					INC(bytesPerChar);
					ASSERT(bytesPerChar <= 5);
					ExpandBuf(buf, bytesPerChar * length);
				END;

				(* CDATA escape fix *)
				rbuf[0] := rbuf[1]; rbuf[1] := rbuf[2]; rbuf[2] := CHR(ch);
				IF (rbuf = "]]>") THEN
					buf[counter] := 0X;
					out.String(buf^); out.String("]]><![CDATA["); counter := 0;
					buf[counter] := CHR(ch);
				END;

				r.ReadCh(ch);

				IF ch = Texts.ObjectChar THEN
					buf[counter] := 0X; out.String(buf^); counter := 0; COPY("   ", rbuf);
					CloseSpan;
					WriteObject(r.object);

					RetrieveAttributes;
					IF ~r.eot THEN WriteSpan(stylename) END
				ELSIF ch = Texts.LabelChar THEN
					buf[counter] := 0X; out.String(buf^); counter := 0; COPY("   ", rbuf);
					CloseSpan;
					WriteLabel(r.object(Texts.LabelPiece).label^);

					RetrieveAttributes;
					IF ~r.eot THEN WriteSpan(stylename) END
				ELSE
					pchanged := CompareParagraphs();
					changed := CompareAttributes();
					IF pchanged THEN
						RetrieveAttributes;
						IF ~r.eot THEN
							buf[counter] := 0X; out.String(buf^); counter := 0; COPY("   ", rbuf);
							CloseSpan;
							CloseParagraph;
							IF (pStyle # NIL) & (pstylename # "Left") THEN WriteParagraph(pstylename) END;
							WriteSpan(stylename)
						END
					ELSIF changed THEN
						RetrieveAttributes;
						IF ~r.eot THEN
							buf[counter] := 0X; out.String(buf^); counter := 0; COPY("   ", rbuf);
							CloseSpan; WriteSpan(stylename)
						END
					END
				END
			END;

			buf[counter] := 0X;
			out.String(buf^);
			CloseSpan; out.Ln;
			CloseParagraph; out.Ln;
			out.String("</Text>"); out.Ln;
			out.Update;
			text.ReleaseRead;
			res := 0
		END WriteText;

	END BluebottleEncoder;

	UTF8Decoder = OBJECT(Codecs.TextDecoder)
	VAR errors : BOOLEAN;
		in : Streams.Reader;
		text : Texts.Text;

		PROCEDURE Error(CONST x : ARRAY OF CHAR);
		BEGIN
			KernelLog.String("UTF-8 Decoder Error: ");
			KernelLog.String(x); KernelLog.Ln;
			errors := TRUE
		END Error;

		PROCEDURE Open*(in : Streams.Reader; VAR res : INTEGER);
		VAR i, m: SIGNED32;
			tempUCS32 : ARRAY 1024 OF Char32;
			ch, last : Texts.Char32;
		BEGIN
			errors := FALSE;
			res := -1;
			IF in = NIL THEN Error("Input Stream is NIL"); RETURN; END;
			SELF.in := in;

			NEW(text);
			text.AcquireWrite;
			m := LEN(tempUCS32) - 1;
			i := 0;
			REPEAT
				IGNORE GetUTF8Char(in, ch);
				IF ch # 0 THEN
					IF i = m  THEN tempUCS32[i] := 0; text.InsertUCS32(text.GetLength(), tempUCS32); i := 0 END;
					IF (last # ORD(CR)) OR (ch # ORD(LF)) THEN
						IF ch = ORD(CR) THEN tempUCS32[i] := ORD(LF)
						ELSE tempUCS32[i] := ch
						END;
						INC(i)
					END;
					last := ch
				END
			UNTIL (in.res # Streams.Ok);
			tempUCS32[i] := 0; text.InsertUCS32(text.GetLength(), tempUCS32);

			(* Set this text explicitly to UTF, which allows it to be reformatted by the bidi formatter *)
			text.SetUTF(TRUE);
			res := 0;
			text.ReleaseWrite
		END Open;

		PROCEDURE GetText*() : Texts.Text;
		BEGIN
			RETURN text;
		END GetText;

	END UTF8Decoder;

	UTF8Encoder = OBJECT(Codecs.TextEncoder)
	VAR out: Streams.Writer;

		PROCEDURE Open*(out : Streams.Writer);
		BEGIN
			IF out = NIL THEN KernelLog.String("UTF-8 Encoder Error: output stream is NIL");
			ELSE SELF.out := out;
			END;
		END Open;

		PROCEDURE WriteText*(text : Texts.Text; VAR res : INTEGER);
		VAR r : Texts.TextReader; ch : Texts.Char32; i, p : SIZE; resstr : ARRAY 7 OF CHAR;
		BEGIN
			res := -1;
			text.AcquireRead;

			NEW(r, text);
			FOR i := 0 TO text.GetLength() - 1 DO
				r.ReadCh(ch); p := 0;
				IF (ch > 0) & UTF8Strings.EncodeChar(ch, resstr, p) THEN out.String(resstr) END
			END;
			out.Update;

			text.ReleaseRead;
			res := 0;
		END WriteText;

	END UTF8Encoder;

	ISO88591Decoder = OBJECT(Codecs.TextDecoder)
	VAR errors : BOOLEAN;
		in : Streams.Reader;
		text : Texts.Text;

		PROCEDURE Error(CONST x : ARRAY OF CHAR);
		BEGIN
			KernelLog.String("ISO8859-1 Decoder Error: ");
			KernelLog.String(x); KernelLog.Ln;
			errors := TRUE
		END Error;

		PROCEDURE Open*(in : Streams.Reader; VAR res : INTEGER);
		VAR i, m: SIGNED32;
			tempUCS32 : ARRAY 1024 OF Char32;
			ch, last : CHAR;
		BEGIN
			errors := FALSE;
			res := -1;
			IF in = NIL THEN Error("Input Stream is NIL"); RETURN; END;
			SELF.in := in;

			NEW(text);
			text.AcquireWrite;
			m := LEN(tempUCS32) - 1;
			i := 0;
			REPEAT
				in.Char(ch);
				IF i = m  THEN tempUCS32[i] := 0; text.InsertUCS32(text.GetLength(), tempUCS32); i := 0 END;
				IF (last # CR) OR (ch # LF) THEN
					IF ch = CR THEN tempUCS32[i] := ORD(LF)
					ELSE tempUCS32[i] := ORD(ch)
					END;
					INC(i)
				END;
				last := ch
			UNTIL (in.res # Streams.Ok);
			tempUCS32[i] := 0; text.InsertUCS32(text.GetLength(), tempUCS32);
			res := 0;
			text.ReleaseWrite
		END Open;

		PROCEDURE GetText*() : Texts.Text;
		BEGIN
			RETURN text;
		END GetText;

	END ISO88591Decoder;

	ISO88591Encoder = OBJECT(Codecs.TextEncoder)
	VAR out: Streams.Writer;

		PROCEDURE Open*(out : Streams.Writer);
		BEGIN
			IF out = NIL THEN KernelLog.String("ISO8859-1 Encoder Error: output stream is NIL");
			ELSE SELF.out := out;
			END;
		END Open;

		PROCEDURE WriteText*(text : Texts.Text; VAR res : INTEGER);
		VAR r : Texts.TextReader; ch : Texts.Char32; i : SIZE;
		BEGIN
			res :=  -1;
			text.AcquireRead;
			NEW(r, text);
			FOR i := 0 TO text.GetLength() - 1 DO
				r.ReadCh(ch);
				IF (ch >= 0) & (ch < 256) THEN out.Char(CHR(ch)) END
			END;
			out.Update;
			text.ReleaseRead;
			res := 0;
		END WriteText;

	END ISO88591Encoder;

	HEXDecoder = OBJECT(Codecs.TextDecoder)
	VAR errors : BOOLEAN;
		in : Streams.Reader;
		text : Texts.Text;

		PROCEDURE Error(CONST x : ARRAY OF CHAR);
		BEGIN
			KernelLog.String("HEX Decoder Error: ");
			KernelLog.String(x); KernelLog.Ln;
			errors := TRUE
		END Error;

		PROCEDURE Open*(in : Streams.Reader; VAR res : INTEGER);
		VAR i, j, m : SIZE;
			tempUCS32 : ARRAY 1057 OF Char32; (* 1025 *)
			ch : CHAR;
			byte : ARRAY 3 OF CHAR;
			attr: Texts.Attributes; fi : Texts.FontInfo;
		BEGIN
			errors := FALSE;
			res := -1;
			IF in = NIL THEN Error("Input Stream is NIL"); RETURN; END;
			SELF.in := in;

			NEW(text); NEW(attr); NEW(fi);
			fi.name := "Courier";
			fi.size := 10;
			fi.style := {};
			attr.voff := 0;
			attr.color := 0000000FFH;
			attr.bgcolor := 000000000H;
			attr.fontInfo := fi;
			text.AcquireWrite;
			m := LEN(tempUCS32) - 1;
			i := 0; j := 0;
			REPEAT
				in.Char(ch);
				IF (i = m) THEN tempUCS32[i] := 0; text.InsertUCS32(text.GetLength(), tempUCS32); i := 0 END;
				Strings.IntToHexStr(ORD(ch), 1, byte);
				tempUCS32[i] := ORD(byte[0]); INC(i);
				tempUCS32[i] := ORD(byte[1]); INC(i);
				tempUCS32[i] := ORD(TAB); INC(i);	(* formatting space *)
				INC(j);
				IF (j = 16) THEN j := 0; tempUCS32[i-1] := ORD(LF); END;
			UNTIL (in.res # Streams.Ok);
			tempUCS32[i] := 0; text.InsertUCS32(text.GetLength(), tempUCS32);
			res := 0;
			text.SetAttributes(0, text.GetLength(), attr.Clone());
			text.ReleaseWrite
		END Open;

		PROCEDURE GetText*() : Texts.Text;
		BEGIN
			RETURN text;
		END GetText;

	END HEXDecoder;

	HEXEncoder = OBJECT(Codecs.TextEncoder)
	VAR out: Streams.Writer;

		PROCEDURE Open*(out : Streams.Writer);
		BEGIN
			IF out = NIL THEN KernelLog.String("HEX Encoder Error: output stream is NIL");
			ELSE SELF.out := out;
			END;
		END Open;

		PROCEDURE WriteText*(text : Texts.Text; VAR res : INTEGER);
		VAR r : Texts.TextReader; ch : Texts.Char32; i, j: SIZE; k : INTEGER;
			byte : ARRAY 2 OF CHAR;
		BEGIN
			res :=  -1;
			text.AcquireRead;
			NEW(r, text);
			i := 0;
			FOR i := 0 TO text.GetLength() - 1 DO
				r.ReadCh(ch);
				IF ((ch >= 48) & (ch <= 57)) OR ((ch >= 65) & (ch <= 70)) OR ((ch >= 97) & (ch <= 102)) THEN
					byte[j] := CHR(ch); INC(j);
				END;
				IF (j = 2) THEN j := 0; Strings.HexStrToInt(byte, ch, k); out.Char(CHR(ch)); END;
			END;
			out.Update;

			text.ReleaseRead;
			res := 0;
		END WriteText;

	END HEXEncoder;


VAR
	unicodePropertyReader : UnicodeProperties.UnicodeTxtReader;

	oberonFontAllocatable*: PROCEDURE( CONST name: ARRAY OF CHAR ): BOOLEAN;

(* ----------------------------------------------------------------------------------- *)
(* Return true if the unicode character x should be regarded as a white-space *)
PROCEDURE IsWhiteSpace*(x : Char32; utf : BOOLEAN) : BOOLEAN;
BEGIN
	(* lazy initialization of the Unicode Property Reader *)
	IF utf & (unicodePropertyReader = NIL) THEN
		NEW(unicodePropertyReader);
	END;

	(* distinguish between utf-whitespaces and ascii-whitespaces *)
	IF utf THEN
		RETURN (x <= 32) OR
		((unicodePropertyReader # NIL) & unicodePropertyReader.IsWhiteSpaceChar(x)) OR
		(x = 0A0H) OR (x = 200BH);
	ELSE
		RETURN (x <= 32);
	END;
END IsWhiteSpace;

(* Return true if the unicode character x is alpha numeric *)
PROCEDURE IsAlphaNum*(x:Char32): BOOLEAN;
BEGIN
	IF x < UCS32.GranicaASCII THEN
		RETURN (ORD("0") <= x) & (x <= ORD("9"))
				OR (ORD("A") <= x) & (x <= ORD("Z") )
				OR (ORD("a") <= x) & (x <= ORD("z") )
	ELSE
		RETURN (UCS32.CyrillicSmallLetterA <= x) & (x <= UCS32.CyrillicSmallLetterYa) 
			OR	(UCS32.CyrillicCapitalLetterA <= x) & (x <= UCS32.CyrillicCapitalLetterYa) 
			OR (x = UCS32.CyrillicCapitalLetterIO) OR (x = UCS32.CyrillicSmallLetterIO) 
	END END IsAlphaNum;

(** Find the position of the next word start to the left *)
PROCEDURE FindPosWordLeft*(utilreader: Texts.TextReader; pos : SIZE) : SIZE;
VAR ch : Texts.Char32;
	new : SIZE;
BEGIN
	utilreader.SetPosition(pos); utilreader.SetDirection(-1);
	utilreader.ReadCh(ch);

	(* special treatment for utf-formatted texts *)
	IF ~utilreader.text.isUTF THEN
		WHILE (IsWhiteSpace(ch,FALSE) & (ch # Texts.NewLineChar)) & (~utilreader.eot) DO
			utilreader.ReadCh(ch)
		END;
		WHILE (IsAlphaNum(ch)) & (~utilreader.eot) DO
			utilreader.ReadCh(ch);
		END;
	ELSE
		WHILE IsWhiteSpace(ch,TRUE) & (ch # Texts.NewLineChar) & ~utilreader.eot DO
			utilreader.ReadCh(ch);
		END;
		WHILE ~IsWhiteSpace(ch,TRUE) & ~utilreader.eot DO
			utilreader.ReadCh(ch);
		END
	END;

	new := utilreader.GetPosition() + 1;
	IF utilreader.eot THEN
		RETURN 0
	ELSIF new = pos THEN
		RETURN new
	ELSE
		RETURN new + 1
	END
END FindPosWordLeft;

(** Find the position of the next word start to the right *)
PROCEDURE FindPosWordRight*(utilreader: Texts.TextReader; pos : SIZE) : SIZE;
VAR ch : Texts.Char32;
	new : SIZE;
BEGIN
	utilreader.SetPosition(pos); utilreader.SetDirection(1);
	utilreader.ReadCh(ch);

	(* special treatment for utf-formatted texts *)
	IF ~utilreader.text.isUTF THEN
		WHILE (IsAlphaNum(ch)) & (~utilreader.eot) DO
			utilreader.ReadCh(ch)
		END;
		WHILE (IsWhiteSpace(ch,FALSE) & (ch # Texts.NewLineChar)) & (~utilreader.eot) DO
			utilreader.ReadCh(ch)
		END;
	ELSE
		WHILE ~IsWhiteSpace(ch,TRUE) & ~utilreader.eot DO
			utilreader.ReadCh(ch);
		END;
		WHILE IsWhiteSpace(ch,TRUE) & (ch # Texts.NewLineChar) & ~utilreader.eot DO
			utilreader.ReadCh(ch);
		END;
	END;

	new := utilreader.GetPosition()-1;
	IF utilreader.eot THEN
		RETURN utilreader.text.GetLength()
	ELSIF new = pos THEN
		RETURN new+1
	ELSE
		RETURN new
	END
END FindPosWordRight;

(* rearch left until the first NewLineChar is encountered. Return the position of the following character *)
PROCEDURE FindPosLineStart* (utilreader: Texts.TextReader; pos: SIZE): SIZE;
VAR ch : Texts.Char32;
BEGIN
	utilreader.SetPosition(pos - 1);
	utilreader.SetDirection(-1);
	utilreader.ReadCh(ch);
	WHILE (ch # Texts.NewLineChar) & (~utilreader.eot) DO utilreader.ReadCh(ch) END;
	IF utilreader.eot THEN RETURN 0
	ELSE RETURN utilreader.GetPosition() + 2
	END
END FindPosLineStart;

(** Search right in the text until the first non whitespace is encountered. Return the number of whitespace characters *)
PROCEDURE CountWhitespace* (utilreader: Texts.TextReader; pos: SIZE): SIZE;
VAR ch : Texts.Char32;
	count : SIZE;
BEGIN
	utilreader.SetPosition(pos);
	utilreader.SetDirection(1);
	utilreader.ReadCh(ch);
	count := 0;
	WHILE (IsWhiteSpace(ch,utilreader.text.isUTF)) & (ch # Texts.NewLineChar) & (~utilreader.eot) DO
		INC(count);
		utilreader.ReadCh(ch)
	END;
	RETURN count
END CountWhitespace;

PROCEDURE LoadAutoUCS32*(text: Text; CONST fileName: UCS32.StringJQ; VAR format: SIGNED32; VAR res: INTEGER);
VAR fileNameUTF8 : POINTER TO ARRAY OF CHAR;
BEGIN
	fileNameUTF8 := UCS32.JQvNovU8(fileName);
	LoadAuto(text, fileNameUTF8^, format, res) END LoadAutoUCS32;



(** Procedure to load File without explicit given Format - appropriate Format will be chosen automaticaly *)
PROCEDURE LoadAuto*(text: Text; CONST fileName: ARRAY OF CHAR; VAR format: SIGNED32; VAR res: INTEGER);
VAR f : Files.File; re : Files.Reader; ri: Files.Rider; ch: CHAR; fstring: ARRAY 64 OF CHAR; i: SIGNED32;
BEGIN
	(* KernelLog.String("Auto Format.... "); KernelLog.Ln; *)
	text.AcquireWrite;
	res := -1; format := -1;
	f := Files.Old(fileName);
	IF f # NIL THEN
		Files.OpenReader(re, f, 0);
		f.Set(ri, 0);
		f.Read(ri, ch); i := ORD(ch);
		IF (i = 0F0H) OR (i = 0F7H) OR (i = 01H) THEN				(* Oberon File Format *)
			format := 0;
		ELSIF (i = 03CH) THEN										(* possibly an XML, check further *)
			(* check IF just an XML or BB Format *)
			f.Set(ri, 0);
			Files.ReadString(ri, fstring);
			Strings.UpperCase(fstring);
			IF Strings.Match("<?XML VERSION=*", fstring) THEN
				IF Strings.Match("*<?BLUEBOTTLE FORMAT*", fstring) THEN
					format := 1;										(* Bluebottle File Format *)
				ELSE
					format := 2;										(* XML - treat as UTF-8 *)
				END;
			ELSE
				format := 2;											(* Text/Other - treat as UTF-8 *)
			END;
		ELSE														(* Neither Oberon nor XML/BB *)
			format := 2;
		END;
	END;
	text.ReleaseWrite;
	(* call correct loader *)
	CASE format OF
	| 0:	LoadOberonText(text, fileName, res);
	| 1: LoadText(text, fileName, res);
	| 2: LoadUTF8(text, fileName, res);
	ELSE
		LoadUTF8(text, fileName, res)
	END
END LoadAuto;

(** Procedure to get decoder for the given file - appropriate Format will be chosen automaticaly.
  См также DecodeAutoJQ *)
PROCEDURE DecodeAuto*( CONST fileName: ARRAY OF CHAR; VAR format: ARRAY OF CHAR): Codecs.TextDecoder;
VAR reader : Streams.Reader; decoder : Codecs.TextDecoder; fstring : ARRAY 64 OF CHAR; i : SIGNED32;
BEGIN
	reader := Codecs.OpenInputStream(fileName);
	IF (reader # NIL) THEN
		reader.LnEOT(fstring);
		i := ORD(fstring[0]);
		IF (i = 0F0H) OR (i = 0F7H) OR (i = 01H) THEN
			COPY("Oberon", format); (* Oberon File Format *)
		ELSIF (i = 03CH) THEN
			(* possibly an XML, check further,  check IF just an XML or BB Format *)
			Strings.UpperCase(fstring);
			IF Strings.Match("<?XML VERSION=*", fstring) THEN
				reader.LnEOT(fstring);
				Strings.UpperCase(fstring);
				IF Strings.Match("<?BLUEBOTTLE FORMAT*", fstring) THEN
					COPY("BBT", format); (* Bluebottle File Format *)
				ELSE
					COPY("UTF-8", format); (* XML - treat as UTF-8 *)
				END;
			ELSE
				COPY("UTF-8", format); (* Text/Other - treat as UTF-8 *)
			END;
		ELSE
			COPY("UTF-8", format); (* Neither Oberon nor XML/BB *)
		END;
	ELSE
		COPY("", format); (* Could not open input stream *)
	END;
	decoder := Codecs.GetTextDecoder(format);
	RETURN decoder;
END DecodeAuto;


(** Procedure to get decoder for the given file - appropriate Format will be chosen automaticaly *)
PROCEDURE DecodeAutoJQ*( CONST fileName: UCS32.StringJQ; VAR format: UCS32.StringJQ): Codecs.TextDecoder;
VAR formatA : POINTER TO ARRAY OF CHAR; rez : Codecs.TextDecoder;
BEGIN
	NEW(formatA, LEN(format)*6);
	rez := DecodeAuto(UCS32.JQvNovU8(fileName)^, formatA^);
	UCS32.COPYU8vJQ(formatA^, format);
	RETURN rez END DecodeAutoJQ;


(** Load text using codecs *)
PROCEDURE Load*(text : Text; CONST filename, format : ARRAY OF CHAR; VAR res : INTEGER);
VAR decoder : Codecs.TextDecoder; in: Streams.Reader; t : Text;
BEGIN
	ASSERT(text # NIL);
	decoder := Codecs.GetTextDecoder(format);
	IF (decoder # NIL) THEN
		in := Codecs.OpenInputStream(filename);
		IF ( in # NIL) THEN
			decoder.Open(in, res);
			IF (res = Ok) THEN
				t := decoder.GetText();
				t.AcquireRead;
				text.AcquireWrite;
				text.CopyFromText(t, 0, t.GetLength(), 0);
				text.ReleaseWrite;
				t.ReleaseRead;
			END;
		ELSE
			res := FileNotFound;
		END;
	ELSE
		res := CodecNotFound;
	END;
END Load;

(** Import text in ASCII format. *)
PROCEDURE LoadAscii*(text : Text; CONST filename : ARRAY OF CHAR; VAR res : INTEGER);
BEGIN
	Load(text, filename, "ISO8859-1", res)
END LoadAscii;

(** Import text in UTF8 format. *)
PROCEDURE LoadUTF8*(text : Text; CONST filename : ARRAY OF CHAR; VAR res : INTEGER);
BEGIN
	Load(text, filename, "UTF-8", res)
END LoadUTF8;

(** import text in UCS16 format *)
PROCEDURE LoadUCS16*(text : Text; CONST filename : ARRAY OF CHAR; VAR res : INTEGER);
VAR f : Files.File; r : Files.Reader;
	 i, m  : SIGNED32;
	tempUCS32 : ARRAY 1024 OF Char32;
	ch, last : Char32; tc1, tc2 : CHAR;
BEGIN
	text.AcquireWrite;
	res := -1;
	f := Files.Old(filename);
	IF f # NIL THEN
		m := LEN(tempUCS32) - 1;
		Files.OpenReader(r, f, 0);
		i := 0;
		REPEAT
			r.Char(tc1); r.Char(tc2); ch := ORD(tc1) * 256 + ORD(tc2);
			IF i = m  THEN tempUCS32[i] := 0; text.InsertUCS32(text.GetLength(), tempUCS32); i := 0 END;
			IF (last # ORD(CR)) OR (ch # ORD(LF)) THEN
				IF ch = ORD(CR) THEN tempUCS32[i] := ORD(LF)
				ELSE tempUCS32[i] := ch
				END;
				INC(i)
			END;
			last := ch
		UNTIL (r.res # Streams.Ok);
		tempUCS32[i] := 0; text.InsertUCS32(text.GetLength(), tempUCS32);
		res := Ok;
	ELSE
		res := FileNotFound;
	END;
	text.ReleaseWrite;
END LoadUCS16;

(** Import an Oberon Text *)
PROCEDURE LoadOberonText*(text: Text; CONST fileName: ARRAY OF CHAR; VAR res: INTEGER);
BEGIN
	Load(text, fileName, "Oberon", res)
END LoadOberonText;

(** Import a BBT Text *)
PROCEDURE LoadText*(text : Texts.Text; CONST filename : ARRAY OF CHAR; VAR res : INTEGER);
BEGIN
	Load(text, filename, "BBT", res)
END LoadText;

(** store text using codecs *)
PROCEDURE Store*(text : Text; CONST filename, format : ARRAY OF CHAR; VAR res : INTEGER);
VAR file : Files.File; w : Files.Writer; encoder : Codecs.TextEncoder;
BEGIN
	ASSERT(text # NIL);
	encoder := Codecs.GetTextEncoder(format);
	IF (encoder # NIL) THEN
		file := Files.New(filename);
		IF (file # NIL) THEN
			NEW(w, file, 0);
			text.AcquireRead;
			encoder.Open(w);
			encoder.WriteText(text, res);
			text.ReleaseRead;
			IF (res = Ok) THEN
				Files.Register(file); file.Update;
			END;
		ELSE
			res := FileCreationError;
		END;
	ELSE
		res := CodecNotFound;
	END;
END Store;

(** Export text in ASCII format. Objects, attributes and characters > CHR(128) are lost *)
PROCEDURE ExportAscii*(text : Text; CONST fileName : ARRAY OF CHAR; VAR res : INTEGER);
BEGIN
	Store(text, fileName, "ISO8859-1", res)
END ExportAscii;

(** Export text in UTF8 format Objects and attributes are lost *)
PROCEDURE ExportUTF8*(text : Text; CONST fileName : ARRAY OF CHAR; VAR res : INTEGER);
BEGIN
	Store(text, fileName, "UTF-8", res)
END ExportUTF8;

(** Export text in Oberon format Objects are lost *)
PROCEDURE StoreOberonText*(text : Text; CONST fileName: ARRAY OF CHAR; VAR res : INTEGER);
BEGIN
	Store(text, fileName, "Oberon", res)
END StoreOberonText;

(** Export text in Bluebottle format *)
PROCEDURE StoreText*(text : Texts.Text; CONST fileName : ARRAY OF CHAR; VAR res : INTEGER);
BEGIN
	Store(text, fileName, "BBT", res)
END StoreText;

(** Text to UTF8 string. Objects and attributes are lost. The String is truncated if buffer is too small *)
PROCEDURE TextToStr*(text : Text; VAR string : ARRAY OF CHAR);
VAR i, l, pos : SIZE; r : Texts.TextReader; ch : Texts.Char32; ok : BOOLEAN;
BEGIN
	text.AcquireRead;
	COPY("", string);
	NEW(r, text);
	i := 0; l := text.GetLength(); pos := 0; ok := TRUE;
	WHILE (i < l) & ok DO
		r.ReadCh(ch);
		IF (ch > 0) THEN ok := UTF8Strings.EncodeChar(ch, string, pos) END;
		INC(i)
	END;
	text.ReleaseRead
END TextToStr;


(** Text to UTF8 string. Objects and attributes are lost. The String is truncated if buffer is too small *)
PROCEDURE TextToStringJQ*(text : Text; VAR string : UCS32.StringJQ);
VAR i, l, pos : SIZE; r : Texts.TextReader; ch : Texts.Char32; 
BEGIN
	text.AcquireRead;
	UCS32.COPYU8vJQ("", string);
	NEW(r, text);
	i := 0; l := MIN(text.GetLength(),LEN(string)-1); pos := 0;
	LOOP
		IF i >= l THEN EXIT END;
		r.ReadCh(ch);
		string[pos] := UCS32.IntToCharJQ(ch);
		IF ch = UCS32.KodEot THEN EXIT END;		
		INC(pos);
		INC(i)
	END;
	string[LEN(string)-1] := UCS32.IntToCharJQ(UCS32.KodEot);
	text.ReleaseRead
END TextToStringJQ;


(** 	Write <length> characters starting at <start> to stream <w>. Objects and attributes are lost
	Caller MUST HOLD lock!!! *)
PROCEDURE SubTextToStream*(text : Text; start, length : SIZE; w : Streams.Writer);
VAR r : Texts.TextReader; ok : BOOLEAN; ch : Texts.Char32; buffer : ARRAY 6 OF CHAR; i : SIZE;
BEGIN
	ASSERT((text # NIL) & (text.HasReadLock()));
	ASSERT((0 <= start) & (length >= 0) & (start + length <= text.GetLength()));
	ASSERT(w # NIL);
	IF (length > 0) THEN
		NEW(r, text);
		r.SetPosition(start);
		ok := TRUE;
		r.ReadCh(ch);
		WHILE (length > 0) & (w.res = Streams.Ok) DO
			ASSERT(ch # 0); (* we already checked start + length <= text.GetLength()) *)
			i := 0;
			ok := UTF8Strings.EncodeChar(ch, buffer, i);
			ASSERT(ok & (i < LEN(buffer))); (* buffer is always large enough *)
			buffer[i] := 0X;
			w.String(buffer);
			r.ReadCh(ch); (* we may read past start + length / end-of-text *)
			DEC(length);
		END;
	END;
END SubTextToStream;

(** Text to stream as UTF-8. Objects and attributes are lost. *)
PROCEDURE TextToStream*(text : Text; w : Streams.Writer);
VAR length : SIZE;
BEGIN
	ASSERT((text # NIL) & (w # NIL));
	text.AcquireRead;
	length := text.GetLength();
	IF (length > 0) THEN
		SubTextToStream(text, 0, length, w);
	END;
	text.ReleaseRead;
END TextToStream;

(** Text to UTF8 string. Objects and attributes are lost. The String is truncated if buffer is too small *)
PROCEDURE SubTextToStrAt*(text : Text; startPos, len : SIZE; VAR index : SIZE; VAR string : ARRAY OF CHAR);
VAR i, length, pos : SIZE; r : Texts.TextReader; ch : Texts.Char32; ok : BOOLEAN;
BEGIN
	ASSERT((0 <= index) & (index < LEN(string)));
	text.AcquireRead;
	string[index] := 0X;
	NEW(r, text);
	r.SetPosition(startPos);
	i := 0; length := len; pos := index; ok := TRUE;
	WHILE (i < length) & ok DO
		r.ReadCh(ch);
		IF (ch > 0) THEN ok := UTF8Strings.EncodeChar(ch, string, pos) END;
		INC(i);
	END;
	IF (pos < LEN(string)) THEN
		index := pos;
	ELSE
		index := LEN(string)-1;
		string[index] := 0X;
	END;
	text.ReleaseRead;
	ASSERT((0 <= index) & (index < LEN(string)));
END SubTextToStrAt;


(** Text to UCS32 string. Objects and attributes are lost. The String is truncated if buffer is too small *)
PROCEDURE SubTextToStringJQAt*(text : Text; startPos, len : SIZE; VAR index : SIZE; VAR string : UCS32.StringJQ);
VAR i, length, pos : SIZE; r : Texts.TextReader; ch : Texts.Char32; 
BEGIN
	ASSERT((0 <= index) & (index < LEN(string)));
	text.AcquireRead;
	string[index] := UCS32.IntToCharJQ(UCS32.KodEot);
	NEW(r, text);
	r.SetPosition(startPos);
	i := 0; length := len; pos := index;
	WHILE (i < length) DO
		r.ReadCh(ch);
		IF (ch > 0) THEN string[pos] := UCS32.IntToCharJQ(ch) END;
		INC(i); INC(pos);
	END;
	IF (pos < LEN(string)) THEN
		index := pos;
	ELSE
		index := LEN(string)-1;
		string[index] := UCS32.IntToCharJQ(UCS32.KodEot);
	END;
	text.ReleaseRead;
	ASSERT((0 <= index) & (index < LEN(string)));
END SubTextToStringJQAt;


(** Text to UTF8 string. Objects and attributes are lost. The String is truncated if buffer is too small *)
PROCEDURE SubTextToStr*(text : Text; startPos, len : SIZE; VAR string : ARRAY OF CHAR);
VAR index : SIZE;
BEGIN
	index := 0;
	SubTextToStrAt(text, startPos, len, index, string);
END SubTextToStr;


(** Text to UTF8 string. Objects and attributes are lost. The String is truncated if buffer is too small *)
PROCEDURE SubTextToStringJQ*(text : Text; startPos, len : SIZE; VAR string : UCS32.StringJQ);
VAR index : SIZE;
BEGIN
	index := 0;
	SubTextToStringJQAt(text, startPos, len, index, string);
END SubTextToStringJQ;


(** insert utf8 string into text. См. также StringJQToText *)
PROCEDURE StrToText*(text : Text; pos : SIZE; CONST string : ARRAY OF CHAR);
VAR r : Streams.StringReader;
	i, m: SIGNED32;
	tempUCS32 : ARRAY 1024 OF Char32;
	ch, last : Texts.Char32;
BEGIN
	text.AcquireWrite;
	NEW(r, LEN(string));
	m := LEN(tempUCS32) - 1;
	r.Set(string);
	i := 0;
	REPEAT
		IGNORE GetUTF8Char(r, ch);
		IF i = m THEN tempUCS32[i] := 0; text.InsertUCS32(pos, tempUCS32); INC(pos, m); i := 0 END;
		IF (last # ORD(CR)) OR (ch # ORD(LF)) THEN
			IF ch = ORD(CR) THEN tempUCS32[i] := ORD(LF)
			ELSE tempUCS32[i] := ch
			END;
			INC(i)
		END;
		last := ch
	UNTIL (r.res # Streams.Ok);
	tempUCS32[i] := 0; text.InsertUCS32(pos, tempUCS32);
	text.ReleaseWrite
END StrToText;


(** insert utf8 string into text. См. также StrToText *)
PROCEDURE StringJQToText*(text : Text; pos : SIZE; CONST string : UCS32.StringJQ);
VAR r : Streams.StringReader;
	i, m: SIGNED32;
	tempUCS32 : ARRAY 1024 OF Char32;
	ch, last : Texts.Char32;
BEGIN
	text.AcquireWrite;
	NEW(r, LEN(string)*6);
	m := LEN(tempUCS32) - 1;
	r.Set(UCS32.JQvNovU8(string)^);
	i := 0;
	REPEAT
		IGNORE GetUTF8Char(r, ch);
		IF i = m THEN tempUCS32[i] := 0; text.InsertUCS32(pos, tempUCS32); INC(pos, m); i := 0 END;
		IF (last # ORD(CR)) OR (ch # ORD(LF)) THEN
			IF ch = ORD(CR) THEN tempUCS32[i] := ORD(LF)
			ELSE tempUCS32[i] := ch
			END;
			INC(i)
		END;
		last := ch
	UNTIL (r.res # Streams.Ok);
	tempUCS32[i] := 0; text.InsertUCS32(pos, tempUCS32);
	text.ReleaseWrite
END StringJQToText;


PROCEDURE IsDigit( ch: CHAR ): BOOLEAN;
BEGIN
	RETURN (ch >= '0') & (ch <= '9')
END IsDigit;

PROCEDURE DecodeOberonFontName(CONST name : ARRAY OF CHAR; VAR fn : ARRAY OF CHAR; VAR size : SIZE; VAR style : SET);
VAR i, j: SIZE; sizeStr : ARRAY 8 OF CHAR;
BEGIN
	(* first name in oberon font names is capital, all following are non-capital *)
	fn[0] := name[0];
	i := 1; WHILE ~IsDigit(name[i]) DO  fn[i] := name[i];  INC(i)  END;  fn[i] := 0X;
	(* read the size *)
	j := 0; WHILE IsDigit(name[i]) DO  sizeStr[j] := name[i];  INC(j); INC(i)  END;  sizeStr[j] := 0X;
	Strings.StrToSize(sizeStr, size);
	style := {};
	CASE CAP(name[i]) OF
		| "I" : INCL(style, WMGraphics.FontItalic);
		| "B" : INCL(style, WMGraphics.FontBold);
	ELSE
	END
END DecodeOberonFontName;

PROCEDURE ToOberonFont(CONST name : ARRAY OF CHAR; size : SIZE; style : SET; VAR oname : ARRAY OF CHAR) : BOOLEAN;
VAR str : ARRAY 32 OF CHAR; f: Files.File;
BEGIN
	COPY(name, oname);
	Strings.IntToStr(size, str); Strings.Append(oname, str);
	IF WMGraphics.FontBold IN style THEN Strings.Append(oname, "b") END;
	IF WMGraphics.FontItalic IN style THEN Strings.Append(oname, "i") END;
	Strings.Append(oname, ".Scn.Fnt");
	f := Files.Old(oname);
	IF f # NIL THEN  RETURN TRUE
	ELSE
		IF oberonFontAllocatable # NIL THEN
			RETURN oberonFontAllocatable(oname)
		END;
		RETURN FALSE
	END
END ToOberonFont;

(* Ehto slomaetsja na krivom UTF-8 *)
PROCEDURE GetUTF8Char*(r : Streams.Reader; VAR u : Texts.Char32) : BOOLEAN;
VAR ch : ARRAY 8 OF CHAR; i : SIZE; codeLength : CHAR;
BEGIN
	ch[0] := r.Get();
	codeLength := UCS32.CodeLength[ORD(ch[0])];
	IF codeLength = UCS32.CodeLengthBad THEN
		codeLength := 01X END;
	FOR i := 1 TO ORD(codeLength) - 1 DO ch[i] := r.Get() END;
	i := 0;
	RETURN UTF8Strings.DecodeChar(ch, i, u)
END GetUTF8Char;

PROCEDURE WriteUTF8Char*(w : Streams.Writer; ch : Char32);
VAR str : ARRAY 8 OF CHAR; i : SIZE;
BEGIN
	i := 0; IF UTF8Strings.EncodeChar(ch, str, i) THEN w.Bytes(str, 0, i) END
END WriteUTF8Char;

(* Style to Attribute Converter *)
PROCEDURE StyleToAttribute*(style: Texts.CharacterStyle): Texts.Attributes;
VAR attr: Texts.Attributes; fi: Texts.FontInfo;
BEGIN
	IF (style = NIL) THEN RETURN NIL END;
	NEW(attr); NEW(fi);
	COPY(style.family, fi.name);
	fi.size := ENTIER(FP1616.FixpToFloat(style.size));
	fi.style := style.style;
	attr.color := style.color;
	attr.bgcolor := style.bgColor;
	attr.voff := ENTIER(FP1616.FixpToFloat(style.baselineShift));
	attr.fontInfo := fi;
	RETURN attr
END StyleToAttribute;

(* Attribute To Style Converter, creates style with given name *)
PROCEDURE AttributeToStyle*(CONST name: ARRAY OF CHAR; attr: Texts.Attributes): Texts.CharacterStyle;
VAR style: Texts.CharacterStyle;
BEGIN
	NEW(style);
	COPY(name, style.name);
	IF attr.fontInfo # NIL THEN
		COPY(attr.fontInfo.name, style.family);
		style.size := FP1616.FloatToFixp(attr.fontInfo.size*1.0);
		style.style := attr.fontInfo.style;
	ELSE
		COPY("Oberon", style.family);
		style.size := FP1616.FloatToFixp(20.0(* Прибитый гвоздями шрифт *));
		style.style := {};
	END;
	style.color := attr.color;
	style.bgColor := attr.bgcolor;
	style.baselineShift := attr.voff;
	RETURN style
END AttributeToStyle;

(**
 *	-- Bluebottle File Format --
 *	Convert Procedure version:	0.1
 *	Usage: Convert file1.Mod file2.Mod ... fileN.Mod~
*)
PROCEDURE Convert*(context : Commands.Context);
VAR filename : Files.FileName;
BEGIN
	context.out.String("-- Oberon To Bluebottle File Converter v0.1 --"); context.out.Ln;
	WHILE context.arg.GetString(filename) DO
		ConvertFile(filename, context);
	END;
	context.out.String("-- all done --"); context.out.Ln;
END Convert;

PROCEDURE ConvertAll*(context : Commands.Context);
VAR enumerator : Files.Enumerator;
	filename : Files.FileName; flags : SET; time, date : SIGNED32; size: Files.Size;
BEGIN
	NEW(enumerator);
	enumerator.Open("", {});
	context.out.String("-- Oberon To Bluebottle File Converter v0.1 --"); context.out.Ln;
	WHILE enumerator.HasMoreEntries() DO
		IF enumerator.GetEntry(filename, flags, time, date, size) THEN
			IF Strings.Match("*.Mod", filename) THEN
				ConvertFile(filename, context);
			END;
		END;
	END;
	context.out.String("-- all done --"); context.out.Ln;
	enumerator.Close;
END ConvertAll;

(* Converts the file with the given name into bb file format *)
PROCEDURE ConvertFile(CONST file: ARRAY OF CHAR; context : Commands.Context);
VAR ext, ext2: ARRAY 16 OF CHAR; file2 : ARRAY 256 OF CHAR;
	text : Texts.Text; res : INTEGER;
BEGIN
	ext2 := "mod"; (* extension for the converted files *)
	Strings.GetExtension(file, file2, ext);
	Strings.Append(file2, "."); Strings.Append(file2, ext2);
	(* check if file is Module *)
	IF (ext = "Mod") THEN
		NEW(text);
		context.out.String("Converting: "); context.out.String(file);
		(* read Oberon Format file *)
		text.AcquireWrite;
		LoadOberonText(text, file, res);
		text.ReleaseWrite;
		IF (res = 0) THEN
			(* write Bluebottle Format File *)
			text.AcquireRead;
			StoreText(text, file2, res);
			text.ReleaseRead;
			IF (res # 0) THEN
				context.error.String("Converter ERROR: Something went wrong... "); context.error.Ln;
			ELSE
				context.out.String("                 done"); context.out.Ln;
			END;
		ELSE
			context.error.String("Converter ERROR: Couldn't load Oberon File: "); context.error.String(file); context.error.Ln;
		END;
	ELSE
		context.error.String("Converter ERROR: Wrong Extension: "); context.error.String(file); context.error.Ln;
	END;
END ConvertFile;

(* ------------------------------------------------------------------------- *)

PROCEDURE SkipLine(utilreader: Texts.TextReader; pos: SIZE): SIZE;
VAR ch : Texts.Char32;
BEGIN
	utilreader.SetPosition(pos );
	utilreader.SetDirection(1);
	utilreader.ReadCh(ch);
	WHILE (ch # Texts.NewLineChar) & (~utilreader.eot) DO utilreader.ReadCh(ch) END;
	RETURN utilreader.GetPosition()
END SkipLine;

PROCEDURE IndentText*(text : Texts.Text; from, to : SIZE; minus : BOOLEAN);
VAR r : Texts.TextReader;
	p, pto : Texts.TextPosition;
	tab : ARRAY 2 OF Texts.Char32;
	c : Texts.Char32;
BEGIN
	tab[0] := Texts.TabChar; tab[1] := 0;
	text.AcquireWrite;
	NEW(r, text); NEW(p, text); NEW(pto, text);
	pto.SetPosition(to);
	p.SetPosition(from);
	WHILE p.GetPosition() < pto.GetPosition() DO
		p.SetPosition(FindPosLineStart(r, p.GetPosition()));
		IF minus THEN
			r.SetPosition(p.GetPosition()); r.SetDirection(1);
			r.ReadCh(c);
			IF c = Texts.TabChar THEN
				text.Delete(p.GetPosition(), 1)
			END
		ELSIF SkipLine(r, p.GetPosition()) > p.GetPosition() + 1 THEN
			text.InsertUCS32(p.GetPosition(), tab);
		END;
		p.SetPosition(SkipLine(r, p.GetPosition()))
	END;
	text.ReleaseWrite
END IndentText;

PROCEDURE UCS32StrLength*(CONST string: ARRAY OF Char32): SIZE;
VAR len: SIZE;
BEGIN
	len := 0; WHILE (string[len] # 0) DO INC(len) END;
	RETURN len
END UCS32StrLength;

(** returns the position of the first occurrence of pattern (ucs32) in the text or -1 if no occurrence is found *)
(* Rabin-Karp algorithm, adopted from Sedgewick *)
(* efficiency could be improved by not seeking so much *)
PROCEDURE Pos*(CONST pattern: ARRAY OF Char32; from : SIZE; text : Text): SIZE;
CONST
	q = 8204957;	(* prime number, {(d+1) * q <= MAX(SIGNED32)} *)
	d = 256;			(* number of different characters *)
VAR h1, h2, dM: SIGNED32; i, j, m, n: SIZE; ch : Char32; found : BOOLEAN; r : Texts.TextReader;
BEGIN (* caller must hold read lock on text *)
	m := UCS32StrLength(pattern); n := text.GetLength();
	IF (from + m > n) THEN RETURN -1 END;

	NEW(r, text);  r.SetPosition(from);

	dM := 1; FOR i := 0 TO m-2 DO dM := (d*dM) MOD q END;
	h1 := 0; FOR i := 0 TO m-1 DO h1 := (h1*d + (pattern[i] MOD d)) MOD q END;
	h2 := 0; FOR i := 0 TO m-1 DO r.ReadCh(ch); ch := ch MOD d; h2 := (h2*d + ch) MOD q END;
	i := from; found := FALSE;

	IF (h1 = h2) THEN (* verify *)
		j := 0; r.SetPosition(i); found := TRUE;
		WHILE (j < m) DO
			r.ReadCh(ch);
			IF (ch # pattern[j]) THEN found := FALSE; j := m; END; (* hash values are equal, but strings are not *)
			INC(j);
		END;
	END;

	WHILE ~found & (i < n-m) DO
		r.SetPosition(i); r.ReadCh(ch); ch := ch MOD d; h2 := (h2 + d*q - ch*dM) MOD q;
		r.SetPosition(i + m); r.ReadCh(ch); ch := ch MOD d; h2 := (h2*d + ch) MOD q;
		INC(i);

		IF (h1 = h2) THEN (* verify *)
			j := 0; r.SetPosition(i); found := TRUE;
			WHILE (j < m) DO
				r.ReadCh(ch);
				IF (ch # pattern[j]) THEN found := FALSE; j := m; END; (* hash values are equal, but strings are not *)
				INC(j);
			END;
		END;
	END;

	IF found THEN RETURN i
	ELSE RETURN -1
	END
END Pos;

PROCEDURE UpperCaseChar32*(VAR ch : Texts.Char32);
BEGIN
	(* SIGNED32 version of IF (ch >= "a") & (ch <= "z") THEN CAP(ch); END; *)
	IF (ch >= 61H) & (ch <= 7AH) THEN ch := ch - 32; END;
END UpperCaseChar32;

(* Compare the pattern string of length 'length' with the string at the current position/direction of the text reader 'r' *)
PROCEDURE Equals(CONST pattern : ARRAY OF Char32; r : Texts.TextReader; length : SIZE; ignoreCase : BOOLEAN) : BOOLEAN;
VAR ch, chp : Texts.Char32; equals : BOOLEAN; i : SIZE;
BEGIN
	i := 0; equals := TRUE;
	WHILE (i < length) DO
		r.ReadCh(ch); chp := pattern[i];
		IF ignoreCase THEN UpperCaseChar32(ch); UpperCaseChar32(chp); END;
		IF (ch # chp) THEN equals := FALSE; i := length; END; (* hash values are equal, but strings are not *)
		INC(i);
	END;
	RETURN equals;
END Equals;

(** More generic version of Pos. Basically the same search algorithm, but can also perform case-insensitive searching and/or
 * backwards directed searching.
 * Returns the position of the first character of the first occurence of 'pattern' in 'text'  in search direction or -1 if pattern not found
 *)
PROCEDURE GenericPos*(CONST pattern: ARRAY OF Char32; from : SIZE; text : Text; ignoreCase, backwards : BOOLEAN): SIZE;
CONST
	q = 8204957;	(* prime number, {(d+1) * q <= MAX(SIGNED32)} *)
	d = 256;			(* number of different characters *)
VAR h1, h2, dM: SIGNED32; i, patternLength, stringLength: SIZE; ch : Char32; found : BOOLEAN; r : Texts.TextReader;
BEGIN (* caller must hold read lock on text *)
	patternLength := UCS32StrLength(pattern); stringLength := text.GetLength();

	(* check whether the search pattern can be contained in the text regarding the search direction *)
	IF backwards THEN
		IF (patternLength > from + 1) THEN RETURN -1; END;
	ELSE
		IF (from + patternLength > stringLength) THEN RETURN -1; END;
	END;

	dM := 1; FOR i := 0 TO patternLength-2 DO dM := (d*dM) MOD q END;

	(* calculate hash value for search pattern string *)
	h1 := 0;
	FOR i := 0 TO patternLength-1  DO
		IF backwards THEN
			ch := pattern[patternLength-1-i];
		ELSE
			ch := pattern[i];
		END;
		IF ignoreCase THEN UpperCaseChar32(ch); END;
		ch := ch MOD d;
		h1 := (h1*d + ch) MOD q;
	END;

	(* calculate hash value for the first 'patternLength' characters of the text to be searched *)
	NEW(r, text);  r.SetPosition(from);
	IF backwards THEN r.SetDirection(-1); END;
	h2 := 0;
	FOR i := 0 TO patternLength-1 DO
		r.ReadCh(ch);
		IF ignoreCase THEN UpperCaseChar32(ch); END;
		ch := ch MOD d;
		h2 := (h2*d + ch) MOD q;
	END;

	i := from; found := FALSE;

	IF (h1 = h2) THEN (* Hash values match, compare strings *)
		IF backwards THEN
			r.SetDirection(1); r.SetPosition(i - patternLength + 1);
		ELSE
			r.SetPosition(i);
		END;
		found := Equals(pattern, r, patternLength,  ignoreCase);
		IF backwards THEN r.SetDirection(-1); END;
	END;

	LOOP
		(* check wether we're finished *)
		IF found THEN EXIT; END;
		IF backwards THEN
			IF (i < patternLength) THEN EXIT; END;
		ELSE
			IF (i >= stringLength-patternLength) THEN EXIT; END;
		END;

		(* remove last character from hash value *)
		r.SetPosition(i); r.ReadCh(ch);
		IF ignoreCase THEN UpperCaseChar32(ch); END;
		ch := ch MOD d;
		h2 := (h2 + d*q - ch*dM) MOD q;

		(* add next character to hash value *)
		IF backwards THEN
			r.SetPosition(i - patternLength);
		ELSE
			r.SetPosition(i + patternLength);
		END;
		r.ReadCh(ch);
		IF ignoreCase THEN UpperCaseChar32(ch); END;
		ch := ch MOD d;
		h2 := (h2*d + ch) MOD q;

		IF backwards THEN
			DEC(i);
		ELSE
			INC(i);
		END;

		IF (h1 = h2) THEN (* verify *)
			IF backwards THEN
				r.SetDirection(1); r.SetPosition(i - patternLength + 1);
			ELSE
				r.SetPosition(i);
			END;
			found := Equals(pattern, r, patternLength,  ignoreCase);
			IF backwards THEN r.SetDirection(-1); END;
		END;
	END;

	IF found THEN
		IF backwards THEN RETURN i - patternLength + 1;
		ELSE RETURN i;
		END;
	ELSE RETURN -1;
	END;
END GenericPos;

PROCEDURE Replace*(CONST string, by :Texts.UCS32String; text : Texts.Text; VAR nofReplacements : SIZE);
VAR pos, stringLen, byLen : SIZE;
BEGIN
	ASSERT(text # NIL);
	nofReplacements := 0;
	stringLen := UCS32StrLength(string);
	byLen := UCS32StrLength(by);
	text.AcquireWrite;
	pos := Pos(string, 0, text);
	WHILE (pos > 0) DO
		INC(nofReplacements);
		text.Delete(pos, stringLen);
		text.InsertUCS32(pos, by);
		pos := Pos(string, pos + byLen, text);
	END;
	text.ReleaseWrite;
END Replace;

PROCEDURE AddFontFormat*(x : FormatDescriptor);
BEGIN
	IF x.name # NIL THEN KernelLog.String("name = "); KernelLog.String(x.name^); KernelLog.Ln  END;
	IF x.loadProc # NIL THEN KernelLog.String("loadProc = "); KernelLog.String(x.loadProc^); KernelLog.Ln  END;
	IF x.storeProc # NIL THEN KernelLog.String("storeProc = "); KernelLog.String(x.storeProc^); KernelLog.Ln  END;
END AddFontFormat;

PROCEDURE GetConfig;
VAR sectFM, e : XML.Element;
	p : ANY; enum: XMLObjects.Enumerator;
	f : FormatDescriptor;
BEGIN
	IF Configuration.config # NIL THEN
		sectFM := Configuration.GetNamedElement(Configuration.config.GetRoot(), "Section", "TextFormats");
	ELSE
		sectFM := NIL;
	END;
	IF sectFM # NIL THEN
		enum := sectFM.GetContents();
		IF enum # NIL THEN
			WHILE enum.HasMoreElements() DO
				p := enum.GetNext();
				IF p IS XML.Element THEN
					NEW(f);
					f.name := p(XML.Element).GetName();

					e := Configuration.GetNamedElement(p(XML.Element), "Setting", "Load");
					IF e # NIL THEN f.loadProc := e.GetAttributeValue("Value") END;

					e := Configuration.GetNamedElement(p(XML.Element), "Setting", "Store");
					IF e # NIL THEN f.storeProc := e.GetAttributeValue("Value") END;

					AddFontFormat(f);
				END
			END
		END;
	END
END GetConfig;

(* Oberon File Format *)
PROCEDURE OberonDecoderFactory*() : Codecs.TextDecoder;
VAR p : OberonDecoder;
BEGIN
	NEW(p);
	RETURN p
END OberonDecoderFactory;

PROCEDURE OberonEncoderFactory*() : Codecs.TextEncoder;
VAR p : OberonEncoder;
BEGIN
	NEW(p);
	RETURN p
END OberonEncoderFactory;

(* Bluebottle File Format *)
PROCEDURE BluebottleDecoderFactory*() : Codecs.TextDecoder;
VAR p : BluebottleDecoder;
BEGIN
	NEW(p);
	RETURN p
END BluebottleDecoderFactory;

PROCEDURE BluebottleEncoderFactory*() : Codecs.TextEncoder;
VAR p : BluebottleEncoder;
BEGIN
	NEW(p);
	RETURN p
END BluebottleEncoderFactory;

(* UTF-8 File Format *)
PROCEDURE UTF8DecoderFactory*() : Codecs.TextDecoder;
VAR p : UTF8Decoder;
BEGIN
	NEW(p);
	RETURN p
END UTF8DecoderFactory;

PROCEDURE UTF8EncoderFactory*() : Codecs.TextEncoder;
VAR p : UTF8Encoder;
BEGIN
	NEW(p);
	RETURN p
END UTF8EncoderFactory;

(* ISO8859-1 File Format *)
PROCEDURE ISO88591DecoderFactory*() : Codecs.TextDecoder;
VAR p : ISO88591Decoder;
BEGIN
	NEW(p);
	RETURN p
END ISO88591DecoderFactory;

PROCEDURE ISO88591EncoderFactory*() : Codecs.TextEncoder;
VAR p : ISO88591Encoder;
BEGIN
	NEW(p);
	RETURN p
END ISO88591EncoderFactory;

(* Hex File Format *)
PROCEDURE HEXDecoderFactory*() : Codecs.TextDecoder;
VAR p : HEXDecoder;
BEGIN
	NEW(p);
	RETURN p
END HEXDecoderFactory;

PROCEDURE HEXEncoderFactory*() : Codecs.TextEncoder;
VAR p : HEXEncoder;
BEGIN
	NEW(p);
	RETURN p
END HEXEncoderFactory;

PROCEDURE GetClipboard* (context: Commands.Context);
VAR r: TextReader;
BEGIN
	NEW (r, Texts.clipboard);
	Streams.Copy (r, context.out); context.out.Update;
END GetClipboard;

PROCEDURE SetClipboard* (context: Commands.Context);
VAR w: TextWriter;
BEGIN
	NEW (w, Texts.clipboard);
	Streams.Copy (context.in, w); w.Update;
END SetClipboard;

PROCEDURE GetTextReader* (CONST filename: ARRAY OF CHAR): Streams.Reader;
VAR
	file: Files.File; fileReader: Files.Reader; offset: SIGNED32;
	text: Text; format: SIGNED32; res: INTEGER; textReader: TextReader;
BEGIN
	(* Optimisation: skip header of oberon files and return a file reader instead of default text reader*)
	file := Files.Old (filename);
	IF file = NIL THEN RETURN NIL END;
	NEW (fileReader, file, 0);
	IF (fileReader.Get () = 0F0X) & (fileReader.Get () = 001X) THEN
		offset := ORD (fileReader.Get ());
		INC (offset, LONG (ORD (fileReader.Get ())) * 0100H);
		fileReader.SetPos(offset);
		RETURN fileReader
	ELSE
		NEW (text);
		LoadAuto (text, filename, format, res);
		NEW (textReader, text);
		RETURN textReader
	END
END GetTextReader;

PROCEDURE GetDefaultAttributes* () : Texts.Attributes;
BEGIN
	RETURN Texts.defaultAttributes.Clone();
END GetDefaultAttributes;

BEGIN
	oberonFontAllocatable := NIL;
	GetConfig;
END TextUtilities.

TextUtilities.ConvertAll~
